SignalCaptures/P8000_WDC_CMD_21_OK.vcd
$comment Created in LWLA Logic Analyzer $end
$date 02.01.2016 00:16:13 $end
$timescale 1 ns $end
$scope module LWLA  $end
$var real 1 * sample $end
$var reg 8 A Data[7:0] $end
$var reg 3 B Status[2:0] $end
$var reg 1 C /RDY $end
$var reg 1 D /ASTB $end
$var reg 1 E /TR $end
$var reg 1 F /RST $end
$var reg 1 G /TE $end
$upscope $end
$enddefinitions $end
#0
r0 *
b0 A
b1 B
1C
1D
1E
1F
0G
#1
r1 *
#2
r2 *
#3
r3 *
#4
r4 *
#5
r5 *
#6
r6 *
#1747973359
r7 *
#1748007280
r8 *
1G
#1748007281
r9 *
b1 A
#1748007954
r10 *
b100001 A
#1748008219
r11 *
0C
#1748008484
r12 *
0D
#1748008693
r13 *
1D
#1748010054
r14 *
1C
#1748010055
r15 *
b100000 A
#1748010664
r16 *
b0 A
#1748010929
r17 *
0C
#1748011194
r18 *
0D
#1748011403
r19 *
1D
#1748013380
r20 *
1C
#1748013645
r21 *
0C
#1748013910
r22 *
0D
#1748014127
r23 *
1D
#1748016856
r24 *
1C
#1748017121
r25 *
0C
#1748017386
r26 *
0D
#1748017595
r27 *
1D
#1748019572
r28 *
1C
#1748019837
r29 *
0C
#1748020102
r30 *
0D
#1748020319
r31 *
1D
#1748022296
r32 *
1C
#1748022561
r33 *
0C
#1748022826
r34 *
0D
#1748023035
r35 *
1D
#1748026020
r36 *
1C
#1748026277
r37 *
0C
#1748026550
r38 *
0D
#1748026759
r39 *
1D
#1748028800
r40 *
1C
#1748029481
r41 *
b10 A
#1748029746
r42 *
0C
#1748030011
r43 *
0D
#1748030220
r44 *
1D
#1748031581
r45 *
1C
#1748032198
r46 *
b0 A
#1748032463
r47 *
0C
#1748032728
r48 *
0D
#1748032937
r49 *
1D
#1748055882
r50 *
1C
#1748055883
r51 *
b0 B
0E
#1758781324
r52 *
1E
#1758781325
r53 *
b11 B
#1758834718
r54 *
0E
#1758834743
r55 *
0G
#1758838136
r56 *
b111110 A
#1758838673
r57 *
0C
#1758838674
r58 *
b100010 A
0D
#1758838675
r59 *
1D
#1758838692
r60 *
b100000 A
#1758838725
r61 *
b100001 A
#1758838990
r62 *
0D
#1758839351
r63 *
1D
#1758850832
r64 *
1C
#1758851113
r65 *
0C
#1758851114
r66 *
b0 A
#1758851131
r67 *
b10 A
0D
#1758851172
r68 *
1D
#1758851437
r69 *
0D
#1758851798
r70 *
1D
#1758853279
r71 *
1C
#1758853560
r72 *
0C
#1758853561
r73 *
b0 A
#1758853570
r74 *
b1010000 A
#1758853619
r75 *
b1011000 A
#1758853884
r76 *
0D
#1758854245
r77 *
1D
#1758855726
r78 *
1C
#1758856015
r79 *
0C
#1758856016
r80 *
b0 A
0D
#1758856017
r81 *
1D
#1758856018
r82 *
0D
#1758856067
r83 *
1D
#1758856332
r84 *
0D
#1758856693
r85 *
1D
#1758858926
r86 *
1C
#1758859215
r87 *
0C
#1758859280
r88 *
b1111101 A
#1758859545
r89 *
0D
#1758859906
r90 *
1D
#1758861387
r91 *
1C
#1758861668
r92 *
0C
#1758861669
r93 *
b101000 A
#1758861678
r94 *
b101010 A
0D
#1758861727
r95 *
1D
#1758861992
r96 *
0D
#1758862353
r97 *
1D
#1758863834
r98 *
1C
#1758864123
r99 *
0C
#1758864132
r100 *
b11000010 A
0D
#1758864189
r101 *
1D
#1758864454
r102 *
0D
#1758864815
r103 *
1D
#1758866296
r104 *
1C
#1758866577
r105 *
0C
#1758866578
r106 *
b11000000 A
#1758866643
r107 *
b11111000 A
#1758866908
r108 *
0D
#1758867269
r109 *
1D
#1758868750
r110 *
1C
#1758869039
r111 *
0C
#1758869040
r112 *
b110000 A
0D
#1758869097
r113 *
b110100 A
1D
#1758869370
r114 *
0D
#1758869731
r115 *
1D
#1758871212
r116 *
1C
#1758871493
r117 *
0C
#1758871510
r118 *
b1 A
0D
#1758871559
r119 *
1D
#1758871824
r120 *
0D
#1758872185
r121 *
1D
#1758874418
r122 *
1C
#1758874699
r123 *
0C
#1758874772
r124 *
b0 A
#1758875037
r125 *
0D
#1758875398
r126 *
1D
#1758876879
r127 *
1C
#1758877168
r128 *
0C
#1758877233
r129 *
b1100 A
#1758877506
r130 *
0D
#1758877867
r131 *
1D
#1758879348
r132 *
1C
#1758879629
r133 *
0C
#1758879630
r134 *
b0 A
0D
#1758879695
r135 *
b10100001 A
1D
#1758879960
r136 *
0D
#1758880321
r137 *
1D
#1758881802
r138 *
1C
#1758882083
r139 *
0C
#1758882084
r140 *
b100001 A
#1758882149
r141 *
b101111 A
#1758882414
r142 *
0D
#1758882783
r143 *
1D
#1758884264
r144 *
1C
#1758884545
r145 *
0C
#1758884546
r146 *
b100001 A
0D
#1758884555
r147 *
1D
#1758884556
r148 *
0D
#1758884597
r149 *
1D
#1758884862
r150 *
0D
#1758885223
r151 *
1D
#1758887456
r152 *
1C
#1758887737
r153 *
0C
#1758887738
r154 *
b1100 A
#1758887803
r155 *
b1110 A
#1758888068
r156 *
0D
#1758888429
r157 *
1D
#1758889910
r158 *
1C
#1758890191
r159 *
0C
#1758890208
r160 *
b10 A
0D
#1758890209
r161 *
1D
#1758890210
r162 *
0D
#1758890243
r163 *
1D
#1758890508
r164 *
0D
#1758890877
r165 *
1D
#1758892358
r166 *
1C
#1758892639
r167 *
0C
#1758892712
r168 *
b0 A
#1758892977
r169 *
0D
#1758893338
r170 *
1D
#1758894819
r171 *
1C
#1758895108
r172 *
0C
#1758895173
r173 *
b10111010 A
#1758895438
r174 *
0D
#1758895807
r175 *
1D
#1758897288
r176 *
1C
#1758897569
r177 *
0C
#1758897586
r178 *
b10001 A
0D
#1758897627
r179 *
1D
#1758897900
r180 *
0D
#1758898261
r181 *
1D
#1758899742
r182 *
1C
#1758900023
r183 *
0C
#1758900024
r184 *
b1100 A
#1758900089
r185 *
b1110 A
#1758900354
r186 *
0D
#1758900715
r187 *
1D
#1758902948
r188 *
1C
#1758903229
r189 *
0C
#1758903230
r190 *
b0 A
0D
#1758903295
r191 *
b100000 A
1D
#1758903560
r192 *
0D
#1758903929
r193 *
1D
#1758905410
r194 *
1C
#1758905683
r195 *
0C
#1758905684
r196 *
b0 A
#1758905749
r197 *
b11110 A
#1758906022
r198 *
0D
#1758906383
r199 *
1D
#1758907864
r200 *
1C
#1758908145
r201 *
0C
#1758908146
r202 *
b10111000 A
0D
#1758908211
r203 *
b11111000 A
1D
#1758908476
r204 *
0D
#1758908837
r205 *
1D
#1758910318
r206 *
1C
#1758910599
r207 *
0C
#1758910600
r208 *
b10010000 A
#1758910609
r209 *
b10010001 A
0D
#1758910658
r210 *
1D
#1758910931
r211 *
0D
#1758911292
r212 *
1D
#1758912773
r213 *
1C
#1758913054
r214 *
0C
#1758913127
r215 *
b11110110 A
#1758913392
r216 *
0D
#1758913753
r217 *
1D
#1758915234
r218 *
1C
#1758915515
r219 *
0C
#1758915516
r220 *
b10010000 A
0D
#1758915533
r221 *
b10010001 A
#1758915574
r222 *
1D
#1758915839
r223 *
0D
#1758916208
r224 *
1D
#1758918433
r225 *
1C
#1758918714
r226 *
0C
#1758918715
r227 *
b10010000 A
#1758918780
r228 *
b11110100 A
#1758919045
r229 *
0D
#1758919414
r230 *
1D
#1758920895
r231 *
1C
#1758921176
r232 *
0C
#1758921177
r233 *
b10000101 A
0D
#1758921242
r234 *
b10001101 A
1D
#1758921507
r235 *
0D
#1758921868
r236 *
1D
#1758923349
r237 *
1C
#1758923630
r238 *
0C
#1758923631
r239 *
b100 A
#1758923632
r240 *
b1000100 A
0D
#1758923689
r241 *
1D
#1758923954
r242 *
0D
#1758924323
r243 *
1D
#1758925804
r244 *
1C
#1758926085
r245 *
0C
#1758926150
r246 *
b11101110 A
#1758926423
r247 *
0D
#1758926784
r248 *
1D
#1758928265
r249 *
1C
#1758928546
r250 *
0C
#1758928571
r251 *
b10 A
0D
#1758928612
r252 *
1D
#1758928877
r253 *
0D
#1758929246
r254 *
1D
#1758931471
r255 *
1C
#1758931752
r256 *
0C
#1758931753
r257 *
b0 A
#1758931818
r258 *
b110100 A
#1758932083
r259 *
0D
#1758932452
r260 *
1D
#1758933933
r261 *
1C
#1758934206
r262 *
0C
#1758934207
r263 *
b100 A
#1758934208
r264 *
b1110 A
0D
#1758934265
r265 *
1D
#1758934538
r266 *
0D
#1758934899
r267 *
1D
#1758936380
r268 *
1C
#1758936661
r269 *
0C
#1758936662
r270 *
b1 A
0D
#1758936727
r271 *
1D
#1758936992
r272 *
0D
#1758937361
r273 *
1D
#1758938842
r274 *
1C
#1758939123
r275 *
0C
#1758939188
r276 *
b10010111 A
#1758939461
r277 *
0D
#1758939822
r278 *
1D
#1758941303
r279 *
1C
#1758941584
r280 *
0C
#1758941657
r281 *
b110100 A
#1758941922
r282 *
0D
#1758942291
r283 *
1D
#1758943772
r284 *
1C
#1758944045
r285 *
0C
#1758944062
r286 *
b0 A
0D
#1758944063
r287 *
1D
#1758944104
r288 *
b1000 A
#1758944369
r289 *
0D
#1758944738
r290 *
1D
#1758946971
r291 *
1C
#1758947244
r292 *
0C
#1758947245
r293 *
b0 A
#1758947310
r294 *
b1 A
#1758947575
r295 *
0D
#1758947944
r296 *
1D
#1758949425
r297 *
1C
#1758949706
r298 *
0C
#1758949779
r299 *
b10010000 A
#1758950044
r300 *
0D
#1758950413
r301 *
1D
#1758951894
r302 *
1C
#1758952175
r303 *
0C
#1758952240
r304 *
b11011111 A
#1758952505
r305 *
0D
#1758952874
r306 *
1D
#1758954355
r307 *
1C
#1758954636
r308 *
0C
#1758954637
r309 *
b1001100 A
0D
#1758954694
r310 *
b1101100 A
1D
#1758954967
r311 *
0D
#1758955328
r312 *
1D
#1758956809
r313 *
1C
#1758957090
r314 *
0C
#1758957091
r315 *
b100001 A
0D
#1758957156
r316 *
1D
#1758957421
r317 *
0D
#1758957790
r318 *
1D
#1758959271
r319 *
1C
#1758959544
r320 *
0C
#1758959545
r321 *
b0 A
#1758959546
r322 *
b1010 A
#1758959547
r323 *
0D
#1758959596
r324 *
1D
#1758959861
r325 *
0D
#1758960230
r326 *
1D
#1758962463
r327 *
1C
#1758962744
r328 *
0C
#1758962809
r329 *
b11111110 A
#1758963074
r330 *
0D
#1758963451
r331 *
1D
#1758964932
r332 *
1C
#1758965205
r333 *
0C
#1758965206
r334 *
b101000 A
0D
#1758965207
r335 *
1D
#1758965208
r336 *
0D
#1758965257
r337 *
1D
#1758965522
r338 *
0D
#1758965891
r339 *
1D
#1758967372
r340 *
1C
#1758967645
r341 *
0C
#1758967646
r342 *
b100000 A
#1758967711
r343 *
b10100001 A
#1758967976
r344 *
0D
#1758968345
r345 *
1D
#1758969826
r346 *
1C
#1758970107
r347 *
0C
#1758970180
r348 *
b10101011 A
#1758970445
r349 *
0D
#1758970814
r350 *
1D
#1758972295
r351 *
1C
#1758972568
r352 *
0C
#1758972641
r353 *
b10100001 A
#1758972906
r354 *
0D
#1758973275
r355 *
1D
#1758975508
r356 *
1C
#1758975781
r357 *
0C
#1758975782
r358 *
b10100000 A
#1758975847
r359 *
b10111100 A
#1758976112
r360 *
0D
#1758976481
r361 *
1D
#1758977962
r362 *
1C
#1758978243
r363 *
0C
#1758978244
r364 *
b11011111 A
0D
#1758978309
r365 *
1D
#1758978574
r366 *
0D
#1758978943
r367 *
1D
#1758980424
r368 *
1C
#1758980697
r369 *
0C
#1758980698
r370 *
b1001001 A
0D
#1758980699
r371 *
1D
#1758980756
r372 *
b1101001 A
#1758981021
r373 *
0D
#1758981390
r374 *
1D
#1758982871
r375 *
1C
#1758983144
r376 *
0C
#1758983145
r377 *
b1000 A
#1758983170
r378 *
b1010 A
0D
#1758983203
r379 *
1D
#1758983476
r380 *
0D
#1758983845
r381 *
1D
#1758985326
r382 *
1C
#1758985599
r383 *
0C
#1758985672
r384 *
b1000 A
#1758985937
r385 *
0D
#1758986306
r386 *
1D
#1758987787
r387 *
1C
#1758988068
r388 *
0C
#1758988133
r389 *
b1010 A
#1758988398
r390 *
0D
#1758988767
r391 *
1D
#1758991000
r392 *
1C
#1758991353
r393 *
0C
#1758991626
r394 *
0D
#1758991995
r395 *
1D
#1758993476
r396 *
1C
#1758993749
r397 *
0C
#1758993750
r398 *
b11101110 A
#1758993815
r399 *
b11100110 A
#1758994080
r400 *
0D
#1758994449
r401 *
1D
#1758995930
r402 *
1C
#1758996203
r403 *
0C
#1758996204
r404 *
b10 A
0D
#1758996213
r405 *
b1010 A
#1758996214
r406 *
1D
#1758996215
r407 *
0D
#1758996248
r408 *
1D
#1758996513
r409 *
0D
#1758996890
r410 *
1D
#1758998371
r411 *
1C
#1758998724
r412 *
0C
#1758998989
r413 *
0D
#1758999358
r414 *
1D
#1759000839
r415 *
1C
#1759001112
r416 *
0C
#1759001185
r417 *
b1000 A
#1759001450
r418 *
0D
#1759001819
r419 *
1D
#1759003308
r420 *
1C
#1759003581
r421 *
0C
#1759003646
r422 *
b101111 A
#1759003919
r423 *
0D
#1759004288
r424 *
1D
#1759006521
r425 *
1C
#1759006874
r426 *
0C
#1759007139
r427 *
0D
#1759007508
r428 *
1D
#1759008989
r429 *
1C
#1759009262
r430 *
0C
#1759009263
r431 *
b1100110 A
0D
#1759009328
r432 *
b11100110 A
1D
#1759009593
r433 *
0D
#1759009970
r434 *
1D
#1759011451
r435 *
1C
#1759011716
r436 *
0C
#1759011717
r437 *
b10000010 A
#1759011742
r438 *
b11 A
0D
#1759011775
r439 *
1D
#1759012048
r440 *
0D
#1759012417
r441 *
1D
#1759013898
r442 *
1C
#1759014171
r443 *
0C
#1759014244
r444 *
b101110 A
#1759014509
r445 *
0D
#1759014878
r446 *
1D
#1759016359
r447 *
1C
#1759016632
r448 *
0C
#1759016633
r449 *
b1000 A
0D
#1759016642
r450 *
b10001000 A
#1759016691
r451 *
b11001000 A
1D
#1759016956
r452 *
0D
#1759017333
r453 *
1D
#1759018814
r454 *
1C
#1759019087
r455 *
0C
#1759019160
r456 *
b10101001 A
#1759019425
r457 *
0D
#1759019794
r458 *
1D
#1759022027
r459 *
1C
#1759022300
r460 *
0C
#1759022317
r461 *
b11000000 A
0D
#1759022366
r462 *
1D
#1759022631
r463 *
0D
#1759023000
r464 *
1D
#1759024481
r465 *
1C
#1759024762
r466 *
0C
#1759024827
r467 *
b11101000 A
#1759025092
r468 *
0D
#1759025469
r469 *
1D
#1759026950
r470 *
1C
#1759027471
r471 *
0C
#1759027472
r472 *
b11100000 A
0D
#1759027537
r473 *
b11110110 A
1D
#1759027802
r474 *
0D
#1759028179
r475 *
1D
#1759029404
r476 *
1C
#1759029677
r477 *
0C
#1759029694
r478 *
b10000011 A
0D
#1759029695
r479 *
b10001011 A
#1759029736
r480 *
1D
#1759030001
r481 *
0D
#1759030378
r482 *
1D
#1759031859
r483 *
1C
#1759032124
r484 *
0C
#1759032125
r485 *
b10001000 A
#1759032190
r486 *
b10111100 A
#1759032455
r487 *
0D
#1759032832
r488 *
1D
#1759035065
r489 *
1C
#1759035330
r490 *
0C
#1759035331
r491 *
b10110100 A
#1759035332
r492 *
b11100110 A
0D
#1759035389
r493 *
1D
#1759035662
r494 *
0D
#1759036031
r495 *
1D
#1759037512
r496 *
1C
#1759037785
r497 *
0C
#1759037786
r498 *
b11100100 A
#1759037851
r499 *
b11110100 A
#1759038116
r500 *
0D
#1759038493
r501 *
1D
#1759039974
r502 *
1C
#1759040239
r503 *
0C
#1759040240
r504 *
b11010100 A
#1759040305
r505 *
b11011111 A
#1759040578
r506 *
0D
#1759040947
r507 *
1D
#1759042428
r508 *
1C
#1759042701
r509 *
0C
#1759042702
r510 *
b10000011 A
0D
#1759042703
r511 *
1D
#1759042704
r512 *
0D
#1759042753
r513 *
1D
#1759043018
r514 *
0D
#1759043395
r515 *
1D
#1759044876
r516 *
1C
#1759045141
r517 *
0C
#1759045142
r518 *
b10000000 A
#1759045207
r519 *
b11101000 A
#1759045472
r520 *
0D
#1759045849
r521 *
1D
#1759047330
r522 *
1C
#1759047603
r523 *
0C
#1759047604
r524 *
b11110001 A
0D
#1759047669
r525 *
1D
#1759047934
r526 *
0D
#1759048303
r527 *
1D
#1759050536
r528 *
1C
#1759050809
r529 *
0C
#1759050882
r530 *
b11011111 A
#1759051147
r531 *
0D
#1759051524
r532 *
1D
#1759053005
r533 *
1C
#1759053270
r534 *
0C
#1759053343
r535 *
b10000101 A
#1759053616
r536 *
0D
#1759053985
r537 *
1D
#1759055466
r538 *
1C
#1759055739
r539 *
0C
#1759055804
r540 *
b1100 A
#1759056077
r541 *
0D
#1759056454
r542 *
1D
#1759057935
r543 *
1C
#1759058200
r544 *
0C
#1759058201
r545 *
b1000 A
0D
#1759058266
r546 *
b10111000 A
1D
#1759058531
r547 *
0D
#1759058908
r548 *
1D
#1759060389
r549 *
1C
#1759060662
r550 *
0C
#1759060727
r551 *
b10111101 A
#1759060992
r552 *
0D
#1759061369
r553 *
1D
#1759062850
r554 *
1C
#1759063123
r555 *
0C
#1759063124
r556 *
b10110010 A
0D
#1759063189
r557 *
1D
#1759063454
r558 *
0D
#1759063831
r559 *
1D
#1759066064
r560 *
1C
#1759066329
r561 *
0C
#1759066330
r562 *
b10010110 A
#1759066395
r563 *
b11011111 A
#1759066660
r564 *
0D
#1759067037
r565 *
1D
#1759068518
r566 *
1C
#1759068783
r567 *
0C
#1759068784
r568 *
b11000001 A
#1759068793
r569 *
0D
#1759068794
r570 *
1D
#1759068795
r571 *
0D
#1759068828
r572 *
1D
#1759069101
r573 *
0D
#1759069470
r574 *
1D
#1759070951
r575 *
1C
#1759071224
r576 *
0C
#1759071225
r577 *
b11101100 A
#1759071290
r578 *
b11101110 A
#1759071555
r579 *
0D
#1759071932
r580 *
1D
#1759073413
r581 *
1C
#1759073678
r582 *
0C
#1759073679
r583 *
b101010 A
0D
#1759073680
r584 *
b111011 A
#1759073737
r585 *
1D
#1759074002
r586 *
0D
#1759074379
r587 *
1D
#1759075860
r588 *
1C
#1759076133
r589 *
0C
#1759076142
r590 *
b1100 A
#1759076151
r591 *
0D
#1759076192
r592 *
1D
#1759076457
r593 *
0D
#1759076834
r594 *
1D
#1759079067
r595 *
1C
#1759079332
r596 *
0C
#1759079333
r597 *
b10100100 A
0D
#1759079398
r598 *
1D
#1759079663
r599 *
0D
#1759080040
r600 *
1D
#1759081521
r601 *
1C
#1759081794
r602 *
0C
#1759081859
r603 *
b11100110 A
#1759082124
r604 *
0D
#1759082501
r605 *
1D
#1759083982
r606 *
1C
#1759084255
r607 *
0C
#1759084256
r608 *
b11 A
0D
#1759084265
r609 *
b10011 A
#1759084306
r610 *
1D
#1759084579
r611 *
0D
#1759084956
r612 *
1D
#1759086437
r613 *
1C
#1759086702
r614 *
0C
#1759086703
r615 *
b1 A
#1759086768
r616 *
b10001101 A
#1759087033
r617 *
0D
#1759087410
r618 *
1D
#1759088891
r619 *
1C
#1759089156
r620 *
0C
#1759089157
r621 *
b10000100 A
#1759089158
r622 *
b11010100 A
0D
#1759089215
r623 *
1D
#1759089488
r624 *
0D
#1759089865
r625 *
1D
#1759091346
r626 *
1C
#1759091611
r627 *
0C
#1759091684
r628 *
b11100110 A
#1759091949
r629 *
0D
#1759092326
r630 *
1D
#1759094559
r631 *
1C
#1759094824
r632 *
0C
#1759094825
r633 *
b100010 A
0D
#1759094890
r634 *
b110010 A
1D
#1759095155
r635 *
0D
#1759095532
r636 *
1D
#1759097013
r637 *
1C
#1759097278
r638 *
0C
#1759097279
r639 *
b10010 A
#1759097344
r640 *
b11011111 A
#1759097609
r641 *
0D
#1759097994
r642 *
1D
#1759099475
r643 *
1C
#1759099740
r644 *
0C
#1759099741
r645 *
b10010110 A
0D
#1759099806
r646 *
1D
#1759100071
r647 *
0D
#1759100448
r648 *
1D
#1759101929
r649 *
1C
#1759102194
r650 *
0C
#1759102195
r651 *
b10000110 A
#1759102260
r652 *
b11101110 A
#1759102525
r653 *
0D
#1759102910
r654 *
1D
#1759104391
r655 *
1C
#1759104656
r656 *
0C
#1759104657
r657 *
b100101 A
0D
#1759104722
r658 *
b110101 A
1D
#1759104987
r659 *
0D
#1759105364
r660 *
1D
#1759106845
r661 *
1C
#1759107110
r662 *
0C
#1759107111
r663 *
b10101 A
#1759107112
r664 *
b10010111 A
0D
#1759107169
r665 *
1D
#1759107434
r666 *
0D
#1759107811
r667 *
1D
#1759110044
r668 *
1C
#1759110309
r669 *
0C
#1759110310
r670 *
b10010011 A
0D
#1759110375
r671 *
b10011011 A
1D
#1759110640
r672 *
0D
#1759111025
r673 *
1D
#1759112506
r674 *
1C
#1759112763
r675 *
0C
#1759112764
r676 *
b10001001 A
#1759112829
r677 *
b10001101 A
#1759113102
r678 *
0D
#1759113479
r679 *
1D
#1759114960
r680 *
1C
#1759115225
r681 *
0C
#1759115226
r682 *
b10100100 A
#1759115291
r683 *
b10110100 A
#1759115556
r684 *
0D
#1759115941
r685 *
1D
#1759117422
r686 *
1C
#1759117679
r687 *
0C
#1759117680
r688 *
b10100100 A
#1759117745
r689 *
b11100110 A
#1759118018
r690 *
0D
#1759118395
r691 *
1D
#1759119876
r692 *
1C
#1759120141
r693 *
0C
#1759120158
r694 *
b111 A
0D
#1759120207
r695 *
1D
#1759120472
r696 *
0D
#1759120849
r697 *
1D
#1759123082
r698 *
1C
#1759123347
r699 *
0C
#1759123348
r700 *
b11101 A
#1759123413
r701 *
b10111101 A
#1759123678
r702 *
0D
#1759124063
r703 *
1D
#1759125544
r704 *
1C
#1759125801
r705 *
0C
#1759125802
r706 *
b10001100 A
#1759125819
r707 *
b1100 A
0D
#1759125820
r708 *
b1110 A
#1759125853
r709 *
1D
#1759126126
r710 *
0D
#1759126503
r711 *
1D
#1759127984
r712 *
1C
#1759128249
r713 *
0C
#1759128250
r714 *
b10100001 A
0D
#1759128315
r715 *
1D
#1759128580
r716 *
0D
#1759128957
r717 *
1D
#1759130438
r718 *
1C
#1759130703
r719 *
0C
#1759130704
r720 *
b10000001 A
#1759130705
r721 *
b10010001 A
#1759130706
r722 *
0D
#1759130755
r723 *
1D
#1759131020
r724 *
0D
#1759131405
r725 *
1D
#1759132886
r726 *
1C
#1759133143
r727 *
0C
#1759133144
r728 *
b10000001 A
#1759133209
r729 *
b10100001 A
#1759133482
r730 *
0D
#1759133859
r731 *
1D
#1759135340
r732 *
1C
#1759135605
r733 *
0C
#1759135606
r734 *
b10100000 A
#1759135671
r735 *
b10100010 A
#1759135936
r736 *
0D
#1759136321
r737 *
1D
#1759138546
r738 *
1C
#1759138819
r739 *
0C
#1759138884
r740 *
b10111010 A
#1759139149
r741 *
0D
#1759139534
r742 *
1D
#1759141015
r743 *
1C
#1759141272
r744 *
0C
#1759141273
r745 *
b10010010 A
#1759141282
r746 *
b10110 A
0D
#1759141331
r747 *
1D
#1759141604
r748 *
0D
#1759141981
r749 *
1D
#1759143462
r750 *
1C
#1759143727
r751 *
0C
#1759143728
r752 *
b0 A
0D
#1759143793
r753 *
1D
#1759144058
r754 *
0D
#1759144443
r755 *
1D
#1759145924
r756 *
1C
#1759146189
r757 *
0C
#1759146254
r758 *
b10101110 A
#1759146519
r759 *
0D
#1759146904
r760 *
1D
#1759148385
r761 *
1C
#1759148650
r762 *
0C
#1759148723
r763 *
b11101110 A
#1759148988
r764 *
0D
#1759149373
r765 *
1D
#1759150854
r766 *
1C
#1759151119
r767 *
0C
#1759151184
r768 *
b11101111 A
#1759151449
r769 *
0D
#1759151834
r770 *
1D
#1759154067
r771 *
1C
#1759154324
r772 *
0C
#1759154325
r773 *
b10101001 A
#1759154334
r774 *
b10100001 A
0D
#1759154383
r775 *
1D
#1759154648
r776 *
0D
#1759155033
r777 *
1D
#1759156514
r778 *
1C
#1759156779
r779 *
0C
#1759156780
r780 *
b101000 A
#1759156845
r781 *
b101010 A
#1759157110
r782 *
0D
#1759157495
r783 *
1D
#1759158976
r784 *
1C
#1759159233
r785 *
0C
#1759159234
r786 *
b101000 A
#1759159299
r787 *
b10101001 A
#1759159564
r788 *
0D
#1759159949
r789 *
1D
#1759161430
r790 *
1C
#1759161687
r791 *
0C
#1759161688
r792 *
b10001001 A
#1759161753
r793 *
b10011101 A
#1759162026
r794 *
0D
#1759162411
r795 *
1D
#1759163892
r796 *
1C
#1759164149
r797 *
0C
#1759164150
r798 *
b1001 A
0D
#1759164215
r799 *
b1011 A
1D
#1759164480
r800 *
0D
#1759164865
r801 *
1D
#1759166346
r802 *
1C
#1759166603
r803 *
0C
#1759166676
r804 *
b1001 A
#1759166949
r805 *
0D
#1759167326
r806 *
1D
#1759169559
r807 *
1C
#1759169816
r808 *
0C
#1759169817
r809 *
b1000 A
#1759169882
r810 *
b11111100 A
#1759170147
r811 *
0D
#1759170540
r812 *
1D
#1759172021
r813 *
1C
#1759172278
r814 *
0C
#1759172311
r815 *
b0 A
0D
#1759172344
r816 *
1D
#1759172505
r817 *
0D
#1759172602
r818 *
1C
#1759174475
r819 *
1D
#1759174988
r820 *
0C
#1759175053
r821 *
b11101001 A
#1759175318
r822 *
0D
#1759175711
r823 *
1D
#1759176936
r824 *
1C
#1759177201
r825 *
0C
#1759177274
r826 *
b11101110 A
#1759177539
r827 *
0D
#1759177924
r828 *
1D
#1759179405
r829 *
1C
#1759179662
r830 *
0C
#1759179663
r831 *
b11101000 A
0D
#1759179728
r832 *
1D
#1759179993
r833 *
0D
#1759180378
r834 *
1D
#1759182611
r835 *
1C
#1759182868
r836 *
0C
#1759182869
r837 *
b11100000 A
#1759182934
r838 *
b11110001 A
#1759183199
r839 *
0D
#1759183584
r840 *
1D
#1759185065
r841 *
1C
#1759185330
r842 *
0C
#1759185331
r843 *
b10001001 A
0D
#1759185332
r844 *
b10001101 A
1D
#1759185333
r845 *
0D
#1759185382
r846 *
1D
#1759185647
r847 *
0D
#1759186032
r848 *
1D
#1759187513
r849 *
1C
#1759187770
r850 *
0C
#1759187771
r851 *
b10000100 A
#1759187836
r852 *
b11010100 A
#1759188101
r853 *
0D
#1759188486
r854 *
1D
#1759189967
r855 *
1C
#1759190224
r856 *
0C
#1759190225
r857 *
b11000100 A
#1759190290
r858 *
b11100110 A
#1759190563
r859 *
0D
#1759190948
r860 *
1D
#1759192429
r861 *
1C
#1759192686
r862 *
0C
#1759192687
r863 *
b110 A
0D
#1759192752
r864 *
b11111 A
1D
#1759193017
r865 *
0D
#1759193402
r866 *
1D
#1759194883
r867 *
1C
#1759195148
r868 *
0C
#1759195213
r869 *
b11011111 A
#1759195486
r870 *
0D
#1759195863
r871 *
1D
#1759198096
r872 *
1C
#1759198353
r873 *
0C
#1759198354
r874 *
b10001001 A
#1759198355
r875 *
0D
#1759198364
r876 *
1D
#1759198405
r877 *
b10101001 A
#1759198670
r878 *
0D
#1759199063
r879 *
1D
#1759200544
r880 *
1C
#1759200801
r881 *
0C
#1759200802
r882 *
b11101100 A
#1759200867
r883 *
b11101110 A
#1759201132
r884 *
0D
#1759201517
r885 *
1D
#1759202998
r886 *
1C
#1759203255
r887 *
0C
#1759203272
r888 *
b100010 A
0D
#1759203321
r889 *
1D
#1759203586
r890 *
0D
#1759203979
r891 *
1D
#1759205460
r892 *
1C
#1759205717
r893 *
0C
#1759205790
r894 *
b1101 A
#1759206055
r895 *
0D
#1759206440
r896 *
1D
#1759207921
r897 *
1C
#1759208178
r898 *
0C
#1759208179
r899 *
b1 A
0D
#1759208244
r900 *
b10010001 A
1D
#1759208509
r901 *
0D
#1759208902
r902 *
1D
#1759210383
r903 *
1C
#1759210632
r904 *
0C
#1759210633
r905 *
b10000001 A
#1759210698
r906 *
b11100111 A
#1759210971
r907 *
0D
#1759211356
r908 *
1D
#1759213589
r909 *
1C
#1759213846
r910 *
0C
#1759213863
r911 *
b111 A
0D
#1759213912
r912 *
1D
#1759214177
r913 *
0D
#1759214562
r914 *
1D
#1759216043
r915 *
1C
#1759216300
r916 *
0C
#1759216301
r917 *
b110 A
#1759216366
r918 *
b11101110 A
#1759216631
r919 *
0D
#1759217024
r920 *
1D
#1759218505
r921 *
1C
#1759218754
r922 *
0C
#1759218755
r923 *
b10001010 A
#1759218756
r924 *
b1010 A
0D
#1759218757
r925 *
b11010 A
#1759218758
r926 *
1D
#1759218759
r927 *
0D
#1759218792
r928 *
1D
#1759219065
r929 *
0D
#1759219450
r930 *
1D
#1759220931
r931 *
1C
#1759221188
r932 *
0C
#1759221189
r933 *
b0 A
0D
#1759221254
r934 *
b1100001 A
1D
#1759221519
r935 *
0D
#1759221904
r936 *
1D
#1759223385
r937 *
1C
#1759223642
r938 *
0C
#1759223643
r939 *
b1 A
#1759223708
r940 *
b10011011 A
#1759223973
r941 *
0D
#1759224366
r942 *
1D
#1759226599
r943 *
1C
#1759226848
r944 *
0C
#1759226849
r945 *
b10000010 A
#1759226850
r946 *
b0 A
0D
#1759226851
r947 *
1D
#1759226860
r948 *
0D
#1759226893
r949 *
1D
#1759227166
r950 *
0D
#1759227551
r951 *
1D
#1759229032
r952 *
1C
#1759229289
r953 *
0C
#1759229362
r954 *
b10000 A
#1759229627
r955 *
0D
#1759230012
r956 *
1D
#1759231501
r957 *
1C
#1759231750
r958 *
0C
#1759231751
r959 *
b0 A
#1759231816
r960 *
b100001 A
#1759232081
r961 *
0D
#1759232474
r962 *
1D
#1759233955
r963 *
1C
#1759234212
r964 *
0C
#1759234213
r965 *
b0 A
#1759234222
r966 *
0D
#1759234271
r967 *
1D
#1759234536
r968 *
0D
#1759234921
r969 *
1D
#1759236402
r970 *
1C
#1759236739
r971 *
0C
#1759237004
r972 *
0D
#1759237397
r973 *
1D
#1759238878
r974 *
1C
#1759239135
r975 *
0C
#1759239200
r976 *
b11000 A
#1759239473
r977 *
0D
#1759239858
r978 *
1D
