SignalCaptures/P8000_Emulator_CMD_21_OK.vcd
$comment Created in LWLA Logic Analyzer $end
$date 02.01.2016 02:18:12 $end
$timescale 1 ns $end
$scope module LWLA  $end
$var real 1 * sample $end
$var reg 8 A Data[7:0] $end
$var reg 3 B Status[2:0] $end
$var reg 1 C /RDY $end
$var reg 1 D /ASTB $end
$var reg 1 E /TR $end
$var reg 1 F /RST $end
$var reg 1 G /TE $end
$upscope $end
$enddefinitions $end
#0
r0 *
b0 A
b1 B
1C
1D
1E
1F
0G
#1
r1 *
#2
r2 *
#3
r3 *
#4
r4 *
#5
r5 *
#6
r6 *
#516950823
r7 *
#516984736
r8 *
1G
#516984737
r9 *
b1 A
#516985410
r10 *
b100001 A
#516985811
r11 *
0C
#516986076
r12 *
0D
#516986397
r13 *
1D
#516987510
r14 *
1C
#516987511
r15 *
b100000 A
#516988112
r16 *
b0 A
#516988537
r17 *
0C
#516988802
r18 *
0D
#516989107
r19 *
1D
#516991588
r20 *
1C
#516991925
r21 *
0C
#516992190
r22 *
0D
#516992575
r23 *
1D
#516994304
r24 *
1C
#516994665
r25 *
0C
#516994930
r26 *
0D
#516995299
r27 *
1D
#516997028
r28 *
1C
#516997405
r29 *
0C
#516997670
r30 *
0D
#516998023
r31 *
1D
#516999752
r32 *
1C
#517000145
r33 *
0C
#517000402
r34 *
0D
#517000739
r35 *
1D
#517003468
r36 *
1C
#517003861
r37 *
0C
#517004118
r38 *
0D
#517004463
r39 *
1D
#517006256
r40 *
1C
#517006937
r41 *
b10 A
#517007242
r42 *
0C
#517007507
r43 *
0D
#517007924
r44 *
1D
#517009045
r45 *
1C
#517009654
r46 *
b0 A
#517009975
r47 *
0C
#517010232
r48 *
0D
#517010641
r49 *
1D
#517011154
r50 *
1C
#517930595
r51 *
b0 B
#517930756
r52 *
0E
#517986965
r53 *
b11 B
#517987702
r54 *
0G
#517990383
r55 *
b100001 A
#517990672
r56 *
0C
#517990777
r57 *
0D
#517991130
r58 *
1D
#517991739
r59 *
1C
#517991740
r60 *
b100011 A
#518003093
r61 *
b10 A
#518003494
r62 *
0C
#518003591
r63 *
0D
#518003832
r64 *
1D
#518004393
r65 *
1C
#518004394
r66 *
b1011010 A
#518005547
r67 *
b1011000 A
#518005892
r68 *
0C
#518005989
r69 *
0D
#518006294
r70 *
1D
#518006967
r71 *
1C
#518008016
r72 *
b0 A
#518008297
r73 *
0C
#518008394
r74 *
0D
#518008755
r75 *
1D
#518009356
r76 *
1C
#518009357
r77 *
b111100 A
#518011222
r78 *
b1111101 A
#518011511
r79 *
0C
#518011608
r80 *
0D
#518011961
r81 *
1D
#518012586
r82 *
1C
#518013683
r83 *
b101010 A
#518014076
r84 *
0C
#518014181
r85 *
0D
#518014430
r86 *
1D
#518014983
r87 *
1C
#518014984
r88 *
b11101010 A
#518016145
r89 *
b11000010 A
#518016482
r90 *
0C
#518016579
r91 *
0D
#518016884
r92 *
1D
#518017541
r93 *
1C
#518017550
r94 *
b11111010 A
#518018599
r95 *
b11111000 A
#518018880
r96 *
0C
#518018977
r97 *
0D
#518019338
r98 *
1D
#518019939
r99 *
1C
#518019948
r100 *
b11111100 A
#518021061
r101 *
b110100 A
#518021438
r102 *
0C
#518021543
r103 *
0D
#518021800
r104 *
1D
#518022505
r105 *
1C
#518022506
r106 *
b110101 A
#518023515
r107 *
b1 A
#518023836
r108 *
0C
#518023941
r109 *
0D
#518024254
r110 *
1D
#518024911
r111 *
1C
#518026728
r112 *
b0 A
#518027057
r113 *
0C
#518027162
r114 *
0D
#518027467
r115 *
1D
#518028124
r116 *
1C
#518029197
r117 *
b1100 A
#518029630
r118 *
0C
#518029727
r119 *
0D
#518029936
r120 *
1D
#518030529
r121 *
1C
#518030538
r122 *
b10101101 A
#518031651
r123 *
b10100001 A
#518032028
r124 *
0C
#518032125
r125 *
0D
#518032390
r126 *
1D
#518033087
r127 *
1C
#518033088
r128 *
b10100101 A
#518033089
r129 *
b10101111 A
#518034106
r130 *
b101111 A
#518034419
r131 *
0C
#518034524
r132 *
0D
#518034845
r133 *
1D
#518035494
r134 *
1C
#518036567
r135 *
b100001 A
#518036992
r136 *
0C
#518037089
r137 *
0D
#518037306
r138 *
1D
#518037891
r139 *
1C
#518037900
r140 *
b101111 A
#518039773
r141 *
b1110 A
#518040206
r142 *
0C
#518040303
r143 *
0D
#518040512
r144 *
1D
#518041113
r145 *
1C
#518042234
r146 *
b10 A
#518042611
r147 *
0C
#518042708
r148 *
0D
#518042981
r149 *
1D
#518043686
r150 *
1C
#518044703
r151 *
b0 A
#518045016
r152 *
0C
#518045113
r153 *
0D
#518045442
r154 *
1D
#518046083
r155 *
1C
#518047172
r156 *
b10111010 A
#518047589
r157 *
0C
#518047686
r158 *
0D
#518047911
r159 *
1D
#518048488
r160 *
1C
#518048489
r161 *
b10111011 A
#518048490
r162 *
b110001 A
#518049619
r163 *
b10001 A
#518049980
r164 *
0C
#518050077
r165 *
0D
#518050358
r166 *
1D
#518051039
r167 *
1C
#518051048
r168 *
b11111 A
#518052073
r169 *
b1110 A
#518052378
r170 *
0C
#518052475
r171 *
0D
#518052820
r172 *
1D
#518053445
r173 *
1C
#518053446
r174 *
b101110 A
#518055279
r175 *
b100000 A
#518055592
r176 *
0C
#518055689
r177 *
0D
#518056026
r178 *
1D
#518056651
r179 *
1C
#518056660
r180 *
b111110 A
#518057741
r181 *
b11110 A
#518058150
r182 *
0C
#518058255
r183 *
0D
#518058480
r184 *
1D
#518059049
r185 *
1C
#518059050
r186 *
b1011110 A
#518059051
r187 *
b11111110 A
#518060188
r188 *
b11111000 A
#518060549
r189 *
0C
#518060646
r190 *
0D
#518060935
r191 *
1D
#518061608
r192 *
1C
#518061617
r193 *
b11111001 A
#518062650
r194 *
b10010001 A
#518062947
r195 *
0C
#518063044
r196 *
0D
#518063389
r197 *
1D
#518064006
r198 *
1C
#518064015
r199 *
b11110111 A
#518065104
r200 *
b11110110 A
#518065505
r201 *
0C
#518065610
r202 *
0D
#518065843
r203 *
1D
#518066412
r204 *
1C
#518066413
r205 *
b11110111 A
#518067566
r206 *
b10010001 A
#518067911
r207 *
0C
#518068008
r208 *
0D
#518068305
r209 *
1D
#518068970
r210 *
1C
#518068971
r211 *
b11110100 A
#518068972
r212 *
b11110101 A
#518070765
r213 *
b11110100 A
#518071110
r214 *
0C
#518071215
r215 *
0D
#518071504
r216 *
1D
#518072177
r217 *
1C
#518072178
r218 *
b11111101 A
#518072179
r219 *
b11101101 A
#518073212
r220 *
b10001101 A
#518073509
r221 *
0C
#518073606
r222 *
0D
#518073959
r223 *
1D
#518074568
r224 *
1C
#518074569
r225 *
b11001101 A
#518074570
r226 *
b1001101 A
#518075667
r227 *
b1000100 A
#518076060
r228 *
0C
#518076165
r229 *
0D
#518076406
r230 *
1D
#518076959
r231 *
1C
#518078128
r232 *
b11101110 A
#518078465
r233 *
0C
#518078570
r234 *
0D
#518078867
r235 *
1D
#518079540
r236 *
1C
#518079541
r237 *
b100010 A
#518080582
r238 *
b10 A
#518080871
r239 *
0C
#518080968
r240 *
0D
#518081329
r241 *
1D
#518081930
r242 *
1C
#518081931
r243 *
b110110 A
#518083044
r244 *
b110100 A
#518083429
r245 *
0C
#518083526
r246 *
0D
#518083783
r247 *
1D
#518084496
r248 *
1C
#518084497
r249 *
b111110 A
#518086250
r250 *
b1110 A
#518086643
r251 *
0C
#518086740
r252 *
0D
#518086989
r253 *
1D
#518087542
r254 *
1C
#518087551
r255 *
b1111 A
#518088712
r256 *
b1 A
#518089041
r257 *
0C
#518089138
r258 *
0D
#518089451
r259 *
1D
#518090108
r260 *
1C
#518091173
r261 *
b10010111 A
#518091446
r262 *
0C
#518091551
r263 *
0D
#518091912
r264 *
1D
#518092513
r265 *
1C
#518092514
r266 *
b10110111 A
#518093627
r267 *
b110100 A
#518094012
r268 *
0C
#518094109
r269 *
0D
#518094374
r270 *
1D
#518095087
r271 *
1C
#518096096
r272 *
b1000 A
#518096417
r273 *
0C
#518096514
r274 *
0D
#518096835
r275 *
1D
#518097476
r276 *
1C
#518097485
r277 *
b1001 A
#518099302
r278 *
b1 A
#518099631
r279 *
0C
#518099728
r280 *
0D
#518100041
r281 *
1D
#518100690
r282 *
1C
#518100699
r283 *
b10010001 A
#518101756
r284 *
b10010000 A
#518102197
r285 *
0C
#518102294
r286 *
0D
#518102503
r287 *
1D
#518103096
r288 *
1C
#518104225
r289 *
b11011111 A
#518104602
r290 *
0C
#518104699
r291 *
0D
#518104964
r292 *
1D
#518105661
r293 *
1C
#518105662
r294 *
b11111111 A
#518105663
r295 *
b11011111 A
#518106672
r296 *
b1101100 A
#518106993
r297 *
0C
#518107090
r298 *
0D
#518107419
r299 *
1D
#518108052
r300 *
1C
#518108061
r301 *
b1101101 A
#518109134
r302 *
b100001 A
#518109551
r303 *
0C
#518109656
r304 *
0D
#518109873
r305 *
1D
#518110458
r306 *
1C
#518110459
r307 *
b101011 A
#518111588
r308 *
b1010 A
#518111957
r309 *
0C
#518112054
r310 *
0D
#518112335
r311 *
1D
#518113016
r312 *
1C
#518114801
r313 *
b11111110 A
#518115170
r314 *
0C
#518115275
r315 *
0D
#518115548
r316 *
1D
#518116245
r317 *
1C
#518116246
r318 *
b11101110 A
#518116247
r319 *
b101001 A
#518117256
r320 *
b101000 A
#518117569
r321 *
0C
#518117666
r322 *
0D
#518117995
r323 *
1D
#518118628
r324 *
1C
#518118637
r325 *
b10101001 A
#518119710
r326 *
b10100001 A
#518120127
r327 *
0C
#518120232
r328 *
0D
#518120457
r329 *
1D
#518121026
r330 *
1C
#518122179
r331 *
b10101011 A
#518122532
r332 *
0C
#518122637
r333 *
0D
#518122918
r334 *
1D
#518123607
r335 *
1C
#518124640
r336 *
b10100001 A
#518124945
r337 *
0C
#518125042
r338 *
0D
#518125379
r339 *
1D
#518126004
r340 *
1C
#518126005
r341 *
b10111100 A
#518126006
r342 *
b10111101 A
#518127095
r343 *
b10111100 A
#518127496
r344 *
0C
#518127593
r345 *
0D
#518127834
r346 *
1D
#518128395
r347 *
1C
#518128404
r348 *
b11111111 A
#518130301
r349 *
b11011111 A
#518130710
r350 *
0C
#518130807
r351 *
0D
#518131040
r352 *
1D
#518131609
r353 *
1C
#518131610
r354 *
b11111111 A
#518131611
r355 *
b11011111 A
#518132748
r356 *
b1101001 A
#518133101
r357 *
0C
#518133206
r358 *
0D
#518133487
r359 *
1D
#518134168
r360 *
1C
#518134169
r361 *
b1101011 A
#518135210
r362 *
b1010 A
#518135499
r363 *
0C
#518135604
r364 *
0D
#518135949
r365 *
1D
#518136574
r366 *
1C
#518137671
r367 *
b1000 A
#518138072
r368 *
0C
#518138169
r369 *
0D
#518138410
r370 *
1D
#518138971
r371 *
1C
#518140140
r372 *
b1010 A
#518140477
r373 *
0C
#518140574
r374 *
0D
#518140879
r375 *
1D
#518143360
r376 *
1C
#518143705
r377 *
0C
#518143802
r378 *
0D
#518144099
r379 *
1D
#518144764
r380 *
1C
#518144765
r381 *
b11101010 A
#518144766
r382 *
b11101110 A
#518145807
r383 *
b11100110 A
#518146096
r384 *
0C
#518146193
r385 *
0D
#518146546
r386 *
1D
#518147171
r387 *
1C
#518148268
r388 *
b1010 A
#518148669
r389 *
0C
#518148766
r390 *
0D
#518149015
r391 *
1D
#518150744
r392 *
1C
#518151081
r393 *
0C
#518151178
r394 *
0D
#518151483
r395 *
1D
#518152156
r396 *
1C
#518153205
r397 *
b1000 A
#518153486
r398 *
0C
#518153583
r399 *
0D
#518153952
r400 *
1D
#518154545
r401 *
1C
#518154546
r402 *
b1001 A
#518155667
r403 *
b101111 A
#518156052
r404 *
0C
#518156149
r405 *
0D
#518156406
r406 *
1D
#518158887
r407 *
1C
#518159280
r408 *
0C
#518159377
r409 *
0D
#518159626
r410 *
1D
#518160179
r411 *
1C
#518160180
r412 *
b11101111 A
#518161341
r413 *
b11100110 A
#518161678
r414 *
0C
#518161775
r415 *
0D
#518162088
r416 *
1D
#518162737
r417 *
1C
#518162738
r418 *
b11100111 A
#518162739
r419 *
b11100110 A
#518163796
r420 *
b11 A
#518164229
r421 *
0C
#518164334
r422 *
0D
#518164535
r423 *
1D
#518165128
r424 *
1C
#518165137
r425 *
b101111 A
#518166250
r426 *
b101110 A
#518166627
r427 *
0C
#518166732
r428 *
0D
#518166997
r429 *
1D
#518167694
r430 *
1C
#518167695
r431 *
b11101110 A
#518167696
r432 *
b11101000 A
#518168705
r433 *
b11001000 A
#518169026
r434 *
0C
#518169123
r435 *
0D
#518169444
r436 *
1D
#518170085
r437 *
1C
#518170086
r438 *
b11101001 A
#518171159
r439 *
b10101001 A
#518171584
r440 *
0C
#518171681
r441 *
0D
#518171898
r442 *
1D
#518172483
r443 *
1C
#518172492
r444 *
b11101001 A
#518174365
r445 *
b11000000 A
#518174798
r446 *
0C
#518174895
r447 *
0D
#518175112
r448 *
1D
#518175697
r449 *
1C
#518176834
r450 *
b11101000 A
#518177203
r451 *
0C
#518177308
r452 *
0D
#518177573
r453 *
1D
#518178270
r454 *
1C
#518178271
r455 *
b11111110 A
#518179288
r456 *
b11110110 A
#518179601
r457 *
0C
#518179706
r458 *
0D
#518180027
r459 *
1D
#518180668
r460 *
1C
#518180669
r461 *
b11110111 A
#518180670
r462 *
b11101111 A
#518181743
r463 *
b10001011 A
#518182160
r464 *
0C
#518182257
r465 *
0D
#518182482
r466 *
1D
#518183059
r467 *
1C
#518183068
r468 *
b10111111 A
#518184197
r469 *
b10111100 A
#518184558
r470 *
0C
#518184655
r471 *
0D
#518184936
r472 *
1D
#518185625
r473 *
1C
#518185626
r474 *
b11111110 A
#518187403
r475 *
b11100110 A
#518187772
r476 *
0C
#518187869
r477 *
0D
#518188150
r478 *
1D
#518188831
r479 *
1C
#518188840
r480 *
b11110110 A
#518189865
r481 *
b11110100 A
#518190170
r482 *
0C
#518190275
r483 *
0D
#518190604
r484 *
1D
#518191237
r485 *
1C
#518191238
r486 *
b11111111 A
#518192319
r487 *
b11011111 A
#518192736
r488 *
0C
#518192833
r489 *
0D
#518193058
r490 *
1D
#518193643
r491 *
1C
#518193644
r492 *
b10000111 A
#518194781
r493 *
b10000011 A
#518195134
r494 *
0C
#518195231
r495 *
0D
#518195520
r496 *
1D
#518196193
r497 *
1C
#518196202
r498 *
b11101011 A
#518197235
r499 *
b11101000 A
#518197532
r500 *
0C
#518197629
r501 *
0D
#518197974
r502 *
1D
#518198599
r503 *
1C
#518198600
r504 *
b11111001 A
#518199689
r505 *
b11110001 A
#518200098
r506 *
0C
#518200195
r507 *
0D
#518200436
r508 *
1D
#518200997
r509 *
1C
#518200998
r510 *
b11111111 A
#518202903
r511 *
b11011111 A
#518203312
r512 *
0C
#518203409
r513 *
0D
#518203642
r514 *
1D
#518204219
r515 *
1C
#518205364
r516 *
b10000101 A
#518205717
r517 *
0C
#518205814
r518 *
0D
#518206103
r519 *
1D
#518206776
r520 *
1C
#518206785
r521 *
b10001101 A
#518207818
r522 *
b1100 A
#518208115
r523 *
0C
#518208212
r524 *
0D
#518208565
r525 *
1D
#518209174
r526 *
1C
#518209183
r527 *
b10111100 A
#518210280
r528 *
b10111000 A
#518210673
r529 *
0C
#518210778
r530 *
0D
#518211019
r531 *
1D
#518211580
r532 *
1C
#518212741
r533 *
b10111101 A
#518213086
r534 *
0C
#518213183
r535 *
0D
#518213488
r536 *
1D
#518214145
r537 *
1C
#518214154
r538 *
b10111111 A
#518215203
r539 *
b10110010 A
#518215484
r540 *
0C
#518215581
r541 *
0D
#518215942
r542 *
1D
#518216543
r543 *
1C
#518216552
r544 *
b11111111 A
#518218409
r545 *
b11011111 A
#518218698
r546 *
0C
#518218795
r547 *
0D
#518219148
r548 *
1D
#518219773
r549 *
1C
#518219774
r550 *
b11100001 A
#518220863
r551 *
b11000001 A
#518221256
r552 *
0C
#518221361
r553 *
0D
#518221610
r554 *
1D
#518222155
r555 *
1C
#518222164
r556 *
b11101111 A
#518223325
r557 *
b11101110 A
#518223654
r558 *
0C
#518223759
r559 *
0D
#518224064
r560 *
1D
#518224721
r561 *
1C
#518224722
r562 *
b11111111 A
#518225779
r563 *
b111011 A
#518226060
r564 *
0C
#518226157
r565 *
0D
#518226526
r566 *
1D
#518227119
r567 *
1C
#518227128
r568 *
b111111 A
#518227129
r569 *
b10001100 A
#518228234
r570 *
b1100 A
#518228611
r571 *
0C
#518228716
r572 *
0D
#518228973
r573 *
1D
#518229678
r574 *
1C
#518229679
r575 *
b10101100 A
#518230688
r576 *
b10100100 A
#518231009
r577 *
0C
#518231114
r578 *
0D
#518231427
r579 *
1D
#518232076
r580 *
1C
#518233901
r581 *
b11100110 A
#518234230
r582 *
0C
#518234335
r583 *
0D
#518234648
r584 *
1D
#518235297
r585 *
1C
#518235298
r586 *
b11110111 A
#518236363
r587 *
b10011 A
#518236796
r588 *
0C
#518236893
r589 *
0D
#518237102
r590 *
1D
#518237695
r591 *
1C
#518237696
r592 *
b10011111 A
#518237697
r593 *
b10001111 A
#518238810
r594 *
b10001101 A
#518239187
r595 *
0C
#518239284
r596 *
0D
#518239549
r597 *
1D
#518240246
r598 *
1C
#518240255
r599 *
b11011101 A
#518241272
r600 *
b11010100 A
#518241585
r601 *
0C
#518241690
r602 *
0D
#518242011
r603 *
1D
#518242652
r604 *
1C
#518243733
r605 *
b11100110 A
#518244158
r606 *
0C
#518244255
r607 *
0D
#518244472
r608 *
1D
#518245057
r609 *
1C
#518245058
r610 *
b11110110 A
#518246939
r611 *
b110010 A
#518247372
r612 *
0C
#518247469
r613 *
0D
#518247686
r614 *
1D
#518248271
r615 *
1C
#518248272
r616 *
b11111111 A
#518249401
r617 *
b11011111 A
#518249770
r618 *
0C
#518249867
r619 *
0D
#518250140
r620 *
1D
#518250845
r621 *
1C
#518251862
r622 *
b10010110 A
#518252175
r623 *
0C
#518252272
r624 *
0D
#518252601
r625 *
1D
#518253234
r626 *
1C
#518253235
r627 *
b11110110 A
#518253236
r628 *
b11111110 A
#518254309
r629 *
b11101110 A
#518254726
r630 *
0C
#518254831
r631 *
0D
#518255056
r632 *
1D
#518255633
r633 *
1C
#518255634
r634 *
b11111110 A
#518256771
r635 *
b110101 A
#518257132
r636 *
0C
#518257229
r637 *
0D
#518257510
r638 *
1D
#518258191
r639 *
1C
#518258200
r640 *
b10110111 A
#518259225
r641 *
b10010111 A
#518259530
r642 *
0C
#518259627
r643 *
0D
#518259972
r644 *
1D
#518260589
r645 *
1C
#518260598
r646 *
b10011111 A
#518262431
r647 *
b10011011 A
#518262744
r648 *
0C
#518262841
r649 *
0D
#518263178
r650 *
1D
#518263803
r651 *
1C
#518263812
r652 *
b10011111 A
#518264893
r653 *
b10001101 A
#518265302
r654 *
0C
#518265407
r655 *
0D
#518265632
r656 *
1D
#518266201
r657 *
1C
#518266210
r658 *
b10111101 A
#518267347
r659 *
b10110100 A
#518267700
r660 *
0C
#518267805
r661 *
0D
#518268094
r662 *
1D
#518268767
r663 *
1C
#518268768
r664 *
b11110110 A
#518269809
r665 *
b11100110 A
#518270106
r666 *
0C
#518270203
r667 *
0D
#518270548
r668 *
1D
#518271165
r669 *
1C
#518271174
r670 *
b11100111 A
#518272263
r671 *
b111 A
#518272664
r672 *
0C
#518272761
r673 *
0D
#518273010
r674 *
1D
#518273563
r675 *
1C
#518273572
r676 *
b10111111 A
#518274725
r677 *
b10111101 A
#518275062
r678 *
0C
#518275167
r679 *
0D
#518275464
r680 *
1D
#518276129
r681 *
1C
#518276130
r682 *
b10111111 A
#518276131
r683 *
b101111 A
#518277924
r684 *
b1110 A
#518278269
r685 *
0C
#518278374
r686 *
0D
#518278663
r687 *
1D
#518279336
r688 *
1C
#518279337
r689 *
b10101111 A
#518280378
r690 *
b10100001 A
#518280667
r691 *
0C
#518280772
r692 *
0D
#518281125
r693 *
1D
#518281734
r694 *
1C
#518281743
r695 *
b10110001 A
#518282840
r696 *
b10010001 A
#518283233
r697 *
0C
#518283330
r698 *
0D
#518283579
r699 *
1D
#518284132
r700 *
1C
#518284133
r701 *
b10110001 A
#518285294
r702 *
b10100001 A
#518285631
r703 *
0C
#518285736
r704 *
0D
#518286033
r705 *
1D
#518286698
r706 *
1C
#518286699
r707 *
b10100011 A
#518287756
r708 *
b10100010 A
#518288029
r709 *
0C
#518288134
r710 *
0D
#518288495
r711 *
1D
#518289096
r712 *
1C
#518290969
r713 *
b10111010 A
#518291250
r714 *
0C
#518291355
r715 *
0D
#518291708
r716 *
1D
#518292317
r717 *
1C
#518292318
r718 *
b10111110 A
#518293423
r719 *
b10110 A
#518293816
r720 *
0C
#518293913
r721 *
0D
#518294170
r722 *
1D
#518294723
r723 *
1C
#518295892
r724 *
b0 A
#518296221
r725 *
0C
#518296318
r726 *
0D
#518296631
r727 *
1D
#518297280
r728 *
1C
#518297281
r729 *
b1110 A
#518298346
r730 *
b10101110 A
#518298779
r731 *
0C
#518298884
r732 *
0D
#518299085
r733 *
1D
#518299686
r734 *
1C
#518300807
r735 *
b11101110 A
#518301192
r736 *
0C
#518301289
r737 *
0D
#518301554
r738 *
1D
#518302251
r739 *
1C
#518303276
r740 *
b11101111 A
#518303597
r741 *
0C
#518303694
r742 *
0D
#518304015
r743 *
1D
#518304672
r744 *
1C
#518304673
r745 *
b10110001 A
#518306482
r746 *
b10100001 A
#518306811
r747 *
0C
#518306908
r748 *
0D
#518307221
r749 *
1D
#518307870
r750 *
1C
#518307871
r751 *
b10101011 A
#518307872
r752 *
b10101001 A
#518308937
r753 *
b101010 A
#518309362
r754 *
0C
#518309467
r755 *
0D
#518309676
r756 *
1D
#518310261
r757 *
1C
#518310270
r758 *
b10101011 A
#518311391
r759 *
b10101001 A
#518311760
r760 *
0C
#518311865
r761 *
0D
#518312130
r762 *
1D
#518312827
r763 *
1C
#518312836
r764 *
b10111101 A
#518313845
r765 *
b10011101 A
#518314166
r766 *
0C
#518314263
r767 *
0D
#518314592
r768 *
1D
#518315225
r769 *
1C
#518315234
r770 *
b10011111 A
#518316307
r771 *
b1011 A
#518316724
r772 *
0C
#518316829
r773 *
0D
#518317046
r774 *
1D
#518317639
r775 *
1C
#518318768
r776 *
b1001 A
#518319129
r777 *
0C
#518319234
r778 *
0D
#518319515
r779 *
1D
#518320196
r780 *
1C
#518320197
r781 *
b11111101 A
#518321974
r782 *
b11111100 A
#518322343
r783 *
0C
#518322448
r784 *
0D
#518322721
r785 *
1D
#518323418
r786 *
1C
#518323419
r787 *
b111100 A
#518323420
r788 *
b11 A
#518324429
r789 *
b0 A
#518324734
r790 *
0C
#518324839
r791 *
0D
#518325168
r792 *
1D
#518325801
r793 *
1C
#518326890
r794 *
b11101001 A
#518327307
r795 *
0C
#518327404
r796 *
0D
#518327637
r797 *
1D
#518328206
r798 *
1C
#518328215
r799 *
b11101111 A
#518329352
r800 *
b11101110 A
#518329705
r801 *
0C
#518329810
r802 *
0D
#518330091
r803 *
1D
#518330780
r804 *
1C
#518331813
r805 *
b11101000 A
#518332110
r806 *
0C
#518332215
r807 *
0D
#518332552
r808 *
1D
#518333177
r809 *
1C
#518335026
r810 *
b11110001 A
#518335331
r811 *
0C
#518335436
r812 *
0D
#518335773
r813 *
1D
#518336398
r814 *
1C
#518336399
r815 *
b11111101 A
#518337488
r816 *
b10001101 A
#518337897
r817 *
0C
#518337994
r818 *
0D
#518338227
r819 *
1D
#518338796
r820 *
1C
#518338797
r821 *
b11011101 A
#518338798
r822 *
b11011100 A
#518339935
r823 *
b11010100 A
#518340288
r824 *
0C
#518340385
r825 *
0D
#518340682
r826 *
1D
#518341347
r827 *
1C
#518341348
r828 *
b11010110 A
#518341349
r829 *
b11110110 A
#518342390
r830 *
b11100110 A
#518342679
r831 *
0C
#518342776
r832 *
0D
#518343129
r833 *
1D
#518343746
r834 *
1C
#518343747
r835 *
b11111111 A
#518344844
r836 *
b11111 A
#518345245
r837 *
0C
#518345342
r838 *
0D
#518345583
r839 *
1D
#518346144
r840 *
1C
#518347313
r841 *
b11011111 A
#518347650
r842 *
0C
#518347747
r843 *
0D
#518348052
r844 *
1D
#518348717
r845 *
1C
#518348718
r846 *
b10001111 A
#518350519
r847 *
b10101001 A
#518350864
r848 *
0C
#518350961
r849 *
0D
#518351258
r850 *
1D
#518351923
r851 *
1C
#518351932
r852 *
b11101111 A
#518352973
r853 *
b11101110 A
#518353262
r854 *
0C
#518353359
r855 *
0D
#518353712
r856 *
1D
#518354337
r857 *
1C
#518354338
r858 *
b110010 A
#518355435
r859 *
b100010 A
#518355820
r860 *
0C
#518355925
r861 *
0D
#518356174
r862 *
1D
#518356727
r863 *
1C
#518356728
r864 *
b101111 A
#518357889
r865 *
b1101 A
#518358226
r866 *
0C
#518358323
r867 *
0D
#518358628
r868 *
1D
#518359285
r869 *
1C
#518359286
r870 *
b10011101 A
#518359287
r871 *
b10001101 A
#518360336
r872 *
b10010001 A
#518360617
r873 *
0C
#518360714
r874 *
0D
#518361083
r875 *
1D
#518361676
r876 *
1C
#518361685
r877 *
b11110111 A
#518362798
r878 *
b11100111 A
#518363175
r879 *
0C
#518363280
r880 *
0D
#518363537
r881 *
1D
#518364250
r882 *
1C
#518364251
r883 *
b100111 A
#518366004
r884 *
b111 A
#518366389
r885 *
0C
#518366494
r886 *
0D
#518366743
r887 *
1D
#518367456
r888 *
1C
#518367457
r889 *
b11101111 A
#518368458
r890 *
b11101110 A
#518368795
r891 *
0C
#518368892
r892 *
0D
#518369205
r893 *
1D
#518369854
r894 *
1C
#518369855
r895 *
b11111110 A
#518369856
r896 *
b11101110 A
#518370913
r897 *
b11010 A
#518371346
r898 *
0C
#518371443
r899 *
0D
#518371652
r900 *
1D
#518372245
r901 *
1C
#518372246
r902 *
b1111011 A
#518372247
r903 *
b111011 A
#518373360
r904 *
b1100001 A
#518373737
r905 *
0C
#518373842
r906 *
0D
#518374107
r907 *
1D
#518374804
r908 *
1C
#518374805
r909 *
b11111011 A
#518375822
r910 *
b10011011 A
#518376135
r911 *
0C
#518376240
r912 *
0D
#518376561
r913 *
1D
#518377210
r914 *
1C
#518377211
r915 *
b1 A
#518377212
r916 *
b1100000 A
#518378269
r917 *
b0 A
#518378694
r918 *
0C
#518378791
r919 *
0D
#518379016
r920 *
1D
#518379593
r921 *
1C
#518381482
r922 *
b10000 A
#518381915
r923 *
0C
#518382012
r924 *
0D
#518382229
r925 *
1D
#518382814
r926 *
1C
#518382815
r927 *
b110001 A
#518383944
r928 *
b100001 A
#518384313
r929 *
0C
#518384410
r930 *
0D
#518384683
r931 *
1D
#518385388
r932 *
1C
#518386405
r933 *
b0 A
#518386718
r934 *
0C
#518386823
r935 *
0D
#518387152
r936 *
1D
#518388881
r937 *
1C
#518389298
r938 *
0C
#518389395
r939 *
0D
#518389620
r940 *
1D
#518390197
r941 *
1C
#518391342
r942 *
b11000 A
#518391703
r943 *
0C
#518391800
r944 *
0D
#518392081
r945 *
1D
#518392762
r946 *
1C
#518392771
r947 *
b1011001 A
#518394548
r948 *
b1000001 A
#518394917
r949 *
0C
#518395014
r950 *
0D
#518395295
r951 *
1D
#518395976
r952 *
1C
#518395977
r953 *
b11010001 A
#518395978
r954 *
b1010001 A
#518397003
r955 *
b10010000 A
#518397308
r956 *
0C
#518397405
r957 *
0D
#518397742
r958 *
1D
#518398383
r959 *
1C
#518399464
r960 *
b0 A
#518399881
r961 *
0C
#518399978
r962 *
0D
#518400203
r963 *
1D
#518400780
r964 *
1C
#518401933
r965 *
b1010 A
#518402286
r966 *
0C
#518402383
r967 *
0D
#518402672
r968 *
1D
#518403345
r969 *
1C
#518403354
r970 *
b10001011 A
#518404387
r971 *
b10000001 A
#518404684
r972 *
0C
#518404781
r973 *
0D
#518405126
r974 *
1D
#518405743
r975 *
1C
#518405752
r976 *
b10001001 A
#518406841
r977 *
b1001 A
#518407242
r978 *
0C
#518407347
r979 *
0D
#518407588
r980 *
1D
#518408149
r981 *
1C
#518408150
r982 *
b101001 A
#518410055
r983 *
b100001 A
#518410456
r984 *
0C
#518410561
r985 *
0D
#518410794
r986 *
1D
#518411355
r987 *
1C
#518411356
r988 *
b101001 A
#518411357
r989 *
b101011 A
#518412502
r990 *
b1010 A
#518412855
r991 *
0C
#518412952
r992 *
0D
#518413241
r993 *
1D
#518413914
r994 *
1C
#518413915
r995 *
b10001010 A
#518413916
r996 *
b10001000 A
#518414949
r997 *
b10000000 A
#518415246
r998 *
0C
#518415343
r999 *
0D
#518415696
r1000 *
1D
#518416321
r1001 *
1C
#518417418
r1002 *
b0 A
#518417811
r1003 *
0C
#518417916
r1004 *
0D
#518418157
r1005 *
1D
#518418710
r1006 *
1C
#518419887
r1007 *
b10001101 A
#518420216
r1008 *
0C
#518420321
r1009 *
0D
#518420626
r1010 *
1D
#518421283
r1011 *
1C
#518421284
r1012 *
b10001111 A
#518422341
r1013 *
b10 A
#518422622
r1014 *
0C
#518422719
r1015 *
0D
#518423080
r1016 *
1D
#518423681
r1017 *
1C
#518423690
r1018 *
b11 A
#518425547
r1019 *
b1 A
#518425836
r1020 *
0C
#518425933
r1021 *
0D
#518426286
r1022 *
1D
#518426903
r1023 *
1C
#518428008
r1024 *
b0 A
#518428401
r1025 *
0C
#518428498
r1026 *
0D
#518428755
r1027 *
1D
#518429300
r1028 *
1C
#518430477
r1029 *
b10 A
#518430806
r1030 *
0C
#518430911
r1031 *
0D
#518431216
r1032 *
1D
#518431881
r1033 *
1C
#518432938
r1034 *
b0 A
#518433211
r1035 *
0C
#518433316
r1036 *
0D
#518433685
r1037 *
1D
#518434278
r1038 *
1C
#518435407
r1039 *
b10111010 A
#518435784
r1040 *
0C
#518435881
r1041 *
0D
#518436146
r1042 *
1D
#518436843
r1043 *
1C
#518436852
r1044 *
b10111011 A
