SignalCaptures/P8000_WDC_sa_shipdisk.vcd
$comment Created in LWLA Logic Analyzer $end
$date 02.01.2016 23:08:20 $end
$timescale 10 ns $end
$scope module LWLA  $end
$var real 1 * sample $end
$var reg 8 A Data[7:0] $end
$var reg 3 B Status[2:0] $end
$var reg 1 C /RDY $end
$var reg 1 D /ASTB $end
$var reg 1 E /TR $end
$var reg 1 F /RST $end
$var reg 1 G /TE $end
$upscope $end
$enddefinitions $end
#0
r0 *
b0 A
b0 B
1C
1D
1E
0F
0G
#1
r1 *
#2
r2 *
#3
r3 *
#4
r4 *
#5
r5 *
#6
r6 *
#987004685
r7 *
#987004688
r8 *
1G
#987005133
r9 *
1F
#987005136
r10 *
b10 A
#987005137
r11 *
b0 A
#987005142
r12 *
b10 A
#987005151
r13 *
b0 A
#987005184
r14 *
b10 A
#987005185
r15 *
b110 A
#987005186
r16 *
b10 A
#987005187
r17 *
b10010 A
#987005188
r18 *
b10 A
#987005189
r19 *
b1010010 A
#987005190
r20 *
b10 A
#987005191
r21 *
b1111010 A
#987005192
r22 *
b11111011 A
#987005193
r23 *
b10000011 A
#987005194
r24 *
b111110 A
#987005199
r25 *
b11111111 A
#987005200
r26 *
b10110 A
#987005201
r27 *
b101010 A
0D
#987005204
r28 *
b11111111 A
1D
#987005207
r29 *
b11111011 A
#987005230
r30 *
b11111111 A
#987005295
r31 *
b1111111 A
#987005308
r32 *
b11111111 A
#987005311
r33 *
b1111111 A
#987005968
r34 *
b11111111 A
#987005969
r35 *
b0 A
#987005970
r36 *
0D
#1251262409
r37 *
1D
#1251264444
r38 *
b1 B
#1251264511
r39 *
b101000 A
#1251264534
r40 *
0C
#1251264561
r41 *
0D
#1251264584
r42 *
1D
#1251264747
r43 *
1C
#1251264806
r44 *
b0 A
#1251264829
r45 *
0C
#1251264856
r46 *
0D
#1251264879
r47 *
1D
#1251265102
r48 *
1C
#1251265125
r49 *
0C
#1251265152
r50 *
0D
#1251265175
r51 *
1D
#1251265398
r52 *
1C
#1251265421
r53 *
0C
#1251265448
r54 *
0D
#1251265471
r55 *
1D
#1251265694
r56 *
1C
#1251265717
r57 *
0C
#1251265744
r58 *
0D
#1251265767
r59 *
1D
#1251266066
r60 *
1C
#1251266089
r61 *
0C
#1251266114
r62 *
0D
#1251266139
r63 *
1D
#1251266294
r64 *
1C
#1251266361
r65 *
b1000000 A
#1251266384
r66 *
0C
#1251266409
r67 *
0D
#1251266434
r68 *
1D
#1251266595
r69 *
1C
#1251266656
r70 *
b0 A
#1251266679
r71 *
0C
#1251266704
r72 *
0D
#1251266729
r73 *
1D
#1251266882
r74 *
1C
#1251266883
r75 *
b10 A
#1251266950
r76 *
b110 A
#1251266973
r77 *
0C
#1251266996
r78 *
0D
#1251267023
r79 *
1D
#1251269364
r80 *
1C
#1251344617
r81 *
b0 B
#1251349308
r82 *
b11 B
0E
#1251349311
r83 *
0G
#1251349674
r84 *
b10000001 A
#1251349701
r85 *
0C
#1251349702
r86 *
b10 A
#1251349703
r87 *
b10111 A
#1251349706
r88 *
b1010111 A
#1251349733
r89 *
0D
#1251349770
r90 *
1D
#1251350267
r91 *
1C
#1251350294
r92 *
0C
#1251350301
r93 *
b1000100 A
#1251350326
r94 *
0D
#1251350365
r95 *
1D
#1251350512
r96 *
1C
#1251350539
r97 *
0C
#1251350546
r98 *
b1000011 A
#1251350571
r99 *
0D
#1251350610
r100 *
1D
#1251350757
r101 *
1C
#1251350784
r102 *
0C
#1251350785
r103 *
b1010111 A
#1251350790
r104 *
b1011111 A
#1251350813
r105 *
0D
#1251350854
r106 *
1D
#1251351001
r107 *
1C
#1251351028
r108 *
0C
#1251351029
r109 *
b10100 A
#1251351034
r110 *
b110100 A
#1251351059
r111 *
0D
#1251351098
r112 *
1D
#1251351245
r113 *
1C
#1251351272
r114 *
0C
#1251351273
r115 *
b100110 A
#1251351276
r116 *
b101110 A
#1251351303
r117 *
0D
#1251351342
r118 *
1D
#1251351563
r119 *
1C
#1251351590
r120 *
0C
#1251351591
r121 *
b110010 A
0D
#1251351596
r122 *
1D
#1251351623
r123 *
0D
#1251351660
r124 *
1D
#1251351807
r125 *
1C
#1251351834
r126 *
0C
#1251351835
r127 *
b10000001 A
0D
#1251351840
r128 *
1D
#1251351867
r129 *
0D
#1251351904
r130 *
1D
#1251352051
r131 *
1C
#1251352078
r132 *
0C
#1251352079
r133 *
b10010 A
#1251352084
r134 *
b1010010 A
#1251352111
r135 *
0D
#1251352148
r136 *
1D
#1251352295
r137 *
1C
#1251352322
r138 *
0C
#1251352323
r139 *
b1000111 A
#1251352328
r140 *
b1001111 A
#1251352355
r141 *
0D
#1251352392
r142 *
1D
#1251352539
r143 *
1C
#1251352566
r144 *
0C
#1251352569
r145 *
b1000010 A
0D
#1251352572
r146 *
1D
#1251352599
r147 *
0D
#1251352636
r148 *
1D
#1251352859
r149 *
1C
#1251352886
r150 *
0C
#1251352891
r151 *
b1001111 A
#1251352918
r152 *
0D
#1251352955
r153 *
1D
#1251353104
r154 *
1C
#1251353129
r155 *
0C
#1251353130
r156 *
b1000100 A
#1251353135
r157 *
b1010100 A
#1251353162
r158 *
0D
#1251353199
r159 *
1D
#1251353348
r160 *
1C
#1251353373
r161 *
0C
#1251353374
r162 *
b1010000 A
#1251353379
r163 *
b1010010 A
#1251353406
r164 *
0D
#1251353443
r165 *
1D
#1251353592
r166 *
1C
#1251353617
r167 *
0C
#1251353618
r168 *
b1000111 A
#1251353623
r169 *
b1001111 A
#1251353650
r170 *
0D
#1251353687
r171 *
1D
#1251353836
r172 *
1C
#1251353861
r173 *
0C
#1251353868
r174 *
b1001110 A
#1251353895
r175 *
0D
#1251353932
r176 *
1D
#1251354081
r177 *
1C
#1251354106
r178 *
0C
#1251354107
r179 *
b0 A
0D
#1251354108
r180 *
1D
#1251354111
r181 *
b100000 A
#1251354138
r182 *
0D
#1251354175
r183 *
1D
#1251354398
r184 *
1C
#1251354425
r185 *
0C
#1251354432
r186 *
b1010110 A
#1251354457
r187 *
0D
#1251354496
r188 *
1D
#1251354643
r189 *
1C
#1251354670
r190 *
0C
#1251354677
r191 *
b1010011 A
#1251354702
r192 *
0D
#1251354741
r193 *
1D
#1251354888
r194 *
1C
#1251354915
r195 *
0C
#1251354916
r196 *
b0 A
#1251354919
r197 *
b100000 A
#1251354946
r198 *
0D
#1251354985
r199 *
1D
#1251355132
r200 *
1C
#1251355157
r201 *
0C
#1251355158
r202 *
b0 A
#1251355163
r203 *
b10000001 A
#1251355190
r204 *
0D
#1251355229
r205 *
1D
#1251355376
r206 *
1C
#1251355401
r207 *
0C
#1251355402
r208 *
b10000000 A
#1251355407
r209 *
b0 A
#1251355434
r210 *
0D
#1251355473
r211 *
1D
#1251355620
r212 *
1C
#1251355653
r213 *
0C
#1251355680
r214 *
0D
#1251355719
r215 *
1D
#1251355940
r216 *
1C
#1251355967
r217 *
0C
#1251355974
r218 *
b110100 A
#1251356001
r219 *
0D
#1251356038
r220 *
1D
#1251356185
r221 *
1C
#1251356212
r222 *
0C
#1251356213
r223 *
b11 A
0D
#1251356218
r224 *
1D
#1251356243
r225 *
0D
#1251356282
r226 *
1D
#1251356429
r227 *
1C
#1251356456
r228 *
0C
#1251356463
r229 *
b110 A
#1251356490
r230 *
0D
#1251356527
r231 *
1D
#1251356674
r232 *
1C
#1251356725
r233 *
0C
#1251356726
r234 *
b10 A
0D
#1251356731
r235 *
b10010 A
1D
#1251356758
r236 *
0D
#1251356795
r237 *
1D
#1251356918
r238 *
1C
#1251356945
r239 *
0C
#1251356952
r240 *
b110100 A
#1251356977
r241 *
0D
#1251357016
r242 *
1D
#1251357239
r243 *
1C
#1251357264
r244 *
0C
#1251357265
r245 *
b10011 A
0D
#1251357270
r246 *
b11 A
1D
#1251357297
r247 *
0D
#1251357334
r248 *
1D
#1251357483
r249 *
1C
#1251357508
r250 *
0C
#1251357515
r251 *
b1 A
#1251357542
r252 *
0D
#1251357579
r253 *
1D
#1251357728
r254 *
1C
#1251357753
r255 *
0C
#1251357760
r256 *
b0 A
#1251357787
r257 *
0D
#1251357824
r258 *
1D
#1251357973
r259 *
1C
#1251358006
r260 *
0C
#1251358033
r261 *
0D
#1251358070
r262 *
1D
#1251358219
r263 *
1C
#1251358252
r264 *
0C
#1251358279
r265 *
0D
#1251358316
r266 *
1D
#1251358465
r267 *
1C
#1251358498
r268 *
0C
#1251358525
r269 *
0D
#1251358562
r270 *
1D
#1251358785
r271 *
1C
#1251358818
r272 *
0C
#1251358845
r273 *
0D
#1251358884
r274 *
1D
#1251359031
r275 *
1C
#1251359064
r276 *
0C
#1251359091
r277 *
0D
#1251359130
r278 *
1D
#1251359277
r279 *
1C
#1251359304
r280 *
0C
#1251359309
r281 *
b11001011 A
#1251359336
r282 *
0D
#1251359375
r283 *
1D
#1251359522
r284 *
1C
#1251359547
r285 *
0C
#1251359550
r286 *
b11000001 A
#1251359553
r287 *
b11010001 A
#1251359580
r288 *
0D
#1251359619
r289 *
1D
#1251359766
r290 *
1C
#1251359793
r291 *
0C
#1251359798
r292 *
b11111011 A
#1251359825
r293 *
0D
#1251359864
r294 *
1D
#1251360011
r295 *
1C
#1251360036
r296 *
0C
#1251360037
r297 *
b11111001 A
#1251360042
r298 *
b11111101 A
#1251360069
r299 *
0D
#1251360108
r300 *
1D
#1251360329
r301 *
1C
#1251360356
r302 *
0C
#1251360363
r303 *
b11110001 A
#1251360388
r304 *
0D
#1251360427
r305 *
1D
#1251360574
r306 *
1C
#1251360601
r307 *
0C
#1251360608
r308 *
b11110011 A
#1251360633
r309 *
0D
#1251360672
r310 *
1D
#1251360819
r311 *
1C
#1251360846
r312 *
0C
#1251360847
r313 *
b10000011 A
0D
#1251360852
r314 *
1D
#1251360877
r315 *
0D
#1251360916
r316 *
1D
#1251361063
r317 *
1C
#1251361090
r318 *
0C
#1251361097
r319 *
b1011001 A
#1251361122
r320 *
0D
#1251361161
r321 *
1D
#1251361308
r322 *
1C
#1251361335
r323 *
0C
#1251361342
r324 *
b1 A
#1251361367
r325 *
0D
#1251361406
r326 *
1D
#1251361629
r327 *
1C
#1251361654
r328 *
0C
#1251361661
r329 *
b0 A
#1251361688
r330 *
0D
#1251361725
r331 *
1D
#1251361874
r332 *
1C
#1251361899
r333 *
0C
#1251361906
r334 *
b11 A
#1251361933
r335 *
0D
#1251361970
r336 *
1D
#1251362119
r337 *
1C
#1251362144
r338 *
0C
#1251362145
r339 *
b10011 A
#1251362150
r340 *
b11011 A
#1251362177
r341 *
0D
#1251362214
r342 *
1D
#1251362363
r343 *
1C
#1251362388
r344 *
0C
#1251362395
r345 *
b0 A
#1251362422
r346 *
0D
#1251362459
r347 *
1D
#1251362608
r348 *
1C
#1251362633
r349 *
0C
#1251362640
r350 *
b10 A
#1251362667
r351 *
0D
#1251362704
r352 *
1D
#1251362853
r353 *
1C
#1251362878
r354 *
0C
#1251362885
r355 *
b10000001 A
#1251362912
r356 *
0D
#1251362949
r357 *
1D
#1251363172
r358 *
1C
#1251363205
r359 *
0C
#1251363232
r360 *
0D
#1251363271
r361 *
1D
#1251363418
r362 *
1C
#1251363451
r363 *
0C
#1251363478
r364 *
0D
#1251363517
r365 *
1D
#1251363664
r366 *
1C
#1251363697
r367 *
0C
#1251363724
r368 *
0D
#1251363763
r369 *
1D
#1251363910
r370 *
1C
#1251363943
r371 *
0C
#1251363970
r372 *
0D
#1251364009
r373 *
1D
#1251364156
r374 *
1C
#1251364189
r375 *
0C
#1251364216
r376 *
0D
#1251364255
r377 *
1D
#1251364402
r378 *
1C
#1251364435
r379 *
0C
#1251364462
r380 *
0D
#1251364501
r381 *
1D
#1251364722
r382 *
1C
#1251364757
r383 *
0C
#1251364782
r384 *
0D
#1251364821
r385 *
1D
#1251364968
r386 *
1C
#1251365003
r387 *
0C
#1251365028
r388 *
0D
#1251365067
r389 *
1D
#1251365214
r390 *
1C
#1251365247
r391 *
0C
#1251365274
r392 *
0D
#1251365313
r393 *
1D
#1251365460
r394 *
1C
#1251365493
r395 *
0C
#1251365520
r396 *
0D
#1251365559
r397 *
1D
#1251365706
r398 *
1C
#1251365739
r399 *
0C
#1251365766
r400 *
0D
#1251365805
r401 *
1D
#1251365952
r402 *
1C
#1251365985
r403 *
0C
#1251366012
r404 *
0D
#1251366051
r405 *
1D
#1251366274
r406 *
1C
#1251366307
r407 *
0C
#1251366334
r408 *
0D
#1251366371
r409 *
1D
#1251366520
r410 *
1C
#1251366553
r411 *
0C
#1251366580
r412 *
0D
#1251366617
r413 *
1D
#1251368852
r414 *
1C
#1251368853
r415 *
b0 B
#1251370712
r416 *
1E
#1251370713
r417 *
b10000000 A
#1251370722
r418 *
b10000001 A
#1251370725
r419 *
b10000000 A
#1251370726
r420 *
b10000001 A
#1251370727
r421 *
b10000000 A
#1251370732
r422 *
b10000001 A
#1251370733
r423 *
b10000000 A
#1251370734
r424 *
b10000001 A
#1251370735
r425 *
b10000000 A
#1251370736
r426 *
b10000001 A
#1251370737
r427 *
b10000000 A
#1251370740
r428 *
b10000001 A
#1251370743
r429 *
b10000000 A
#1251370744
r430 *
b10000001 A
#1251370747
r431 *
b10000000 A
#1251370748
r432 *
b10000001 A
#1251370777
r433 *
b10000000 A
#1251370778
r434 *
b10000001 A
#1251370957
r435 *
b10000000 A
#1251370958
r436 *
b0 A
#1251370959
r437 *
b10000000 A
#1251370960
r438 *
b0 A
#1251370963
r439 *
b10000000 A
#1251370966
r440 *
b0 A
#1251370967
r441 *
b10000000 A
#1251370972
r442 *
b0 A
#1251370973
r443 *
b10000000 A
#1251370982
r444 *
b0 A
#1251370983
r445 *
b10000000 A
#1251371002
r446 *
b0 A
#1251371003
r447 *
b10000000 A
#1251389486
r448 *
b0 A
#1251413909
r449 *
b1 B
#1251414214
r450 *
1G
#1251416199
r451 *
b110 A
#1251416206
r452 *
b111 A
#1251416267
r453 *
b1 A
#1251416302
r454 *
0C
#1251416329
r455 *
0D
#1251416364
r456 *
1D
#1251416501
r457 *
1C
#1251416562
r458 *
b0 A
#1251416597
r459 *
0C
#1251416624
r460 *
0D
#1251416659
r461 *
1D
#1251416864
r462 *
1C
#1251416931
r463 *
b110011 A
#1251416968
r464 *
0C
#1251416993
r465 *
0D
#1251417030
r466 *
1D
#1251417165
r467 *
1C
#1251417166
r468 *
b11 A
#1251417167
r469 *
0D
#1251417224
r470 *
1D
#1251417285
r471 *
0C
#1251417312
r472 *
0D
#1251417347
r473 *
1D
#1251417458
r474 *
1C
#1251417519
r475 *
b0 A
#1251417556
r476 *
0C
#1251417581
r477 *
0D
#1251417618
r478 *
1D
#1251417747
r479 *
1C
#1251417814
r480 *
b1 A
#1251417849
r481 *
0C
#1251417876
r482 *
0D
#1251417913
r483 *
1D
#1251418048
r484 *
1C
#1251418109
r485 *
b0 A
#1251418146
r486 *
0C
#1251418171
r487 *
0D
#1251418208
r488 *
1D
#1251418411
r489 *
1C
#1251418478
r490 *
b10 A
#1251418515
r491 *
0C
#1251418542
r492 *
0D
#1251418577
r493 *
1D
#1251418706
r494 *
1C
#1251418773
r495 *
b110 A
#1251418810
r496 *
0C
#1251418837
r497 *
0D
#1251418872
r498 *
1D
#1251421051
r499 *
1C
#1257964612
r500 *
b0 B
#1257971071
r501 *
b11 B
0E
#1257971072
r502 *
0G
#1257971073
r503 *
b10000111 A
#1257971436
r504 *
b10000001 A
#1257971471
r505 *
0C
#1257971476
r506 *
b11100101 A
#1257971503
r507 *
0D
#1257971532
r508 *
1D
#1257971955
r509 *
1C
#1257971998
r510 *
0C
#1257972023
r511 *
0D
#1257972054
r512 *
1D
#1257972277
r513 *
1C
#1257972318
r514 *
0C
#1257972345
r515 *
0D
#1257972374
r516 *
1D
#1257972523
r517 *
1C
#1257972590
r518 *
0C
#1257972615
r519 *
0D
#1257972646
r520 *
1D
#1257972769
r521 *
1C
#1257972810
r522 *
0C
#1257972837
r523 *
0D
#1257972866
r524 *
1D
#1257973015
r525 *
1C
#1257973056
r526 *
0C
#1257973083
r527 *
0D
#1257973112
r528 *
1D
#1257973261
r529 *
1C
#1257973302
r530 *
0C
#1257973329
r531 *
0D
#1257973358
r532 *
1D
#1257973581
r533 *
1C
#1257973624
r534 *
0C
#1257973649
r535 *
0D
#1257973680
r536 *
1D
#1257973827
r537 *
1C
#1257973868
r538 *
0C
#1257973895
r539 *
0D
#1257973926
r540 *
1D
#1257974073
r541 *
1C
#1257974114
r542 *
0C
#1257974141
r543 *
0D
#1257974172
r544 *
1D
#1257974319
r545 *
1C
#1257974360
r546 *
0C
#1257974387
r547 *
0D
#1257974418
r548 *
1D
#1257974565
r549 *
1C
#1257974606
r550 *
0C
#1257974633
r551 *
0D
#1257974664
r552 *
1D
#1257974811
r553 *
1C
#1257974852
r554 *
0C
#1257974879
r555 *
0D
#1257974910
r556 *
1D
#1257975131
r557 *
1C
#1257975174
r558 *
0C
#1257975201
r559 *
0D
#1257975230
r560 *
1D
#1257975377
r561 *
1C
#1257975420
r562 *
0C
#1257975445
r563 *
0D
#1257975476
r564 *
1D
#1257975623
r565 *
1C
#1257975666
r566 *
0C
#1257975691
r567 *
0D
#1257975722
r568 *
1D
#1257975869
r569 *
1C
#1257975912
r570 *
0C
#1257975937
r571 *
0D
#1257975968
r572 *
1D
#1257976115
r573 *
1C
#1257976182
r574 *
0C
#1257976209
r575 *
0D
#1257976238
r576 *
1D
#1257976361
r577 *
1C
#1257976404
r578 *
0C
#1257976429
r579 *
0D
#1257976460
r580 *
1D
#1257976683
r581 *
1C
#1257976724
r582 *
0C
#1257976751
r583 *
0D
#1257976780
r584 *
1D
#1257976929
r585 *
1C
#1257976970
r586 *
0C
#1257976997
r587 *
0D
#1257977026
r588 *
1D
#1257977175
r589 *
1C
#1257977216
r590 *
0C
#1257977243
r591 *
0D
#1257977272
r592 *
1D
#1257977421
r593 *
1C
#1257977462
r594 *
0C
#1257977489
r595 *
0D
#1257977518
r596 *
1D
#1257977667
r597 *
1C
#1257977708
r598 *
0C
#1257977735
r599 *
0D
#1257977764
r600 *
1D
#1257977987
r601 *
1C
#1257978028
r602 *
0C
#1257978055
r603 *
0D
#1257978086
r604 *
1D
#1257978233
r605 *
1C
#1257978274
r606 *
0C
#1257978301
r607 *
0D
#1257978332
r608 *
1D
#1257978479
r609 *
1C
#1257978520
r610 *
0C
#1257978547
r611 *
0D
#1257978578
r612 *
1D
#1257978725
r613 *
1C
#1257978766
r614 *
0C
#1257978793
r615 *
0D
#1257978824
r616 *
1D
#1257978971
r617 *
1C
#1257979012
r618 *
0C
#1257979039
r619 *
0D
#1257979070
r620 *
1D
#1257979217
r621 *
1C
#1257979258
r622 *
0C
#1257979285
r623 *
0D
#1257979316
r624 *
1D
#1257979539
r625 *
1C
#1257979580
r626 *
0C
#1257979605
r627 *
0D
#1257979636
r628 *
1D
#1257979783
r629 *
1C
#1257979826
r630 *
0C
#1257979851
r631 *
0D
#1257979882
r632 *
1D
#1257980029
r633 *
1C
#1257980072
r634 *
0C
#1257980097
r635 *
0D
#1257980128
r636 *
1D
#1257980275
r637 *
1C
#1257980318
r638 *
0C
#1257980343
r639 *
0D
#1257980374
r640 *
1D
#1257980521
r641 *
1C
#1257980564
r642 *
0C
#1257980589
r643 *
0D
#1257980620
r644 *
1D
#1257980767
r645 *
1C
#1257980808
r646 *
0C
#1257980835
r647 *
0D
#1257980866
r648 *
1D
#1257981089
r649 *
1C
#1257981130
r650 *
0C
#1257981157
r651 *
0D
#1257981186
r652 *
1D
#1257981335
r653 *
1C
#1257981376
r654 *
0C
#1257981403
r655 *
0D
#1257981432
r656 *
1D
#1257981581
r657 *
1C
#1257981622
r658 *
0C
#1257981649
r659 *
0D
#1257981678
r660 *
1D
#1257981827
r661 *
1C
#1257981868
r662 *
0C
#1257981895
r663 *
0D
#1257981924
r664 *
1D
#1257982073
r665 *
1C
#1257982114
r666 *
0C
#1257982141
r667 *
0D
#1257982170
r668 *
1D
#1257982319
r669 *
1C
#1257982360
r670 *
0C
#1257982385
r671 *
0D
#1257982416
r672 *
1D
#1257982639
r673 *
1C
#1257982680
r674 *
0C
#1257982707
r675 *
0D
#1257982738
r676 *
1D
#1257982885
r677 *
1C
#1257982926
r678 *
0C
#1257982953
r679 *
0D
#1257982984
r680 *
1D
#1257983131
r681 *
1C
#1257983172
r682 *
0C
#1257983199
r683 *
0D
#1257983230
r684 *
1D
#1257983377
r685 *
1C
#1257983418
r686 *
0C
#1257983445
r687 *
0D
#1257983476
r688 *
1D
#1257983623
r689 *
1C
#1257983664
r690 *
0C
#1257983691
r691 *
0D
#1257983722
r692 *
1D
#1257983945
r693 *
1C
#1257983986
r694 *
0C
#1257984011
r695 *
0D
#1257984042
r696 *
1D
#1257984191
r697 *
1C
#1257984230
r698 *
0C
#1257984257
r699 *
0D
#1257984288
r700 *
1D
#1257984435
r701 *
1C
#1257984476
r702 *
0C
#1257984503
r703 *
0D
#1257984534
r704 *
1D
#1257984681
r705 *
1C
#1257984722
r706 *
0C
#1257984749
r707 *
0D
#1257984780
r708 *
1D
#1257984927
r709 *
1C
#1257984968
r710 *
0C
#1257984995
r711 *
0D
#1257985026
r712 *
1D
#1257985173
r713 *
1C
#1257985214
r714 *
0C
#1257985241
r715 *
0D
#1257985272
r716 *
1D
#1257985495
r717 *
1C
#1257985536
r718 *
0C
#1257985563
r719 *
0D
#1257985592
r720 *
1D
#1257985741
r721 *
1C
#1257985782
r722 *
0C
#1257985807
r723 *
0D
#1257985838
r724 *
1D
#1257985987
r725 *
1C
#1257986028
r726 *
0C
#1257986053
r727 *
0D
#1257986084
r728 *
1D
#1257986233
r729 *
1C
#1257986298
r730 *
0C
#1257986325
r731 *
0D
#1257986356
r732 *
1D
#1257986479
r733 *
1C
#1257986520
r734 *
0C
#1257986545
r735 *
0D
#1257986576
r736 *
1D
#1257986725
r737 *
1C
#1257986766
r738 *
0C
#1257986791
r739 *
0D
#1257986822
r740 *
1D
#1257987045
r741 *
1C
#1257987086
r742 *
0C
#1257987113
r743 *
0D
#1257987144
r744 *
1D
#1257987291
r745 *
1C
#1257987332
r746 *
0C
#1257987359
r747 *
0D
#1257987390
r748 *
1D
#1257987537
r749 *
1C
#1257987578
r750 *
0C
#1257987605
r751 *
0D
#1257987636
r752 *
1D
#1257987783
r753 *
1C
#1257987824
r754 *
0C
#1257987851
r755 *
0D
#1257987882
r756 *
1D
#1257988029
r757 *
1C
#1257988070
r758 *
0C
#1257988097
r759 *
0D
#1257988128
r760 *
1D
#1257988351
r761 *
1C
#1257988390
r762 *
0C
#1257988417
r763 *
0D
#1257988448
r764 *
1D
#1257988597
r765 *
1C
#1257988636
r766 *
0C
#1257988663
r767 *
0D
#1257988694
r768 *
1D
#1257988843
r769 *
1C
#1257988882
r770 *
0C
#1257988909
r771 *
0D
#1257988940
r772 *
1D
#1257989087
r773 *
1C
#1257989128
r774 *
0C
#1257989155
r775 *
0D
#1257989186
r776 *
1D
#1257989333
r777 *
1C
#1257989374
r778 *
0C
#1257989401
r779 *
0D
#1257989432
r780 *
1D
#1257989579
r781 *
1C
#1257989620
r782 *
0C
#1257989647
r783 *
0D
#1257989678
r784 *
1D
#1257989901
r785 *
1C
#1257989942
r786 *
0C
#1257989967
r787 *
0D
#1257990000
r788 *
1D
#1257990147
r789 *
1C
#1257990188
r790 *
0C
#1257990213
r791 *
0D
#1257990244
r792 *
1D
#1257990393
r793 *
1C
#1257990434
r794 *
0C
#1257990459
r795 *
0D
#1257990490
r796 *
1D
#1257990639
r797 *
1C
#1257990680
r798 *
0C
#1257990705
r799 *
0D
#1257990736
r800 *
1D
#1257990885
r801 *
1C
#1257990926
r802 *
0C
#1257990951
r803 *
0D
#1257990982
r804 *
1D
#1257991131
r805 *
1C
#1257991170
r806 *
0C
#1257991197
r807 *
0D
#1257991228
r808 *
1D
#1257991451
r809 *
1C
#1257991492
r810 *
0C
#1257991519
r811 *
0D
#1257991550
r812 *
1D
#1257991697
r813 *
1C
#1257991738
r814 *
0C
#1257991765
r815 *
0D
#1257991796
r816 *
1D
#1257991943
r817 *
1C
#1257991984
r818 *
0C
#1257992011
r819 *
0D
#1257992042
r820 *
1D
#1257992189
r821 *
1C
#1257992230
r822 *
0C
#1257992257
r823 *
0D
#1257992288
r824 *
1D
#1257992435
r825 *
1C
#1257992476
r826 *
0C
#1257992503
r827 *
0D
#1257992534
r828 *
1D
#1257992757
r829 *
1C
#1257992796
r830 *
0C
#1257992823
r831 *
0D
#1257992854
r832 *
1D
#1257993003
r833 *
1C
#1257993042
r834 *
0C
#1257993069
r835 *
0D
#1257993100
r836 *
1D
#1257993249
r837 *
1C
#1257993288
r838 *
0C
#1257993315
r839 *
0D
#1257993346
r840 *
1D
#1257993495
r841 *
1C
#1257993534
r842 *
0C
#1257993561
r843 *
0D
#1257993592
r844 *
1D
#1257993741
r845 *
1C
#1257993780
r846 *
0C
#1257993807
r847 *
0D
#1257993838
r848 *
1D
#1257993985
r849 *
1C
#1257994026
r850 *
0C
#1257994053
r851 *
0D
#1257994084
r852 *
1D
#1257994307
r853 *
1C
#1257994348
r854 *
0C
#1257994373
r855 *
0D
#1257994406
r856 *
1D
#1257994553
r857 *
1C
#1257994594
r858 *
0C
#1257994619
r859 *
0D
#1257994652
r860 *
1D
#1257994799
r861 *
1C
#1257994838
r862 *
0C
#1257994865
r863 *
0D
#1257994896
r864 *
1D
#1257995045
r865 *
1C
#1257995084
r866 *
0C
#1257995111
r867 *
0D
#1257995142
r868 *
1D
#1257995291
r869 *
1C
#1257995330
r870 *
0C
#1257995357
r871 *
0D
#1257995388
r872 *
1D
#1257995537
r873 *
1C
#1257995576
r874 *
0C
#1257995603
r875 *
0D
#1257995634
r876 *
1D
#1257995857
r877 *
1C
#1257995898
r878 *
0C
#1257995925
r879 *
0D
#1257995956
r880 *
1D
#1257996103
r881 *
1C
#1257996144
r882 *
0C
#1257996171
r883 *
0D
#1257996202
r884 *
1D
#1257996349
r885 *
1C
#1257996390
r886 *
0C
#1257996415
r887 *
0D
#1257996448
r888 *
1D
#1257996595
r889 *
1C
#1257996636
r890 *
0C
#1257996661
r891 *
0D
#1257996694
r892 *
1D
#1257996841
r893 *
1C
#1257996882
r894 *
0C
#1257996907
r895 *
0D
#1257996940
r896 *
1D
#1257997087
r897 *
1C
#1257997128
r898 *
0C
#1257997153
r899 *
0D
#1257997186
r900 *
1D
#1257997409
r901 *
1C
#1257997448
r902 *
0C
#1257997475
r903 *
0D
#1257997506
r904 *
1D
#1257997655
r905 *
1C
#1257997694
r906 *
0C
#1257997721
r907 *
0D
#1257997752
r908 *
1D
#1257997901
r909 *
1C
#1257997940
r910 *
0C
#1257997967
r911 *
0D
#1257997998
r912 *
1D
#1257998147
r913 *
1C
#1257998186
r914 *
0C
#1257998213
r915 *
0D
#1257998244
r916 *
1D
#1257998393
r917 *
1C
#1257998432
r918 *
0C
#1257998459
r919 *
0D
#1257998490
r920 *
1D
#1257998713
r921 *
1C
#1257998752
r922 *
0C
#1257998779
r923 *
0D
#1257998812
r924 *
1D
#1257998959
r925 *
1C
#1257998998
r926 *
0C
#1257999025
r927 *
0D
#1257999058
r928 *
1D
#1257999205
r929 *
1C
#1257999244
r930 *
0C
#1257999271
r931 *
0D
#1257999304
r932 *
1D
#1257999451
r933 *
1C
#1257999490
r934 *
0C
#1257999517
r935 *
0D
#1257999550
r936 *
1D
#1257999697
r937 *
1C
#1257999736
r938 *
0C
#1257999763
r939 *
0D
#1257999794
r940 *
1D
#1257999943
r941 *
1C
#1257999982
r942 *
0C
#1258000009
r943 *
0D
#1258000040
r944 *
1D
#1258000263
r945 *
1C
#1258000304
r946 *
0C
#1258000329
r947 *
0D
#1258000362
r948 *
1D
#1258000509
r949 *
1C
#1258000550
r950 *
0C
#1258000575
r951 *
0D
#1258000608
r952 *
1D
#1258000755
r953 *
1C
#1258000796
r954 *
0C
#1258000821
r955 *
0D
#1258000854
r956 *
1D
#1258001001
r957 *
1C
#1258001066
r958 *
0C
#1258001093
r959 *
0D
#1258001124
r960 *
1D
#1258001247
r961 *
1C
#1258001288
r962 *
0C
#1258001313
r963 *
0D
#1258001346
r964 *
1D
#1258001493
r965 *
1C
#1258001532
r966 *
0C
#1258001559
r967 *
0D
#1258001592
r968 *
1D
#1258001815
r969 *
1C
#1258001854
r970 *
0C
#1258001881
r971 *
0D
#1258001912
r972 *
1D
#1258002061
r973 *
1C
#1258002100
r974 *
0C
#1258002127
r975 *
0D
#1258002158
r976 *
1D
#1258002307
r977 *
1C
#1258002346
r978 *
0C
#1258002373
r979 *
0D
#1258002404
r980 *
1D
#1258002553
r981 *
1C
#1258002592
r982 *
0C
#1258002619
r983 *
0D
#1258002650
r984 *
1D
#1258002799
r985 *
1C
#1258002838
r986 *
0C
#1258002865
r987 *
0D
#1258002896
r988 *
1D
#1258003119
r989 *
1C
#1258003158
r990 *
0C
#1258003185
r991 *
0D
#1258003218
r992 *
1D
#1258003365
r993 *
1C
#1258003404
r994 *
0C
#1258003431
r995 *
0D
#1258003464
r996 *
1D
#1258003611
r997 *
1C
#1258003650
r998 *
0C
#1258003677
r999 *
0D
#1258003710
r1000 *
1D
#1258003857
r1001 *
1C
#1258003896
r1002 *
0C
#1258003923
r1003 *
0D
#1258003956
r1004 *
1D
#1258004103
r1005 *
1C
#1258004142
r1006 *
0C
#1258004169
r1007 *
0D
#1258004202
r1008 *
1D
#1258004349
r1009 *
1C
#1258004388
r1010 *
0C
#1258004415
r1011 *
0D
#1258004446
r1012 *
1D
#1258004669
r1013 *
1C
#1258004710
r1014 *
0C
#1258004735
r1015 *
0D
#1258004768
r1016 *
1D
#1258004915
r1017 *
1C
#1258004954
r1018 *
0C
#1258004981
r1019 *
0D
