SignalCaptures/P8000_WDC_sa_format_startup.vcd
$comment Created in LWLA Logic Analyzer $end
$date 02.01.2016 00:43:03 $end
$timescale 1 ns $end
$scope module LWLA  $end
$var real 1 * sample $end
$var reg 8 A Data[7:0] $end
$var reg 3 B Status[2:0] $end
$var reg 1 C /RDY $end
$var reg 1 D /ASTB $end
$var reg 1 E /TR $end
$var reg 1 F /RST $end
$var reg 1 G /TE $end
$upscope $end
$enddefinitions $end
#0
r0 *
b0 A
b0 B
1C
1D
1E
0F
0G
#1
r1 *
#2
r2 *
#3
r3 *
#4
r4 *
#5
r5 *
#6
r6 *
#12737715455
r7 *
#12737715488
r8 *
1G
#12737719977
r9 *
1F
#12737719994
r10 *
b10 A
#12737720011
r11 *
b0 A
#12737720036
r12 *
b10 A
#12737720133
r13 *
b0 A
#12737720294
r14 *
b10 A
#12737720311
r15 *
b0 A
#12737720488
r16 *
b10 A
#12737720497
r17 *
b110 A
#12737720514
r18 *
b10 A
#12737720523
r19 *
b10010 A
#12737720532
r20 *
b10 A
#12737720541
r21 *
b10010 A
#12737720550
r22 *
b10 A
#12737720551
r23 *
0D
#12737720560
r24 *
b11010 A
1D
#12737720569
r25 *
b10 A
#12737720570
r26 *
b1010 A
#12737720571
r27 *
b11110 A
#12737720572
r28 *
b111110 A
#12737720589
r29 *
b111111 A
#12737720622
r30 *
b1111111 A
#12737720623
r31 *
b111111 A
#12737720624
r32 *
b111110 A
#12737720625
r33 *
b110110 A
#12737720626
r34 *
b1110110 A
#12737720627
r35 *
b1010010 A
0D
#12737720628
r36 *
b1000010 A
#12737720629
r37 *
b10 A
#12737720630
r38 *
b100010 A
#12737720631
r39 *
b111010 A
1D
0E
#12737720632
r40 *
b1111011 A
1E
#12737720633
r41 *
b11111011 A
#12737720690
r42 *
b11111111 A
#12737720691
r43 *
b1111111 A
#12737720708
r44 *
b111111 A
#12737720717
r45 *
b1111111 A
#12737720854
r46 *
b11111111 A
#12737721775
r47 *
b1111111 A
#12737722648
r48 *
b11111111 A
#12737722665
r49 *
b1111111 A
#12737728258
r50 *
b11111111 A
#12737728259
r51 *
b10010000 A
#12737728276
r52 *
b0 A
0D
#15377408621
r53 *
1D
#15377425758
r54 *
b1 B
#15377426431
r55 *
b101000 A
#15377426640
r56 *
0C
#15377426905
r57 *
0D
#15377427170
r58 *
1D
#15377428787
r59 *
1C
#15377429396
r60 *
b0 A
#15377429605
r61 *
0C
#15377429870
r62 *
0D
#15377430135
r63 *
1D
#15377433112
r64 *
1C
#15377433329
r65 *
0C
#15377433594
r66 *
0D
#15377433859
r67 *
1D
#15377436084
r68 *
1C
#15377436301
r69 *
0C
#15377436566
r70 *
0D
#15377436831
r71 *
1D
#15377439056
r72 *
1C
#15377439273
r73 *
0C
#15377439538
r74 *
0D
#15377439803
r75 *
1D
#15377441348
r76 *
1C
#15377442021
r77 *
b1 A
#15377442230
r78 *
0C
#15377442495
r79 *
0D
#15377442760
r80 *
1D
#15377444313
r81 *
1C
#15377444370
r82 *
b10000001 A
#15377444979
r83 *
b10000000 A
#15377445436
r84 *
0C
#15377445709
r85 *
0D
#15377445974
r86 *
1D
#15377448087
r87 *
1C
#15377448696
r88 *
b0 A
#15377448905
r89 *
0C
#15377449170
r90 *
0D
#15377449435
r91 *
1D
#15377450980
r92 *
1C
#15377450981
r93 *
b11 A
#15377451654
r94 *
b100011 A
#15377451863
r95 *
0C
#15377452128
r96 *
0D
#15377452393
r97 *
1D
#15377475034
r98 *
1C
#15377475035
r99 *
b0 B
0E
#15378230812
r100 *
1E
#15378230813
r101 *
b11 B
#15378283238
r102 *
0E
#15378283271
r103 *
0G
#15378283280
r104 *
b10000001 A
#15378283281
r105 *
0D
#15378287642
r106 *
1D
#15378287891
r107 *
0C
#15378287892
r108 *
b10000000 A
#15378287901
r109 *
b10 A
#15378287902
r110 *
b10111 A
#15378287943
r111 *
b1010111 A
#15378288216
r112 *
0D
#15378288609
r113 *
1D
#15378292842
r114 *
1C
#15378293331
r115 *
0C
#15378293404
r116 *
b1000100 A
#15378293677
r117 *
0D
#15378294070
r118 *
1D
#15378295303
r119 *
1C
#15378295552
r120 *
0C
#15378295553
r121 *
b1000111 A
#15378295554
r122 *
b1000011 A
0D
#15378295611
r123 *
1D
#15378295876
r124 *
0D
#15378296277
r125 *
1D
#15378297750
r126 *
1C
#15378298007
r127 *
0C
#15378298024
r128 *
b1010111 A
#15378298065
r129 *
b1011111 A
#15378298330
r130 *
0D
#15378298731
r131 *
1D
#15378300212
r132 *
1C
#15378300453
r133 *
0C
#15378300454
r134 *
b1010101 A
#15378300455
r135 *
b1010100 A
0D
#15378300472
r136 *
b10100 A
1D
#15378300505
r137 *
b110100 A
#15378300778
r138 *
0D
#15378301171
r139 *
1D
#15378303404
r140 *
1C
#15378303645
r141 *
0C
#15378303646
r142 *
b100100 A
#15378303655
r143 *
b100110 A
#15378303712
r144 *
b101110 A
#15378303977
r145 *
0D
#15378304378
r146 *
1D
#15378305851
r147 *
1C
#15378306100
r148 *
0C
#15378306101
r149 *
b100010 A
0D
#15378306166
r150 *
b110010 A
1D
#15378306431
r151 *
0D
#15378306832
r152 *
1D
#15378308313
r153 *
1C
#15378308554
r154 *
0C
#15378308555
r155 *
b100000 A
#15378308564
r156 *
b10000001 A
#15378308565
r157 *
0D
#15378308606
r158 *
1D
#15378308879
r159 *
0D
#15378309272
r160 *
1D
#15378310753
r161 *
1C
#15378311002
r162 *
0C
#15378311003
r163 *
b10010000 A
#15378311012
r164 *
b10010 A
#15378311061
r165 *
b1010010 A
#15378311326
r166 *
0D
#15378311727
r167 *
1D
#15378313208
r168 *
1C
#15378313449
r169 *
0C
#15378313450
r170 *
b10 A
#15378313451
r171 *
b1000011 A
#15378313452
r172 *
b111 A
#15378313501
r173 *
b1001111 A
#15378313774
r174 *
0D
#15378314167
r175 *
1D
#15378316400
r176 *
1C
#15378316641
r177 *
0C
#15378316658
r178 *
b1000010 A
0D
#15378316659
r179 *
1D
#15378316660
r180 *
0D
#15378316693
r181 *
1D
#15378316966
r182 *
0D
#15378317359
r183 *
1D
#15378318840
r184 *
1C
#15378319089
r185 *
0C
#15378319090
r186 *
b1000111 A
#15378319155
r187 *
b1001111 A
#15378319420
r188 *
0D
#15378319821
r189 *
1D
#15378321302
r190 *
1C
#15378321543
r191 *
0C
#15378321568
r192 *
b1000100 A
#15378321609
r193 *
b1010100 A
#15378321882
r194 *
0D
#15378322275
r195 *
1D
#15378323756
r196 *
1C
#15378323997
r197 *
0C
#15378323998
r198 *
b1010000 A
#15378323999
r199 *
b1010010 A
0D
#15378324064
r200 *
1D
#15378324329
r201 *
0D
#15378324730
r202 *
1D
#15378326211
r203 *
1C
#15378326452
r204 *
0C
#15378326453
r205 *
b1000010 A
#15378326454
r206 *
b1000111 A
#15378326511
r207 *
b1001111 A
#15378326776
r208 *
0D
#15378327177
r209 *
1D
#15378328658
r210 *
1C
#15378328899
r211 *
0C
#15378328972
r212 *
b1001110 A
#15378329245
r213 *
0D
#15378329646
r214 *
1D
#15378331871
r215 *
1C
#15378332128
r216 *
0C
#15378332129
r217 *
b1000000 A
0D
#15378332138
r218 *
b0 A
1D
#15378332139
r219 *
0D
#15378332172
r220 *
b100000 A
1D
#15378332437
r221 *
0D
#15378332838
r222 *
1D
#15378334319
r223 *
1C
#15378334560
r224 *
0C
#15378334569
r225 *
b110 A
#15378334626
r226 *
b1010110 A
#15378334891
r227 *
0D
#15378335292
r228 *
1D
#15378336773
r229 *
1C
#15378337014
r230 *
0C
#15378337015
r231 *
b1010010 A
#15378337016
r232 *
0D
#15378337073
r233 *
b1010011 A
1D
#15378337346
r234 *
0D
#15378337747
r235 *
1D
#15378339228
r236 *
1C
#15378339469
r237 *
0C
#15378339470
r238 *
b1010000 A
#15378339471
r239 *
b1000000 A
#15378339472
r240 *
b0 A
#15378339473
r241 *
0D
#15378339514
r242 *
b100000 A
1D
#15378339779
r243 *
0D
#15378340180
r244 *
1D
#15378341661
r245 *
1C
#15378341910
r246 *
0C
#15378341911
r247 *
b1 A
#15378341968
r248 *
b10000001 A
#15378342233
r249 *
0D
#15378342642
r250 *
1D
#15378344115
r251 *
1C
#15378344356
r252 *
0C
#15378344365
r253 *
b10000000 A
#15378344430
r254 *
b0 A
#15378344695
r255 *
0D
#15378345096
r256 *
1D
#15378347329
r257 *
1C
#15378347650
r258 *
0C
#15378347915
r259 *
0D
#15378348316
r260 *
1D
#15378349797
r261 *
1C
#15378350046
r262 *
0C
#15378350047
r263 *
b100 A
#15378350104
r264 *
b110100 A
#15378350369
r265 *
0D
#15378350778
r266 *
1D
#15378352259
r267 *
1C
#15378352492
r268 *
0C
#15378352493
r269 *
b0 A
#15378352494
r270 *
0D
#15378352495
r271 *
b11 A
#15378352552
r272 *
1D
#15378352817
r273 *
0D
#15378353218
r274 *
1D
#15378354699
r275 *
1C
#15378354940
r276 *
0C
#15378355013
r277 *
b110 A
#15378355278
r278 *
0D
#15378355679
r279 *
1D
#15378357160
r280 *
1C
#15378357401
r281 *
0C
#15378357402
r282 *
b10 A
#15378357403
r283 *
0D
#15378357460
r284 *
b10010 A
1D
#15378357733
r285 *
0D
#15378358134
r286 *
1D
#15378359615
r287 *
1C
#15378359856
r288 *
0C
#15378359857
r289 *
b10100 A
#15378359922
r290 *
b110100 A
#15378360187
r291 *
0D
#15378360588
r292 *
1D
#15378362821
r293 *
1C
#15378363062
r294 *
0C
#15378363063
r295 *
b10 A
0D
#15378363072
r296 *
b11 A
#15378363121
r297 *
1D
#15378363386
r298 *
0D
#15378363795
r299 *
1D
#15378365268
r300 *
1C
#15378365509
r301 *
0C
#15378365582
r302 *
b1 A
#15378365855
r303 *
0D
#15378366256
r304 *
1D
#15378367737
r305 *
1C
#15378367986
r306 *
0C
#15378368051
r307 *
b0 A
#15378368316
r308 *
0D
#15378368717
r309 *
1D
#15378370198
r310 *
1C
#15378370519
r311 *
0C
#15378370784
r312 *
0D
#15378371193
r313 *
1D
#15378372674
r314 *
1C
#15378372995
r315 *
0C
#15378373260
r316 *
0D
#15378373661
r317 *
1D
#15378375894
r318 *
1C
#15378376215
r319 *
0C
#15378376480
r320 *
0D
#15378376881
r321 *
1D
#15378378362
r322 *
1C
#15378378683
r323 *
0C
#15378378948
r324 *
0D
#15378379357
r325 *
1D
#15378380838
r326 *
1C
#15378381151
r327 *
0C
#15378381424
r328 *
0D
#15378381825
r329 *
1D
#15378383306
r330 *
1C
#15378383555
r331 *
0C
#15378383564
r332 *
b10000011 A
#15378383613
r333 *
b11001011 A
#15378383878
r334 *
0D
#15378384287
r335 *
1D
#15378385768
r336 *
1C
#15378386001
r337 *
0C
#15378386002
r338 *
b11001001 A
#15378386019
r339 *
b11000001 A
#15378386060
r340 *
b11010001 A
#15378386333
r341 *
0D
#15378386734
r342 *
1D
#15378388215
r343 *
1C
#15378388456
r344 *
0C
#15378388457
r345 *
b11010011 A
#15378388458
r346 *
b11011011 A
#15378388515
r347 *
b11111011 A
#15378388780
r348 *
0D
#15378389189
r349 *
1D
#15378391414
r350 *
1C
#15378391655
r351 *
0C
#15378391728
r352 *
b11111101 A
#15378391993
r353 *
0D
#15378392402
r354 *
1D
#15378393883
r355 *
1C
#15378394116
r356 *
0C
#15378394117
r357 *
b11111001 A
#15378394126
r358 *
b11110001 A
0D
#15378394175
r359 *
1D
#15378394440
r360 *
0D
#15378394849
r361 *
1D
#15378396330
r362 *
1C
#15378396579
r363 *
0C
#15378396644
r364 *
b11110011 A
#15378396909
r365 *
0D
#15378397318
r366 *
1D
#15378398799
r367 *
1C
#15378399048
r368 *
0C
#15378399049
r369 *
b10000011 A
#15378399058
r370 *
0D
#15378399091
r371 *
1D
#15378399356
r372 *
0D
#15378399765
r373 *
1D
#15378401246
r374 *
1C
#15378401479
r375 *
0C
#15378401480
r376 *
b10000001 A
#15378401553
r377 *
b1011001 A
#15378401818
r378 *
0D
#15378402227
r379 *
1D
#15378403700
r380 *
1C
#15378403941
r381 *
0C
#15378403942
r382 *
b1000001 A
#15378404007
r383 *
b1 A
#15378404272
r384 *
0D
#15378404681
r385 *
1D
#15378406914
r386 *
1C
#15378407163
r387 *
0C
#15378407220
r388 *
b0 A
#15378407485
r389 *
0D
#15378407894
r390 *
1D
#15378409375
r391 *
1C
#15378409616
r392 *
0C
#15378409617
r393 *
b1 A
#15378409682
r394 *
b11 A
#15378409947
r395 *
0D
#15378410356
r396 *
1D
#15378411829
r397 *
1C
#15378412086
r398 *
0C
#15378412143
r399 *
b11011 A
#15378412408
r400 *
0D
#15378412817
r401 *
1D
#15378414298
r402 *
1C
#15378414531
r403 *
0C
#15378414532
r404 *
b1001 A
#15378414533
r405 *
b0 A
#15378414542
r406 *
0D
#15378414583
r407 *
1D
#15378414856
r408 *
0D
#15378415257
r409 *
1D
#15378416738
r410 *
1C
#15378416979
r411 *
0C
#15378417052
r412 *
b10 A
#15378417317
r413 *
0D
#15378417726
r414 *
1D
#15378419959
r415 *
1C
#15378420192
r416 *
0C
#15378420193
r417 *
b0 A
#15378420194
r418 *
b1 A
#15378420251
r419 *
b10000001 A
#15378420516
r420 *
0D
#15378420925
r421 *
1D
#15378422406
r422 *
1C
#15378422719
r423 *
0C
#15378422992
r424 *
0D
#15378423393
r425 *
1D
#15378424874
r426 *
1C
#15378425195
r427 *
0C
#15378425460
r428 *
0D
#15378425869
r429 *
1D
#15378427350
r430 *
1C
#15378427663
r431 *
0C
#15378427928
r432 *
0D
#15378428337
r433 *
1D
#15378429818
r434 *
1C
#15378430131
r435 *
0C
#15378430404
r436 *
0D
#15378430813
r437 *
1D
#15378432294
r438 *
1C
#15378432607
r439 *
0C
#15378432872
r440 *
0D
#15378433281
r441 *
1D
#15378435514
r442 *
1C
#15378435827
r443 *
0C
#15378436092
r444 *
0D
#15378436501
r445 *
1D
#15378437982
r446 *
1C
#15378438295
r447 *
0C
#15378438568
r448 *
0D
#15378438977
r449 *
1D
#15378440458
r450 *
1C
#15378441019
r451 *
0C
#15378441284
r452 *
0D
#15378441701
r453 *
1D
#15378442926
r454 *
1C
#15378443239
r455 *
0C
#15378443512
r456 *
0D
#15378443921
r457 *
1D
#15378445402
r458 *
1C
#15378445715
r459 *
0C
#15378445980
r460 *
0D
#15378446389
r461 *
1D
#15378447870
r462 *
1C
#15378448183
r463 *
0C
#15378448448
r464 *
0D
#15378448857
r465 *
1D
#15378451090
r466 *
1C
#15378451651
r467 *
0C
#15378451924
r468 *
0D
#15378452333
r469 *
1D
#15378453566
r470 *
1C
#15378454127
r471 *
0C
#15378454392
r472 *
0D
#15378454809
r473 *
1D
#15378456034
r474 *
1C
#15378456595
r475 *
0C
#15378456868
r476 *
0D
#15378457277
r477 *
1D
#15378458502
r478 *
1C
#15378459071
r479 *
0C
#15378459336
r480 *
0D
#15378459745
r481 *
1D
#15378460978
r482 *
1C
#15378461539
r483 *
0C
#15378461804
r484 *
0D
#15378462221
r485 *
1D
#15378464198
r486 *
1C
#15378464759
r487 *
0C
#15378465032
r488 *
0D
#15378465441
r489 *
1D
#15378466674
r490 *
1C
#15378467235
r491 *
0C
#15378467500
r492 *
0D
#15378467909
r493 *
1D
#15378469142
r494 *
1C
#15378469639
r495 *
0C
#15378469696
r496 *
b10000011 A
#15378469961
r497 *
0D
#15378470378
r498 *
1D
#15378471603
r499 *
1C
#15378472084
r500 *
0C
#15378472093
r501 *
b10000001 A
#15378472094
r502 *
b10010001 A
#15378472095
r503 *
b11001 A
#15378472136
r504 *
b1011001 A
#15378472409
r505 *
0D
#15378472818
r506 *
1D
#15378474051
r507 *
1C
#15378474532
r508 *
0C
#15378474533
r509 *
b1001001 A
#15378474598
r510 *
b1 A
#15378474863
r511 *
0D
#15378475280
r512 *
1D
#15378476505
r513 *
1C
#15378477002
r514 *
0C
#15378477059
r515 *
b0 A
#15378477324
r516 *
0D
#15378477741
r517 *
1D
#15378479718
r518 *
1C
#15378480455
r519 *
0C
#15378480528
r520 *
b1101100 A
#15378480793
r521 *
0D
#15378481210
r522 *
1D
#15378482187
r523 *
1C
#15378482676
r524 *
0C
#15378482701
r525 *
b0 A
0D
#15378482734
r526 *
1D
#15378482999
r527 *
0D
#15378483416
r528 *
1D
#15378484641
r529 *
1C
#15378485202
r530 *
0C
#15378485475
r531 *
0D
#15378485884
r532 *
1D
#15378487117
r533 *
1C
#15378487606
r534 *
0C
#15378487671
r535 *
b10000001 A
#15378487936
r536 *
0D
#15378488353
r537 *
1D
#15378489578
r538 *
1C
#15378490387
r539 *
0C
#15378490652
r540 *
0D
#15378491069
r541 *
1D
#15378492054
r542 *
1C
#15378492607
r543 *
0C
#15378492880
r544 *
0D
#15378493289
r545 *
1D
#15378495274
r546 *
1C
#15378495763
r547 *
0C
#15378495772
r548 *
b10100101 A
#15378495821
r549 *
b11100101 A
#15378496086
r550 *
0D
#15378496503
r551 *
1D
#15378497728
r552 *
1C
#15378498209
r553 *
0C
#15378498210
r554 *
b11000101 A
#15378498211
r555 *
b10000000 A
0D
#15378498220
r556 *
b0 A
#15378498221
r557 *
1D
#15378498222
r558 *
0D
#15378498247
r559 *
1D
#15378498512
r560 *
0D
#15378498929
r561 *
1D
#15378500162
r562 *
1C
#15378500643
r563 *
0C
#15378500716
r564 *
b10000001 A
#15378500981
r565 *
0D
#15378501398
r566 *
1D
#15378502623
r567 *
1C
#15378503104
r568 *
0C
#15378503105
r569 *
b10000000 A
#15378503170
r570 *
b0 A
#15378503435
r571 *
0D
#15378503852
r572 *
1D
#15378505085
r573 *
1C
#15378505566
r574 *
0C
#15378505631
r575 *
b10000000 A
#15378505896
r576 *
0D
#15378506313
r577 *
1D
#15378507546
r578 *
1C
#15378508035
r579 *
0C
#15378508036
r580 *
b10110110 A
#15378508037
r581 *
b11110110 A
#15378508086
r582 *
b11111110 A
#15378508351
r583 *
0D
#15378508768
r584 *
1D
#15378510745
r585 *
1C
#15378511226
r586 *
0C
#15378511235
r587 *
b10000000 A
0D
#15378511252
r588 *
b0 A
#15378511285
r589 *
1D
#15378511470
r590 *
0D
#15378511543
r591 *
1C
#15378513200
r592 *
1D
#15378513753
r593 *
0C
#15378514018
r594 *
0D
#15378514435
r595 *
1D
#15378515668
r596 *
1C
#15378516229
r597 *
0C
#15378516494
r598 *
0D
#15378516911
r599 *
1D
#15378518136
r600 *
1C
#15378518625
r601 *
0C
#15378518690
r602 *
b1 A
#15378518955
r603 *
0D
#15378519372
r604 *
1D
#15378520605
r605 *
1C
#15378521086
r606 *
0C
#15378521151
r607 *
b10000001 A
#15378521424
r608 *
0D
#15378521841
r609 *
1D
#15378523818
r610 *
1C
#15378524379
r611 *
0C
#15378524644
r612 *
0D
#15378525061
r613 *
1D
#15378526286
r614 *
1C
#15378526775
r615 *
0C
#15378526776
r616 *
b10000011 A
#15378526833
r617 *
b110011 A
#15378527098
r618 *
0D
#15378527515
r619 *
1D
#15378528748
r620 *
1C
#15378529221
r621 *
0C
#15378529222
r622 *
b100001 A
#15378529223
r623 *
b1 A
0D
#15378529232
r624 *
b0 A
#15378529273
r625 *
1D
#15378529546
r626 *
0D
#15378529963
r627 *
1D
#15378531188
r628 *
1C
#15378531677
r629 *
0C
#15378531742
r630 *
b10010 A
#15378532007
r631 *
0D
#15378532424
r632 *
1D
#15378533657
r633 *
1C
#15378534130
r634 *
0C
#15378534131
r635 *
b0 A
#15378534140
r636 *
b10000000 A
#15378534189
r637 *
b10000001 A
#15378534454
r638 *
0D
#15378534879
r639 *
1D
#15378536104
r640 *
1C
#15378536585
r641 *
0C
#15378536658
r642 *
b0 A
#15378536923
r643 *
0D
#15378537340
r644 *
1D
#15378539317
r645 *
1C
#15378539878
r646 *
0C
#15378540143
r647 *
0D
#15378540560
r648 *
1D
#15378541793
r649 *
1C
#15378542346
r650 *
0C
#15378542619
r651 *
0D
#15378543036
r652 *
1D
#15378544261
r653 *
1C
#15378544822
r654 *
0C
#15378545087
r655 *
0D
#15378545504
r656 *
1D
#15378546737
r657 *
1C
#15378547290
r658 *
0C
#15378547555
r659 *
0D
#15378547980
r660 *
1D
#15378549205
r661 *
1C
#15378549686
r662 *
0C
#15378549687
r663 *
b10000000 A
#15378549752
r664 *
b10000001 A
#15378550017
r665 *
0D
#15378550434
r666 *
1D
#15378551667
r667 *
1C
#15378552220
r668 *
0C
#15378552485
r669 *
0D
#15378552902
r670 *
1D
#15378554887
r671 *
1C
#15378555440
r672 *
0C
#15378555705
r673 *
0D
#15378556130
r674 *
1D
#15378557355
r675 *
1C
#15378557844
r676 *
0C
#15378557853
r677 *
b10011 A
#15378557894
r678 *
b11011 A
#15378558167
r679 *
0D
#15378558584
r680 *
1D
#15378559817
r681 *
1C
#15378560290
r682 *
0C
#15378560291
r683 *
b11 A
0D
#15378560356
r684 *
1D
#15378560621
r685 *
0D
#15378561038
r686 *
1D
#15378562271
r687 *
1C
#15378562752
r688 *
0C
#15378562753
r689 *
b10010011 A
#15378562754
r690 *
b10010111 A
#15378562803
r691 *
b11010111 A
#15378563076
r692 *
0D
#15378563493
r693 *
1D
#15378564718
r694 *
1C
#15378565199
r695 *
0C
#15378565200
r696 *
b1010011 A
0D
#15378565209
r697 *
b10010 A
1D
#15378565210
r698 *
b11010 A
0D
#15378565251
r699 *
1D
#15378565516
r700 *
0D
#15378565933
r701 *
1D
#15378567918
r702 *
1C
#15378568399
r703 *
0C
#15378568464
r704 *
b10000001 A
#15378568729
r705 *
0D
#15378569146
r706 *
1D
#15378570379
r707 *
1C
#15378570932
r708 *
0C
#15378571205
r709 *
0D
#15378571622
r710 *
1D
#15378572855
r711 *
1C
#15378573408
r712 *
0C
#15378573673
r713 *
0D
#15378574090
r714 *
1D
#15378575323
r715 *
1C
#15378575876
r716 *
0C
#15378576141
r717 *
0D
#15378576566
r718 *
1D
#15378577791
r719 *
1C
#15378578344
r720 *
0C
#15378578617
r721 *
0D
#15378579034
r722 *
1D
#15378580267
r723 *
1C
#15378580820
r724 *
0C
#15378581085
r725 *
0D
#15378581510
r726 *
1D
#15378583487
r727 *
1C
#15378584040
r728 *
0C
#15378584305
r729 *
0D
#15378584730
r730 *
1D
#15378585955
r731 *
1C
#15378586508
r732 *
0C
#15378586781
r733 *
0D
#15378587198
r734 *
1D
#15378588431
r735 *
1C
#15378588984
r736 *
0C
#15378589249
r737 *
0D
#15378589674
r738 *
1D
#15378590899
r739 *
1C
#15378591452
r740 *
0C
#15378591725
r741 *
0D
#15378592142
r742 *
1D
#15378593375
r743 *
1C
#15378593928
r744 *
0C
#15378594193
r745 *
0D
#15378594618
r746 *
1D
#15378595843
r747 *
1C
#15378596396
r748 *
0C
#15378596661
r749 *
0D
#15378597086
r750 *
1D
#15378599063
r751 *
1C
#15378599616
r752 *
0C
#15378599881
r753 *
0D
#15378600306
r754 *
1D
#15378601539
r755 *
1C
#15378602092
r756 *
0C
#15378602357
r757 *
0D
#15378602782
r758 *
1D
#15378604007
r759 *
1C
#15378604560
r760 *
0C
#15378604825
r761 *
0D
#15378605250
r762 *
1D
#15378606483
r763 *
1C
#15378607028
r764 *
0C
#15378607301
r765 *
0D
#15378607726
r766 *
1D
#15378608951
r767 *
1C
#15378609504
r768 *
0C
#15378609769
r769 *
0D
#15378610194
r770 *
1D
#15378612171
r771 *
1C
#15378612724
r772 *
0C
#15378612989
r773 *
0D
#15378613414
r774 *
1D
#15378614647
r775 *
1C
#15378615192
r776 *
0C
#15378615465
r777 *
0D
#15378615890
r778 *
1D
#15378617115
r779 *
1C
#15378617668
r780 *
0C
#15378617933
r781 *
0D
#15378618358
r782 *
1D
#15378619591
r783 *
1C
#15378620136
r784 *
0C
#15378620401
r785 *
0D
#15378620826
r786 *
1D
#15378622059
r787 *
1C
#15378622612
r788 *
0C
#15378622877
r789 *
0D
#15378623302
r790 *
1D
#15378645103
r791 *
1C
#15378645104
r792 *
b10 B
#15378645129
r793 *
b0 B
#15378663298
r794 *
1E
#15378663299
r795 *
b10000000 A
#15378663668
r796 *
b10000001 A
#15378663669
r797 *
b10000000 A
#15378663774
r798 *
b10000001 A
#15378663775
r799 *
b10000000 A
#15378663840
r800 *
b10000001 A
#15378663841
r801 *
b10000000 A
#15378663986
r802 *
b10000001 A
#15378663995
r803 *
b10000000 A
#15378664148
r804 *
b10000001 A
#15378664149
r805 *
b10000000 A
#15378664182
r806 *
b10000001 A
#15378664183
r807 *
b10000000 A
#15378664192
r808 *
b10000001 A
#15378664201
r809 *
b10000000 A
#15378664218
r810 *
b10000001 A
#15378664235
r811 *
b10000000 A
#15378664260
r812 *
b10000001 A
#15378664261
r813 *
b10000000 A
#15378664262
r814 *
b10000001 A
#15378664263
r815 *
b10000000 A
#15378664272
r816 *
b10000001 A
#15378664281
r817 *
b10000000 A
#15378664282
r818 *
b10000001 A
#15378664291
r819 *
b10000000 A
#15378664292
r820 *
b10000001 A
#15378664301
r821 *
b10000000 A
#15378664302
r822 *
b10000001 A
#15378664303
r823 *
b10000000 A
#15378664312
r824 *
b10000001 A
#15378664313
r825 *
b10000000 A
#15378664314
r826 *
b10000001 A
#15378664331
r827 *
b10000000 A
#15378664332
r828 *
b10000001 A
#15378664333
r829 *
b10000000 A
#15378664334
r830 *
b10000001 A
#15378664351
r831 *
b10000000 A
#15378664352
r832 *
b10000001 A
#15378664361
r833 *
b10000000 A
#15378664362
r834 *
b10000001 A
#15378664371
r835 *
b10000000 A
#15378664372
r836 *
b10000001 A
#15378664397
r837 *
b10000000 A
#15378664398
r838 *
b10000001 A
#15378664439
r839 *
b10000000 A
#15378664440
r840 *
b10000001 A
#15378664617
r841 *
b10000000 A
#15378664626
r842 *
b10000001 A
#15378664635
r843 *
b10000000 A
#15378664636
r844 *
b10000001 A
#15378664957
r845 *
b10000000 A
#15378664958
r846 *
b10000001 A
#15378665751
r847 *
b10000000 A
#15378665752
r848 *
b0 A
#15378665921
r849 *
b10000000 A
#15378665922
r850 *
b0 A
#15378666083
r851 *
b10000000 A
#15378666084
r852 *
b0 A
#15378666093
r853 *
b10000000 A
#15378666094
r854 *
b0 A
#15378666127
r855 *
b10000000 A
#15378666128
r856 *
b0 A
#15378666137
r857 *
b10000000 A
#15378666138
r858 *
b0 A
#15378666163
r859 *
b10000000 A
#15378666164
r860 *
b0 A
#15378666221
r861 *
b10000000 A
#15378666230
r862 *
b0 A
#15378666231
r863 *
b10000000 A
#15378666240
r864 *
b0 A
#15378666249
r865 *
b10000000 A
#15378666250
r866 *
b0 A
#15378666259
r867 *
b10000000 A
#15378666260
r868 *
b0 A
#15378666269
r869 *
b10000000 A
#15378666286
r870 *
b0 A
#15378666287
r871 *
b10000000 A
#15378666304
r872 *
b0 A
#15378666305
r873 *
b10000000 A
#15378666314
r874 *
b0 A
#15378666323
r875 *
b10000000 A
#15378666324
r876 *
b0 A
#15378666333
r877 *
b10000000 A
#15378666334
r878 *
b0 A
#15378666335
r879 *
b10000000 A
#15378666336
r880 *
b0 A
#15378666353
r881 *
b10000000 A
#15378666362
r882 *
b0 A
#15378666363
r883 *
b10000000 A
#15378666380
r884 *
b0 A
#15378666381
r885 *
b10000000 A
#15378666382
r886 *
b0 A
#15378666391
r887 *
b10000000 A
#15378666408
r888 *
b0 A
#15378666409
r889 *
b10000000 A
#15378666594
r890 *
b0 A
#15378666595
r891 *
b10000000 A
#15378666604
r892 *
b0 A
#15378666605
r893 *
b10000000 A
#15378666950
r894 *
b0 A
#15378666951
r895 *
b10000000 A
#15378667320
r896 *
b0 A
#15378667321
r897 *
b10000000 A
#15378847546
r898 *
b0 A
#24856605475
r899 *
b1 B
#24856608524
r900 *
1G
#24856629141
r901 *
b100011 A
#24856629198
r902 *
b1111011 A
#24856629807
r903 *
b1111000 A
#24856630080
r904 *
0C
#24856630345
r905 *
0D
#24856630546
r906 *
1D
#24856632091
r907 *
1C
#24856632156
r908 *
b1111001 A
#24856632157
r909 *
b1100001 A
#24856632166
r910 *
b1 A
#24856632167
r911 *
0D
#24856632744
r912 *
1D
#24856633009
r913 *
0C
#24856633274
r914 *
0D
#24856633483
r915 *
1D
#24856635100
r916 *
1C
#24856635709
r917 *
b0 A
#24856635974
r918 *
0C
#24856636239
r919 *
0D
#24856636448
r920 *
1D
#24856638681
r921 *
1C
#24856638946
r922 *
0C
#24856639211
r923 *
0D
#24856639420
r924 *
1D
#24856641653
r925 *
1C
#24856641918
r926 *
0C
#24856642183
r927 *
0D
#24856642392
r928 *
1D
#24856644689
r929 *
1C
#24856645362
r930 *
b1 A
#24856645635
r931 *
0C
#24856645900
r932 *
0D
#24856646109
r933 *
1D
#24856647654
r934 *
1C
#24856647711
r935 *
b100011 A
#24856648320
r936 *
b100010 A
#24856648593
r937 *
0C
#24856648858
r938 *
0D
#24856649067
r939 *
1D
#24856650676
r940 *
1C
#24856650677
r941 *
b100000 A
#24856651278
r942 *
b0 A
#24856651551
r943 *
0C
#24856651816
r944 *
0D
#24856652017
r945 *
1D
#24856653570
r946 *
1C
#24856654243
r947 *
b100011 A
#24856654508
r948 *
0C
#24856654773
r949 *
0D
#24856654982
r950 *
1D
#24856677431
r951 *
1C
#24856677432
r952 *
0E
#24856677433
r953 *
b0 B
#24857338234
r954 *
1E
#24857377107
r955 *
b10 B
#24857377164
r956 *
b1110011 A
#24857377165
r957 *
b1110010 A
#24857377766
r958 *
b1010010 A
#24857377983
r959 *
0C
#24857378248
r960 *
0D
#24857378505
r961 *
1D
#24857379554
r962 *
1C
#24857379555
r963 *
b1011011 A
#24857379612
r964 *
b1011111 A
#24857380221
r965 *
b1001111 A
#24857380678
r966 *
0C
#24857380943
r967 *
0D
#24857381208
r968 *
1D
#24857382073
r969 *
1C
#24857382082
r970 *
b1000010 A
#24857382083
r971 *
0D
#24857382668
r972 *
1D
