SignalCaptures/P8000_WDC_Copy_File.vcd
$comment Created in LWLA Logic Analyzer $end
$date 02.01.2016 22:12:20 $end
$timescale 10 ns $end
$scope module LWLA  $end
$var real 1 * sample $end
$var reg 8 A Data[7:0] $end
$var reg 3 B Status[2:0] $end
$var reg 1 C /RDY $end
$var reg 1 D /ASTB $end
$var reg 1 E /TR $end
$var reg 1 F /RST $end
$var reg 1 G /TE $end
$upscope $end
$enddefinitions $end
#0
r0 *
b10110010 A
b1 B
1C
1D
1E
1F
1G
#1
r1 *
#2
r2 *
#3
r3 *
#4
r4 *
#5
r5 *
#6
r6 *
#1398766957
r7 *
#1398767018
r8 *
b100010 A
#1398767035
r9 *
0C
#1398767062
r10 *
0D
#1398767091
r11 *
1D
#1398767202
r12 *
1C
#1398767263
r13 *
b0 A
#1398767280
r14 *
0C
#1398767307
r15 *
0D
#1398767336
r16 *
1D
#1398767515
r17 *
1C
#1398767582
r18 *
b11001001 A
#1398767601
r19 *
0C
#1398767628
r20 *
0D
#1398767655
r21 *
1D
#1398767760
r22 *
1C
#1398767765
r23 *
b11111011 A
#1398767766
r24 *
b11111010 A
#1398767825
r25 *
b110010 A
#1398767844
r26 *
0C
#1398767869
r27 *
0D
#1398767898
r28 *
1D
#1398768009
r29 *
1C
#1398768010
r30 *
b0 A
#1398768011
r31 *
0D
#1398768068
r32 *
1D
#1398768087
r33 *
0C
#1398768112
r34 *
0D
#1398768141
r35 *
1D
#1398768314
r36 *
1C
#1398768333
r37 *
0C
#1398768358
r38 *
0D
#1398768387
r39 *
1D
#1398768560
r40 *
1C
#1398768579
r41 *
0C
#1398768604
r42 *
0D
#1398768633
r43 *
1D
#1398768738
r44 *
1C
#1398768805
r45 *
b10 A
#1398768824
r46 *
0C
#1398768849
r47 *
0D
#1398768878
r48 *
1D
#1398769065
r49 *
1C
#1398769126
r50 *
b0 A
#1398769143
r51 *
0C
#1398769170
r52 *
0D
#1398769199
r53 *
1D
#1398771610
r54 *
1C
#1398797777
r55 *
b0 B
#1398801194
r56 *
b10 B
#1398801261
r57 *
b1100011 A
#1398801278
r58 *
0C
#1398801303
r59 *
0D
#1398801334
r60 *
1D
#1398801439
r61 *
1C
#1398801444
r62 *
b1110011 A
#1398801505
r63 *
b1110000 A
#1398801520
r64 *
0C
#1398801547
r65 *
0D
#1398801578
r66 *
1D
#1398801689
r67 *
1C
#1398801750
r68 *
b0 A
#1398801767
r69 *
0C
#1398801792
r70 *
0D
#1398801823
r71 *
1D
#1398802002
r72 *
1C
#1398802003
r73 *
b1 A
#1398802070
r74 *
b1110011 A
#1398802085
r75 *
0C
#1398802112
r76 *
0D
#1398802143
r77 *
1D
#1398802254
r78 *
1C
#1398802315
r79 *
b1100001 A
#1398802330
r80 *
0C
#1398802357
r81 *
0D
#1398802388
r82 *
1D
#1398802491
r83 *
1C
#1398802492
r84 *
b1101011 A
#1398802497
r85 *
b1101111 A
#1398802558
r86 *
b101110 A
#1398802573
r87 *
0C
#1398802598
r88 *
0D
#1398802631
r89 *
1D
#1398802734
r90 *
1C
#1398802735
r91 *
b101111 A
#1398802740
r92 *
b1111111 A
#1398802741
r93 *
b1110011 A
0D
#1398802800
r94 *
1D
#1398802815
r95 *
0C
#1398802840
r96 *
0D
#1398802873
r97 *
1D
#1398802976
r98 *
1C
#1398802983
r99 *
b1111011 A
#1398803044
r100 *
b1101000 A
#1398803059
r101 *
0C
#1398803084
r102 *
0D
#1398803117
r103 *
1D
#1398803220
r104 *
1C
#1398803289
r105 *
b1101001 A
#1398803304
r106 *
0C
#1398803329
r107 *
0D
#1398803362
r108 *
1D
#1398803541
r109 *
1C
#1398803546
r110 *
b1111001 A
#1398803607
r111 *
b1110000 A
#1398803622
r112 *
0C
#1398803649
r113 *
0D
#1398803680
r114 *
1D
#1398803785
r115 *
1C
#1398803790
r116 *
b1110100 A
#1398803851
r117 *
b1100100 A
#1398803866
r118 *
0C
#1398803893
r119 *
0D
#1398803924
r120 *
1D
#1398804029
r121 *
1C
#1398804034
r122 *
b1101101 A
#1398804095
r123 *
b1101001 A
#1398804110
r124 *
0C
#1398804137
r125 *
0D
#1398804168
r126 *
1D
#1398804273
r127 *
1C
#1398804278
r128 *
b1111011 A
#1398804339
r129 *
b1110011 A
#1398804354
r130 *
0C
#1398804381
r131 *
0D
#1398804412
r132 *
1D
#1398804517
r133 *
1C
#1398804522
r134 *
b1111011 A
#1398804583
r135 *
b1101011 A
#1398804598
r136 *
0C
#1398804625
r137 *
0D
#1398804656
r138 *
1D
#1398804841
r139 *
1C
#1398804842
r140 *
b1101010 A
#1398804901
r141 *
b0 A
#1398804918
r142 *
0C
#1398804943
r143 *
0D
#1398804974
r144 *
1D
#1398805079
r145 *
1C
#1398805146
r146 *
b1110011 A
#1398805161
r147 *
0C
#1398805188
r148 *
0D
#1398805219
r149 *
1D
#1398805330
r150 *
1C
#1398805331
r151 *
b1110001 A
#1398805390
r152 *
b1100001 A
#1398805405
r153 *
0C
#1398805432
r154 *
0D
#1398805463
r155 *
1D
#1398805568
r156 *
1C
#1398805573
r157 *
b1101111 A
#1398805574
r158 *
b1101110 A
#1398805633
r159 *
b101110 A
#1398805648
r160 *
0C
#1398805675
r161 *
0D
#1398805706
r162 *
1D
#1398805811
r163 *
1C
#1398805816
r164 *
b1101110 A
#1398805877
r165 *
b1101000 A
#1398805892
r166 *
0C
#1398805919
r167 *
0D
#1398805950
r168 *
1D
#1398806055
r169 *
1C
#1398806060
r170 *
b1111101 A
#1398806121
r171 *
b1110101 A
#1398806136
r172 *
0C
#1398806163
r173 *
0D
#1398806194
r174 *
1D
#1398806375
r175 *
1C
#1398806380
r176 *
b1110111 A
#1398806441
r177 *
b1100111 A
#1398806456
r178 *
0C
#1398806481
r179 *
0D
#1398806514
r180 *
1D
#1398806617
r181 *
1C
#1398806686
r182 *
b1101111 A
#1398806701
r183 *
0C
#1398806726
r184 *
0D
#1398806759
r185 *
1D
#1398806870
r186 *
1C
#1398806871
r187 *
b0 A
0D
#1398806930
r188 *
1D
#1398806945
r189 *
0C
#1398806970
r190 *
0D
#1398807003
r191 *
1D
#1398807106
r192 *
1C
#1398807107
r193 *
b1000 A
#1398807174
r194 *
b1001000 A
#1398807189
r195 *
0C
#1398807214
r196 *
0D
#1398807247
r197 *
1D
#1398807350
r198 *
1C
#1398807351
r199 *
b1001011 A
#1398807418
r200 *
b1001111 A
#1398807433
r201 *
0C
#1398807458
r202 *
0D
#1398807491
r203 *
1D
#1398807602
r204 *
1C
#1398807663
r205 *
b1001101 A
#1398807678
r206 *
0C
#1398807703
r207 *
0D
#1398807736
r208 *
1D
#1398807921
r209 *
1C
#1398807982
r210 *
b1000101 A
#1398807997
r211 *
0C
#1398808024
r212 *
0D
#1398808055
r213 *
1D
#1398808160
r214 *
1C
#1398808165
r215 *
b1111101 A
#1398808226
r216 *
b111101 A
#1398808241
r217 *
0C
#1398808268
r218 *
0D
#1398808299
r219 *
1D
#1398808404
r220 *
1C
#1398808409
r221 *
b111111 A
#1398808470
r222 *
b101111 A
#1398808485
r223 *
0C
#1398808512
r224 *
0D
#1398808543
r225 *
1D
#1398808654
r226 *
1C
#1398808655
r227 *
b0 A
#1398808656
r228 *
0D
#1398808713
r229 *
1D
#1398808728
r230 *
0C
#1398808755
r231 *
0D
#1398808786
r232 *
1D
#1398808891
r233 *
1C
#1398808958
r234 *
b1001100 A
#1398808973
r235 *
0C
#1398809000
r236 *
0D
#1398809031
r237 *
1D
#1398809136
r238 *
1C
#1398809203
r239 *
b1001111 A
#1398809218
r240 *
0C
#1398809245
r241 *
0D
#1398809276
r242 *
1D
#1398809461
r243 *
1C
#1398809522
r244 *
b1000111 A
#1398809537
r245 *
0C
#1398809564
r246 *
0D
#1398809595
r247 *
1D
#1398809700
r248 *
1C
#1398809705
r249 *
b1001111 A
#1398809766
r250 *
b1001110 A
#1398809781
r251 *
0C
#1398809808
r252 *
0D
#1398809839
r253 *
1D
#1398809944
r254 *
1C
#1398809949
r255 *
b1001111 A
#1398809950
r256 *
b1000011 A
#1398810009
r257 *
b1000001 A
#1398810024
r258 *
0C
#1398810051
r259 *
0D
#1398810082
r260 *
1D
#1398810187
r261 *
1C
#1398810254
r262 *
b1001101 A
#1398810269
r263 *
0C
#1398810296
r264 *
0D
#1398810327
r265 *
1D
#1398810438
r266 *
1C
#1398810499
r267 *
b1000101 A
#1398810514
r268 *
0C
#1398810541
r269 *
0D
#1398810572
r270 *
1D
#1398810753
r271 *
1C
#1398810758
r272 *
b1111101 A
#1398810819
r273 *
b111101 A
#1398810834
r274 *
0C
#1398810859
r275 *
0D
#1398810892
r276 *
1D
#1398810997
r277 *
1C
#1398811002
r278 *
b1111111 A
#1398811063
r279 *
b1110111 A
#1398811078
r280 *
0C
#1398811103
r281 *
0D
#1398811136
r282 *
1D
#1398811247
r283 *
1C
#1398811308
r284 *
b1100101 A
#1398811323
r285 *
0C
#1398811348
r286 *
0D
#1398811381
r287 *
1D
#1398811484
r288 *
1C
#1398811553
r289 *
b1100111 A
#1398811568
r290 *
0C
#1398811593
r291 *
0D
#1398811626
r292 *
1D
#1398811737
r293 *
1C
#1398811798
r294 *
b1100001 A
#1398811813
r295 *
0C
#1398811838
r296 *
0D
#1398811871
r297 *
1D
#1398811982
r298 *
1C
#1398812043
r299 *
b0 A
#1398812056
r300 *
0C
#1398812083
r301 *
0D
#1398812116
r302 *
1D
#1398812295
r303 *
1C
#1398812362
r304 *
b1010000 A
#1398812377
r305 *
0C
#1398812404
r306 *
0D
#1398812435
r307 *
1D
#1398812540
r308 *
1C
#1398812545
r309 *
b1010001 A
#1398812606
r310 *
b1000001 A
#1398812621
r311 *
0C
#1398812648
r312 *
0D
#1398812679
r313 *
1D
#1398812784
r314 *
1C
#1398812789
r315 *
b1010101 A
#1398812850
r316 *
b1010100 A
#1398812865
r317 *
0C
#1398812892
r318 *
0D
#1398812923
r319 *
1D
#1398813028
r320 *
1C
#1398813033
r321 *
b1011100 A
#1398813094
r322 *
b1001000 A
#1398813109
r323 *
0C
#1398813134
r324 *
0D
#1398813167
r325 *
1D
#1398813272
r326 *
1C
#1398813277
r327 *
b1111101 A
#1398813338
r328 *
b111101 A
#1398813353
r329 *
0C
#1398813378
r330 *
0D
#1398813411
r331 *
1D
#1398813516
r332 *
1C
#1398813521
r333 *
b111111 A
#1398813582
r334 *
b111010 A
#1398813597
r335 *
0C
#1398813622
r336 *
0D
#1398813655
r337 *
1D
#1398813834
r338 *
1C
#1398813841
r339 *
b111111 A
#1398813900
r340 *
b101111 A
#1398813915
r341 *
0C
#1398813942
r342 *
0D
#1398813975
r343 *
1D
#1398814078
r344 *
1C
#1398814083
r345 *
b1101111 A
#1398814084
r346 *
b1101010 A
#1398814085
r347 *
b1100010 A
0D
#1398814142
r348 *
1D
#1398814157
r349 *
0C
#1398814184
r350 *
0D
#1398814215
r351 *
1D
#1398814320
r352 *
1C
#1398814327
r353 *
b1101011 A
#1398814386
r354 *
b1101001 A
#1398814401
r355 *
0C
#1398814428
r356 *
0D
#1398814459
r357 *
1D
#1398814564
r358 *
1C
#1398814569
r359 *
b1101111 A
#1398814630
r360 *
b1101110 A
#1398814645
r361 *
0C
#1398814672
r362 *
0D
#1398814703
r363 *
1D
#1398814808
r364 *
1C
#1398814813
r365 *
b1111110 A
#1398814814
r366 *
b1111010 A
#1398814873
r367 *
b111010 A
#1398814888
r368 *
0C
#1398814915
r369 *
0D
#1398814946
r370 *
1D
#1398815127
r371 *
1C
#1398815132
r372 *
b111111 A
#1398815193
r373 *
b101111 A
#1398815208
r374 *
0C
#1398815233
r375 *
0D
#1398815266
r376 *
1D
#1398815371
r377 *
1C
#1398815376
r378 *
b1111111 A
#1398815437
r379 *
b1110101 A
#1398815450
r380 *
0C
#1398815477
r381 *
0D
#1398815510
r382 *
1D
#1398815615
r383 *
1C
#1398815620
r384 *
b1110111 A
#1398815681
r385 *
b1110011 A
#1398815694
r386 *
0C
#1398815721
r387 *
0D
#1398815754
r388 *
1D
#1398815865
r389 *
1C
#1398815926
r390 *
b1110010 A
#1398815939
r391 *
0C
#1398815966
r392 *
0D
#1398815999
r393 *
1D
#1398816102
r394 *
1C
#1398816103
r395 *
b1110011 A
#1398816108
r396 *
b1111111 A
#1398816169
r397 *
b101111 A
#1398816182
r398 *
0C
#1398816209
r399 *
0D
#1398816242
r400 *
1D
#1398816347
r401 *
1C
#1398816352
r402 *
b1101111 A
#1398816353
r403 *
b1100010 A
0D
#1398816412
r404 *
1D
#1398816425
r405 *
0C
#1398816452
r406 *
0D
#1398816485
r407 *
1D
#1398816664
r408 *
1C
#1398816669
r409 *
b1101011 A
#1398816730
r410 *
b1101001 A
#1398816745
r411 *
0C
#1398816770
r412 *
0D
#1398816803
r413 *
1D
#1398816908
r414 *
1C
#1398816913
r415 *
b1101111 A
#1398816974
r416 *
b1101110 A
#1398816989
r417 *
0C
#1398817014
r418 *
0D
#1398817047
r419 *
1D
#1398817152
r420 *
1C
#1398817157
r421 *
b1111110 A
#1398817218
r422 *
b111010 A
#1398817233
r423 *
0C
#1398817258
r424 *
0D
#1398817291
r425 *
1D
#1398817396
r426 *
1C
#1398817401
r427 *
b111111 A
#1398817462
r428 *
b101111 A
#1398817477
r429 *
0C
#1398817502
r430 *
0D
#1398817535
r431 *
1D
#1398817640
r432 *
1C
#1398817645
r433 *
b1101111 A
#1398817706
r434 *
b1100101 A
#1398817721
r435 *
0C
#1398817746
r436 *
0D
#1398817779
r437 *
1D
#1398817884
r438 *
1C
#1398817889
r439 *
b1110101 A
#1398817950
r440 *
b1110100 A
#1398817965
r441 *
0C
#1398817990
r442 *
0D
#1398818023
r443 *
1D
#1398818202
r444 *
1C
#1398818209
r445 *
b1110111 A
#1398818268
r446 *
b1100011 A
#1398818283
r447 *
0C
#1398818310
r448 *
0D
#1398818343
r449 *
1D
#1398818446
r450 *
1C
#1398818451
r451 *
b1111011 A
#1398818452
r452 *
b1111010 A
#1398818511
r453 *
b111010 A
#1398818526
r454 *
0C
#1398818553
r455 *
0D
#1398818586
r456 *
1D
#1398818689
r457 *
1C
#1398818696
r458 *
b111111 A
#1398818755
r459 *
b101111 A
#1398818770
r460 *
0C
#1398818797
r461 *
0D
#1398818830
r462 *
1D
#1398818933
r463 *
1C
#1398818938
r464 *
b1111111 A
#1398818999
r465 *
b1111010 A
#1398819014
r466 *
0C
#1398819041
r467 *
0D
#1398819072
r468 *
1D
#1398819177
r469 *
1C
#1398819184
r470 *
b1111111 A
#1398819243
r471 *
b101111 A
#1398819258
r472 *
0C
#1398819285
r473 *
0D
#1398819316
r474 *
1D
#1398819497
r475 *
1C
#1398819502
r476 *
b1101111 A
#1398819563
r477 *
b1100010 A
#1398819576
r478 *
0C
#1398819603
r479 *
0D
#1398819636
r480 *
1D
#1398819741
r481 *
1C
#1398819746
r482 *
b1101011 A
#1398819807
r483 *
b1101001 A
#1398819820
r484 *
0C
#1398819847
r485 *
0D
#1398819880
r486 *
1D
#1398819985
r487 *
1C
#1398819990
r488 *
b1101111 A
#1398820051
r489 *
b1101110 A
#1398820064
r490 *
0C
#1398820091
r491 *
0D
#1398820124
r492 *
1D
#1398820229
r493 *
1C
#1398820234
r494 *
b1111110 A
#1398820295
r495 *
b111010 A
#1398820308
r496 *
0C
#1398820335
r497 *
0D
#1398820368
r498 *
1D
#1398820479
r499 *
1C
#1398820540
r500 *
b0 A
#1398820553
r501 *
0C
#1398820580
r502 *
0D
#1398820613
r503 *
1D
#1398820716
r504 *
1C
#1398820717
r505 *
b1 A
#1398820784
r506 *
b1010011 A
#1398820797
r507 *
0C
#1398820824
r508 *
0D
#1398820857
r509 *
1D
#1398821036
r510 *
1C
#1398821041
r511 *
b1011011 A
#1398821042
r512 *
b1011000 A
#1398821101
r513 *
b1001000 A
#1398821116
r514 *
0C
#1398821141
r515 *
0D
#1398821174
r516 *
1D
#1398821279
r517 *
1C
#1398821284
r518 *
b1001101 A
#1398821345
r519 *
b1000101 A
#1398821360
r520 *
0C
#1398821385
r521 *
0D
#1398821418
r522 *
1D
#1398821523
r523 *
1C
#1398821528
r524 *
b1001101 A
#1398821589
r525 *
b1001100 A
#1398821604
r526 *
0C
#1398821629
r527 *
0D
#1398821662
r528 *
1D
#1398821835
r529 *
1C
#1398821850
r530 *
0C
#1398821875
r531 *
0D
#1398821908
r532 *
1D
#1398822013
r533 *
1C
#1398822018
r534 *
b1111101 A
#1398822079
r535 *
b111101 A
#1398822094
r536 *
0C
#1398822117
r537 *
0D
#1398822152
r538 *
1D
#1398822257
r539 *
1C
#1398822262
r540 *
b111111 A
#1398822323
r541 *
b101111 A
#1398822338
r542 *
0C
#1398822363
r543 *
0D
#1398822396
r544 *
1D
#1398822575
r545 *
1C
#1398822582
r546 *
b1101111 A
#1398822583
r547 *
b1100010 A
0D
#1398822642
r548 *
1D
#1398822655
r549 *
0C
#1398822682
r550 *
0D
#1398822715
r551 *
1D
#1398822818
r552 *
1C
#1398822825
r553 *
b1101011 A
#1398822884
r554 *
b1101001 A
#1398822899
r555 *
0C
#1398822926
r556 *
0D
#1398822959
r557 *
1D
#1398823062
r558 *
1C
#1398823069
r559 *
b1101111 A
#1398823128
r560 *
b1101110 A
#1398823143
r561 *
0C
#1398823170
r562 *
0D
#1398823203
r563 *
1D
#1398823306
r564 *
1C
#1398823313
r565 *
b1101111 A
#1398823372
r566 *
b101111 A
#1398823387
r567 *
0C
#1398823412
r568 *
0D
#1398823447
r569 *
1D
#1398823550
r570 *
1C
#1398823555
r571 *
b1101111 A
#1398823556
r572 *
b1101011 A
#1398823615
r573 *
b1100011 A
#1398823630
r574 *
0C
#1398823655
r575 *
0D
#1398823688
r576 *
1D
#1398823793
r577 *
1C
#1398823860
r578 *
b1110011 A
#1398823875
r579 *
0C
#1398823900
r580 *
0D
#1398823935
r581 *
1D
#1398824114
r582 *
1C
#1398824119
r583 *
b1111011 A
#1398824180
r584 *
b1101000 A
#1398824193
r585 *
0C
#1398824220
r586 *
0D
#1398824253
r587 *
1D
#1398824364
r588 *
1C
#1398824425
r589 *
b0 A
#1398824438
r590 *
0C
#1398824465
r591 *
0D
#1398824498
r592 *
1D
#1398824603
r593 *
1C
#1398824670
r594 *
b1010100 A
#1398824683
r595 *
0C
#1398824710
r596 *
0D
#1398824743
r597 *
1D
#1398824848
r598 *
1C
#1398824853
r599 *
b1010101 A
#1398824914
r600 *
b1000101 A
#1398824927
r601 *
0C
#1398824954
r602 *
0D
#1398824987
r603 *
1D
#1398825092
r604 *
1C
#1398825097
r605 *
b1010111 A
#1398825158
r606 *
b1010010 A
#1398825171
r607 *
0C
#1398825198
r608 *
0D
#1398825231
r609 *
1D
#1398825410
r610 *
1C
#1398825417
r611 *
b1011111 A
#1398825476
r612 *
b1001101 A
#1398825489
r613 *
0C
#1398825514
r614 *
0D
#1398825549
r615 *
1D
#1398825654
r616 *
1C
#1398825661
r617 *
b1111101 A
#1398825720
r618 *
b111101 A
#1398825735
r619 *
0C
#1398825760
r620 *
0D
#1398825793
r621 *
1D
#1398825898
r622 *
1C
#1398825903
r623 *
b1111101 A
#1398825904
r624 *
b1110000 A
#1398825905
r625 *
b1010000 A
0D
#1398825962
r626 *
1D
#1398825975
r627 *
0C
#1398826002
r628 *
0D
#1398826035
r629 *
1D
#1398826140
r630 *
1C
#1398826145
r631 *
b1111000 A
#1398826206
r632 *
b111000 A
#1398826219
r633 *
0C
#1398826246
r634 *
0D
#1398826279
r635 *
1D
#1398826390
r636 *
1C
#1398826391
r637 *
b0 A
#1398826392
r638 *
0D
#1398826449
r639 *
1D
#1398826488
r640 *
0C
#1398826515
r641 *
0D
#1398826548
r642 *
1D
#1398826627
r643 *
1C
#1398826694
r644 *
b1010100 A
#1398826707
r645 *
0C
#1398826734
r646 *
0D
#1398826767
r647 *
1D
#1398826946
r648 *
1C
#1398826953
r649 *
b1011110 A
#1398827014
r650 *
b1011010 A
#1398827027
r651 *
0C
#1398827052
r652 *
0D
#1398827087
r653 *
1D
#1398827190
r654 *
1C
#1398827191
r655 *
b1111011 A
#1398827196
r656 *
b1111111 A
#1398827257
r657 *
b111101 A
#1398827270
r658 *
0C
#1398827295
r659 *
0D
#1398827330
r660 *
1D
#1398827433
r661 *
1C
#1398827440
r662 *
b1111101 A
#1398827499
r663 *
b1001101 A
#1398827538
r664 *
0C
#1398827565
r665 *
0D
#1398827598
r666 *
1D
#1398827685
r667 *
1C
#1398827744
r668 *
b1000101 A
#1398827759
r669 *
0C
#1398827784
r670 *
0D
#1398827819
r671 *
1D
#1398827922
r672 *
1C
#1398827929
r673 *
b1011111 A
#1398827988
r674 *
b1011010 A
#1398828003
r675 *
0C
#1398828028
r676 *
0D
#1398828063
r677 *
1D
#1398828166
r678 *
1C
#1398828167
r679 *
b1111011 A
#1398828172
r680 *
b1111111 A
#1398828231
r681 *
b101101 A
#1398828246
r682 *
0C
#1398828271
r683 *
0D
#1398828306
r684 *
1D
#1398828485
r685 *
1C
#1398828490
r686 *
b111101 A
#1398828551
r687 *
b110001 A
#1398828564
r688 *
0C
#1398828591
r689 *
0D
#1398828624
r690 *
1D
#1398828729
r691 *
1C
#1398828734
r692 *
b1111101 A
#1398828795
r693 *
b1001101 A
#1398828808
r694 *
0C
#1398828835
r695 *
0D
#1398828868
r696 *
1D
#1398828979
r697 *
1C
#1398829040
r698 *
b1000101 A
#1398829053
r699 *
0C
#1398829080
r700 *
0D
#1398829113
r701 *
1D
#1398829218
r702 *
1C
#1398829223
r703 *
b1010111 A
#1398829284
r704 *
b1010011 A
#1398829297
r705 *
0C
#1398829324
r706 *
0D
#1398829357
r707 *
1D
#1398829468
r708 *
1C
#1398829529
r709 *
b0 A
#1398829542
r710 *
0C
#1398829569
r711 *
0D
#1398829602
r712 *
1D
#1398829781
r713 *
1C
#1398829848
r714 *
b110010 A
#1398829861
r715 *
0C
#1398829888
r716 *
0D
#1398829921
r717 *
1D
#1398830026
r718 *
1C
#1398830093
r719 *
b111110 A
#1398830106
r720 *
0C
#1398830133
r721 *
0D
#1398830166
r722 *
1D
#1398830277
r723 *
1C
#1398830338
r724 *
b100110 A
#1398830351
r725 *
0C
#1398830378
r726 *
0D
#1398830411
r727 *
1D
#1398830516
r728 *
1C
#1398830521
r729 *
b110111 A
#1398830582
r730 *
b110001 A
#1398830595
r731 *
0C
#1398830622
r732 *
0D
#1398830655
r733 *
1D
#1398830766
r734 *
1C
#1398830767
r735 *
b0 A
#1398830768
r736 *
0D
#1398830825
r737 *
1D
#1398830838
r738 *
0C
#1398830865
r739 *
0D
#1398830898
r740 *
1D
#1398831003
r741 *
1C
#1398831070
r742 *
b1001000 A
#1398831083
r743 *
0C
#1398831110
r744 *
0D
#1398831143
r745 *
1D
#1398831322
r746 *
1C
#1398831323
r747 *
b1001011 A
#1398831390
r748 *
b1001111 A
#1398831403
r749 *
0C
#1398831428
r750 *
0D
#1398831463
r751 *
1D
#1398831574
r752 *
1C
#1398831635
r753 *
b1001101 A
#1398831648
r754 *
0C
#1398831673
r755 *
0D
#1398831708
r756 *
1D
#1398831819
r757 *
1C
#1398831880
r758 *
b1000101 A
#1398831893
r759 *
0C
#1398831918
r760 *
0D
#1398831953
r761 *
1D
#1398832056
r762 *
1C
#1398832063
r763 *
b1111101 A
#1398832124
r764 *
b111101 A
#1398832137
r765 *
0C
#1398832162
r766 *
0D
#1398832197
r767 *
1D
#1398832300
r768 *
1C
#1398832307
r769 *
b111111 A
#1398832366
r770 *
b101111 A
#1398832381
r771 *
0C
#1398832406
r772 *
0D
#1398832441
r773 *
1D
#1398832552
r774 *
1C
#1398832553
r775 *
b0 A
0D
#1398832610
r776 *
1D
#1398832625
r777 *
0C
#1398832650
r778 *
0D
#1398832685
r779 *
1D
#1398832864
r780 *
1C
#1398832931
r781 *
b1010000 A
#1398832968
r782 *
0C
#1398832995
r783 *
0D
#1398833028
r784 *
1D
#1398833109
r785 *
1C
#1398833114
r786 *
b1010001 A
#1398833175
r787 *
b1000001 A
#1398833212
r788 *
0C
#1398833239
r789 *
0D
#1398833272
r790 *
1D
#1398833353
r791 *
1C
#1398833358
r792 *
b1010101 A
#1398833419
r793 *
b1010100 A
#1398833456
r794 *
0C
#1398833483
r795 *
0D
#1398833516
r796 *
1D
#1398833597
r797 *
1C
#1398833602
r798 *
b1011100 A
#1398833663
r799 *
b1001000 A
#1398833700
r800 *
0C
#1398833727
r801 *
0D
#1398833760
r802 *
1D
#1398833841
r803 *
1C
#1398833846
r804 *
b1111101 A
#1398833907
r805 *
b111101 A
#1398833944
r806 *
0C
#1398833971
r807 *
0D
#1398834004
r808 *
1D
#1398834159
r809 *
1C
#1398834164
r810 *
b111111 A
#1398834225
r811 *
b111010 A
#1398834264
r812 *
0C
#1398834289
r813 *
0D
#1398834324
r814 *
1D
#1398834403
r815 *
1C
#1398834410
r816 *
b111111 A
#1398834469
r817 *
b101111 A
#1398834508
r818 *
0C
#1398834533
r819 *
0D
#1398834568
r820 *
1D
#1398834647
r821 *
1C
#1398834652
r822 *
b1101111 A
#1398834713
r823 *
b1100010 A
#1398834752
r824 *
0C
#1398834777
r825 *
0D
#1398834812
r826 *
1D
#1398834891
r827 *
1C
#1398834896
r828 *
b1101011 A
#1398834957
r829 *
b1101001 A
#1398834996
r830 *
0C
#1398835021
r831 *
0D
#1398835056
r832 *
1D
#1398835135
r833 *
1C
#1398835140
r834 *
b1101111 A
#1398835201
r835 *
b1101110 A
#1398835240
r836 *
0C
#1398835265
r837 *
0D
#1398835300
r838 *
1D
#1398835379
r839 *
1C
#1398835384
r840 *
b1111110 A
#1398835445
r841 *
b111010 A
#1398835484
r842 *
0C
#1398835509
r843 *
0D
#1398835544
r844 *
1D
#1398835697
r845 *
1C
#1398835698
r846 *
b111011 A
#1398835703
r847 *
b111111 A
#1398835764
r848 *
b101111 A
#1398835801
r849 *
0C
#1398835828
r850 *
0D
#1398835861
r851 *
1D
#1398835942
r852 *
1C
#1398835947
r853 *
b1111111 A
#1398836008
r854 *
b1110101 A
#1398836045
r855 *
0C
#1398836072
r856 *
0D
#1398836105
r857 *
1D
#1398836184
r858 *
1C
#1398836191
r859 *
b1110111 A
#1398836252
r860 *
b1110011 A
#1398836289
r861 *
0C
#1398836316
r862 *
0D
#1398836349
r863 *
1D
#1398836436
r864 *
1C
#1398836497
r865 *
b1110010 A
#1398836534
r866 *
0C
#1398836561
r867 *
0D
#1398836594
r868 *
1D
#1398836673
r869 *
1C
#1398836674
r870 *
b1111011 A
#1398836679
r871 *
b1111111 A
#1398836740
r872 *
b101111 A
#1398836777
r873 *
0C
#1398836804
r874 *
0D
#1398836837
r875 *
1D
#1398836916
r876 *
1C
#1398836923
r877 *
b1101111 A
#1398836924
r878 *
b1100010 A
0D
#1398836981
r879 *
1D
#1398837020
r880 *
0C
#1398837047
r881 *
0D
#1398837080
r882 *
1D
#1398837235
r883 *
1C
#1398837240
r884 *
b1101011 A
#1398837301
r885 *
b1101001 A
#1398837338
r886 *
0C
#1398837365
r887 *
0D
#1398837400
r888 *
1D
#1398837479
r889 *
1C
#1398837484
r890 *
b1101111 A
#1398837545
r891 *
b1101110 A
#1398837582
r892 *
0C
#1398837609
r893 *
0D
#1398837642
r894 *
1D
#1398837723
r895 *
1C
#1398837728
r896 *
b1111110 A
#1398837789
r897 *
b111010 A
#1398837826
r898 *
0C
#1398837853
r899 *
0D
#1398837886
r900 *
1D
#1398837967
r901 *
1C
#1398837972
r902 *
b111111 A
#1398838033
r903 *
b101111 A
#1398838070
r904 *
0C
#1398838097
r905 *
0D
#1398838130
r906 *
1D
#1398838211
r907 *
1C
#1398838216
r908 *
b1101111 A
#1398838277
r909 *
b1100101 A
#1398838314
r910 *
0C
#1398838341
r911 *
0D
#1398838374
r912 *
1D
#1398838455
r913 *
1C
#1398838460
r914 *
b1110101 A
#1398838521
r915 *
b1110100 A
#1398838558
r916 *
0C
#1398838585
r917 *
0D
#1398838618
r918 *
1D
#1398838773
r919 *
1C
#1398838778
r920 *
b1110111 A
#1398838779
r921 *
b1110011 A
#1398838838
r922 *
b1100011 A
#1398838877
r923 *
0C
#1398838902
r924 *
0D
#1398838937
r925 *
1D
#1398839022
r926 *
1C
#1398839023
r927 *
b1100000 A
#1398839082
r928 *
b0 A
#1398839121
r929 *
0C
#1398839146
r930 *
0D
#1398839181
r931 *
1D
#1398839260
r932 *
1C
#1398839327
r933 *
b1010100 A
#1398839364
r934 *
0C
#1398839391
r935 *
0D
#1398839426
r936 *
1D
#1398839505
r937 *
1C
#1398839510
r938 *
b1010101 A
#1398839571
r939 *
b1000101 A
#1398839608
r940 *
0C
#1398839635
r941 *
0D
#1398839670
r942 *
1D
#1398839749
r943 *
1C
#1398839754
r944 *
b1010111 A
#1398839815
r945 *
b1010010 A
#1398839852
r946 *
0C
#1398839879
r947 *
0D
#1398839914
r948 *
1D
#1398840067
r949 *
1C
#1398840068
r950 *
b1010011 A
#1398840073
r951 *
b1011111 A
#1398840134
r952 *
b1001101 A
#1398840171
r953 *
0C
#1398840198
r954 *
0D
#1398840231
r955 *
1D
#1398840312
r956 *
1C
#1398840317
r957 *
b1111101 A
#1398840378
r958 *
b111101 A
#1398840415
r959 *
0C
#1398840440
r960 *
0D
#1398840475
r961 *
1D
#1398840556
r962 *
1C
#1398840561
r963 *
b1111101 A
#1398840562
r964 *
b1010000 A
0D
#1398840621
r965 *
1D
#1398840658
r966 *
0C
#1398840685
r967 *
0D
#1398840718
r968 *
1D
#1398840797
r969 *
1C
#1398840804
r970 *
b1111000 A
#1398840865
r971 *
b111000 A
#1398840902
r972 *
0C
#1398840927
r973 *
0D
#1398840962
r974 *
1D
#1398841049
r975 *
1C
#1398841110
r976 *
b0 A
