SignalCaptures/P8000_WDC_CMD_21_InvalidBlock_Error_05.vcd
$comment Created in LWLA Logic Analyzer $end
$date 02.01.2016 00:22:03 $end
$timescale 1 ns $end
$scope module LWLA  $end
$var real 1 * sample $end
$var reg 8 A Data[7:0] $end
$var reg 3 B Status[2:0] $end
$var reg 1 C /RDY $end
$var reg 1 D /ASTB $end
$var reg 1 E /TR $end
$var reg 1 F /RST $end
$var reg 1 G /TE $end
$upscope $end
$enddefinitions $end
#0
r0 *
b0 A
b1 B
1C
1D
1E
1F
0G
#1
r1 *
#2
r2 *
#3
r3 *
#4
r4 *
#5
r5 *
#6
r6 *
#7
r7 *
#2087688160
r8 *
#2087722081
r9 *
1G
#2087722754
r10 *
b100001 A
#2087722931
r11 *
0C
#2087723196
r12 *
0D
#2087723493
r13 *
1D
#2087725614
r14 *
1C
#2087726223
r15 *
b1 A
#2087726392
r16 *
0C
#2087726657
r17 *
0D
#2087726962
r18 *
1D
#2087728259
r19 *
1C
#2087728932
r20 *
b10001001 A
#2087729109
r21 *
0C
#2087729374
r22 *
0D
#2087729679
r23 *
1D
#2087730976
r24 *
1C
#2087731033
r25 *
b11101111 A
#2087731034
r26 *
b11100111 A
#2087731635
r27 *
b1100111 A
#2087731812
r28 *
0C
#2087732077
r29 *
0D
#2087732374
r30 *
1D
#2087733743
r31 *
1C
#2087734352
r32 *
b1000101 A
#2087734521
r33 *
0C
#2087734786
r34 *
0D
#2087735091
r35 *
1D
#2087736388
r36 *
1C
#2087736445
r37 *
b1100111 A
#2087736446
r38 *
b1100011 A
#2087737047
r39 *
b100011 A
#2087737224
r40 *
0C
#2087737489
r41 *
0D
#2087737794
r42 *
1D
#2087740907
r43 *
1C
#2087741516
r44 *
b0 A
#2087741685
r45 *
0C
#2087741950
r46 *
0D
#2087742255
r47 *
1D
#2087743552
r48 *
1C
#2087744225
r49 *
b10 A
#2087744402
r50 *
0C
#2087744667
r51 *
0D
#2087744972
r52 *
1D
#2087746333
r53 *
1C
#2087746942
r54 *
b0 A
#2087747119
r55 *
0C
#2087747384
r56 *
0D
#2087747681
r57 *
1D
#2087768786
r58 *
1C
#2087768787
r59 *
0E
#2087768788
r60 *
b0 B
#2088296621
r61 *
1E
#2088296622
r62 *
b111 B
#2088331823
r63 *
0E
#2088331856
r64 *
0G
#2088335241
r65 *
b101101 A
#2088335722
r66 *
0C
#2088335739
r67 *
b100 A
0D
#2088335788
r68 *
b101 A
1D
#2088336053
r69 *
0D
#2088336470
r70 *
1D
#2088342703
r71 *
1C
#2088343176
r72 *
0C
#2088343177
r73 *
b1 A
#2088343178
r74 *
b10000001 A
0D
#2088343235
r75 *
1D
#2088343508
r76 *
0D
#2088343925
r77 *
1D
#2088364982
r78 *
1C
#2088364991
r79 *
b0 B
#2088365000
r80 *
0D
#2088365001
r81 *
1D
#2088383410
r82 *
1E
#2088383411
r83 *
b10000000 A
#2088383572
r84 *
b10000001 A
#2088383573
r85 *
b10000000 A
#2088383622
r86 *
b10000001 A
#2088383639
r87 *
b10000000 A
#2088383656
r88 *
b10000001 A
#2088383657
r89 *
b10000000 A
#2088383658
r90 *
b10000001 A
#2088383659
r91 *
b10000000 A
#2088383660
r92 *
b10000001 A
#2088383669
r93 *
b10000000 A
#2088383670
r94 *
b10000001 A
#2088383671
r95 *
b10000000 A
#2088383680
r96 *
b10000001 A
#2088383681
r97 *
b10000000 A
#2088383682
r98 *
b10000001 A
#2088383683
r99 *
b10000000 A
#2088383684
r100 *
b10000001 A
#2088383685
r101 *
b10000000 A
#2088383694
r102 *
b10000001 A
#2088383719
r103 *
b10000000 A
#2088383736
r104 *
b10000001 A
#2088383761
r105 *
b10000000 A
#2088383762
r106 *
b10000001 A
#2088383763
r107 *
b10000000 A
#2088383764
r108 *
b10000001 A
#2088383773
r109 *
b10000000 A
#2088383774
r110 *
b10000001 A
#2088383815
r111 *
b10000000 A
#2088383816
r112 *
b10000001 A
#2088383961
r113 *
b10000000 A
#2088383962
r114 *
b10000001 A
#2088385187
r115 *
b10000000 A
#2088385188
r116 *
b0 A
#2088385341
r117 *
b10000000 A
#2088385342
r118 *
b0 A
#2088385359
r119 *
b10000000 A
#2088385360
r120 *
b0 A
#2088385393
r121 *
b10000000 A
#2088385394
r122 *
b0 A
#2088385411
r123 *
b10000000 A
#2088385412
r124 *
b0 A
#2088385429
r125 *
b10000000 A
#2088385430
r126 *
b0 A
#2088385431
r127 *
b10000000 A
#2088385432
r128 *
b0 A
#2088385473
r129 *
b10000000 A
#2088385474
r130 *
b0 A
#2088385491
r131 *
b10000000 A
#2088385500
r132 *
b0 A
#2088385501
r133 *
b10000000 A
#2088385502
r134 *
b0 A
#2088385511
r135 *
b10000000 A
#2088385520
r136 *
b0 A
#2088385529
r137 *
b10000000 A
#2088385530
r138 *
b0 A
#2088385547
r139 *
b10000000 A
#2088385548
r140 *
b0 A
#2088385565
r141 *
b10000000 A
#2088385566
r142 *
b0 A
#2088385567
r143 *
b10000000 A
#2088385568
r144 *
b0 A
#2088385585
r145 *
b10000000 A
#2088385610
r146 *
b0 A
#2088385619
r147 *
b10000000 A
#2088385636
r148 *
b0 A
#2088385637
r149 *
b10000000 A
#2088385646
r150 *
b0 A
#2088385647
r151 *
b10000000 A
#2088385688
r152 *
b0 A
#2088385697
r153 *
b10000000 A
#2088385762
r154 *
b0 A
#2088385771
r155 *
b10000000 A
#2088573628
r156 *
b0 A
#3637357701
r157 *
b1 B
#3637357702
r158 *
#3637357703
r159 *
#3637357704
r160 *
#3637357705
r161 *
#3637357706
r162 *
