SignalCaptures/P8000_WDC_Bootup.vcd
$comment Created in LWLA Logic Analyzer $end
$date 02.01.2016 22:08:09 $end
$timescale 10 ns $end
$scope module LWLA  $end
$var real 1 * sample $end
$var reg 8 A Data[7:0] $end
$var reg 3 B Status[2:0] $end
$var reg 1 C /RDY $end
$var reg 1 D /ASTB $end
$var reg 1 E /TR $end
$var reg 1 F /RST $end
$var reg 1 G /TE $end
$upscope $end
$enddefinitions $end
#0
r0 *
b0 A
b0 B
1C
1D
1E
0F
0G
#1
r1 *
#2
r2 *
#3
r3 *
#4
r4 *
#5
r5 *
#6
r6 *
#237457231
r7 *
#237457234
r8 *
1G
#237457681
r9 *
1F
#237457682
r10 *
b10 A
#237457683
r11 *
b0 A
#237457688
r12 *
b10 A
#237457697
r13 *
b0 A
#237457730
r14 *
b10 A
#237457731
r15 *
b110 A
#237457732
r16 *
b10 A
#237457733
r17 *
b10010 A
#237457734
r18 *
b10 A
#237457735
r19 *
b11010 A
#237457736
r20 *
b10 A
#237457737
r21 *
b11010 A
#237457738
r22 *
b10 A
#237457739
r23 *
b11010 A
#237457748
r24 *
b111111 A
#237457751
r25 *
b1111111 A
#237457752
r26 *
b1111010 A
#237457753
r27 *
b10 A
#237457754
r28 *
b1111010 A
#237459343
r29 *
b11111111 A
#237459344
r30 *
b0 A
#237459345
r31 *
0D
#501491450
r32 *
1D
#501493861
r33 *
b1 B
#501493928
r34 *
b100001 A
#501493951
r35 *
0C
#501493976
r36 *
0D
#501494001
r37 *
1D
#501494138
r38 *
1C
#501494199
r39 *
b0 A
#501494220
r40 *
0C
#501494247
r41 *
0D
#501494272
r42 *
1D
#501494545
r43 *
1C
#501494566
r44 *
0C
#501494593
r45 *
0D
#501494618
r46 *
1D
#501494815
r47 *
1C
#501494838
r48 *
0C
#501494863
r49 *
0D
#501494888
r50 *
1D
#501495087
r51 *
1C
#501495134
r52 *
0C
#501495159
r53 *
0D
#501495184
r54 *
1D
#501495357
r55 *
1C
#501495380
r56 *
0C
#501495405
r57 *
0D
#501495430
r58 *
1D
#501495729
r59 *
1C
#501495750
r60 *
0C
#501495777
r61 *
0D
#501495802
r62 *
1D
#501496005
r63 *
1C
#501496074
r64 *
b10 A
#501496095
r65 *
0C
#501496122
r66 *
0D
#501496147
r67 *
1D
#501496282
r68 *
1C
#501496343
r69 *
b0 A
#501496364
r70 *
0C
#501496391
r71 *
0D
#501496416
r72 *
1D
#501498757
r73 *
1C
#503430704
r74 *
b0 B
#503430705
r75 *
b11 B
#503436666
r76 *
0E
#503436667
r77 *
0G
#503437006
r78 *
b10000001 A
#503437037
r79 *
0C
#503437038
r80 *
b0 A
#503437039
r81 *
b100000 A
#503437042
r82 *
b100001 A
#503437069
r83 *
0D
#503437102
r84 *
1D
#503438275
r85 *
1C
#503438306
r86 *
0C
#503438307
r87 *
b10 A
0D
#503438312
r88 *
1D
#503438337
r89 *
0D
#503438370
r90 *
1D
#503438519
r91 *
1C
#503438550
r92 *
0C
#503438551
r93 *
b1010000 A
#503438556
r94 *
b1011000 A
#503438581
r95 *
0D
#503438614
r96 *
1D
#503438763
r97 *
1C
#503438794
r98 *
0C
#503438801
r99 *
b0 A
#503438826
r100 *
0D
#503438859
r101 *
1D
#503439008
r102 *
1C
#503439039
r103 *
0C
#503439046
r104 *
b1111101 A
#503439071
r105 *
0D
#503439104
r106 *
1D
#503439253
r107 *
1C
#503439284
r108 *
0C
#503439285
r109 *
b101010 A
0D
#503439290
r110 *
1D
#503439315
r111 *
0D
#503439348
r112 *
1D
#503439571
r113 *
1C
#503439602
r114 *
0C
#503439603
r115 *
b11000010 A
0D
#503439608
r116 *
1D
#503439635
r117 *
0D
#503439668
r118 *
1D
#503439815
r119 *
1C
#503439846
r120 *
0C
#503439853
r121 *
b11111000 A
#503439880
r122 *
0D
#503439913
r123 *
1D
#503440060
r124 *
1C
#503440115
r125 *
0C
#503440118
r126 *
b110000 A
#503440121
r127 *
b110100 A
#503440148
r128 *
0D
#503440181
r129 *
1D
#503440304
r130 *
1C
#503440335
r131 *
0C
#503440336
r132 *
b1 A
0D
#503440341
r133 *
1D
#503440368
r134 *
0D
#503440401
r135 *
1D
#503440548
r136 *
1C
#503440579
r137 *
0C
#503440586
r138 *
b0 A
#503440613
r139 *
0D
#503440646
r140 *
1D
#503440793
r141 *
1C
#503440824
r142 *
0C
#503440831
r143 *
b1100 A
#503440858
r144 *
0D
#503440889
r145 *
1D
#503441112
r146 *
1C
#503441143
r147 *
0C
#503441144
r148 *
b0 A
0D
#503441149
r149 *
b10100001 A
1D
#503441176
r150 *
0D
#503441209
r151 *
1D
#503441356
r152 *
1C
#503441387
r153 *
0C
#503441388
r154 *
b100101 A
#503441393
r155 *
b101111 A
#503441420
r156 *
0D
#503441453
r157 *
1D
#503441600
r158 *
1C
#503441657
r159 *
0C
#503441664
r160 *
b100001 A
#503441689
r161 *
0D
#503441722
r162 *
1D
#503441845
r163 *
1C
#503441876
r164 *
0C
#503441883
r165 *
b1110 A
#503441910
r166 *
0D
#503441943
r167 *
1D
#503442090
r168 *
1C
#503442121
r169 *
0C
#503442122
r170 *
b10 A
0D
#503442127
r171 *
1D
#503442154
r172 *
0D
#503442187
r173 *
1D
#503442334
r174 *
1C
#503442365
r175 *
0C
#503442372
r176 *
b0 A
#503442399
r177 *
0D
#503442432
r178 *
1D
#503442655
r179 *
1C
#503442686
r180 *
0C
#503442693
r181 *
b10111010 A
#503442718
r182 *
0D
#503442751
r183 *
1D
#503442900
r184 *
1C
#503442931
r185 *
0C
#503442932
r186 *
b10001 A
0D
#503442937
r187 *
1D
#503442962
r188 *
0D
#503442995
r189 *
1D
#503443144
r190 *
1C
#503443175
r191 *
0C
#503443180
r192 *
b1110 A
#503443207
r193 *
0D
#503443240
r194 *
1D
#503443389
r195 *
1C
#503443418
r196 *
0C
#503443419
r197 *
b0 A
#503443424
r198 *
b100000 A
#503443451
r199 *
0D
#503443484
r200 *
1D
#503443633
r201 *
1C
#503443662
r202 *
0C
#503443663
r203 *
b0 A
#503443668
r204 *
b11110 A
#503443695
r205 *
0D
#503443728
r206 *
1D
#503443951
r207 *
1C
#503443982
r208 *
0C
#503443989
r209 *
b11111000 A
#503444014
r210 *
0D
#503444049
r211 *
1D
#503444196
r212 *
1C
#503444227
r213 *
0C
#503444228
r214 *
b10010001 A
0D
#503444233
r215 *
1D
#503444260
r216 *
0D
#503444293
r217 *
1D
#503444440
r218 *
1C
#503444471
r219 *
0C
#503444478
r220 *
b11110110 A
#503444503
r221 *
0D
#503444538
r222 *
1D
#503444685
r223 *
1C
#503444716
r224 *
0C
#503444717
r225 *
b10010001 A
0D
#503444722
r226 *
1D
#503444747
r227 *
0D
#503444782
r228 *
1D
#503444929
r229 *
1C
#503444960
r230 *
0C
#503444967
r231 *
b11110100 A
#503444992
r232 *
0D
#503445027
r233 *
1D
#503445174
r234 *
1C
#503445205
r235 *
0C
#503445212
r236 *
b10001101 A
#503445237
r237 *
0D
#503445270
r238 *
1D
#503445493
r239 *
1C
#503445524
r240 *
0C
#503445525
r241 *
b1000100 A
0D
#503445530
r242 *
1D
#503445557
r243 *
0D
#503445590
r244 *
1D
#503445737
r245 *
1C
#503445768
r246 *
0C
#503445775
r247 *
b11101110 A
#503445802
r248 *
0D
#503445835
r249 *
1D
#503445982
r250 *
1C
#503446013
r251 *
0C
#503446016
r252 *
b10 A
0D
#503446019
r253 *
1D
#503446046
r254 *
0D
#503446079
r255 *
1D
#503446226
r256 *
1C
#503446257
r257 *
0C
#503446264
r258 *
b110100 A
#503446291
r259 *
0D
#503446324
r260 *
1D
#503446471
r261 *
1C
#503446502
r262 *
0C
#503446509
r263 *
b1110 A
#503446536
r264 *
0D
#503446569
r265 *
1D
#503446716
r266 *
1C
#503446747
r267 *
0C
#503446748
r268 *
b1 A
0D
#503446753
r269 *
1D
#503446780
r270 *
0D
#503446813
r271 *
1D
#503447036
r272 *
1C
#503447067
r273 *
0C
#503447072
r274 *
b10010111 A
#503447099
r275 *
0D
#503447132
r276 *
1D
#503447281
r277 *
1C
#503447310
r278 *
0C
#503447311
r279 *
b10100 A
#503447316
r280 *
b110100 A
#503447343
r281 *
0D
#503447376
r282 *
1D
#503447525
r283 *
1C
#503447554
r284 *
0C
#503447555
r285 *
b0 A
0D
#503447560
r286 *
b1000 A
1D
#503447587
r287 *
0D
#503447620
r288 *
1D
#503447769
r289 *
1C
#503447798
r290 *
0C
#503447799
r291 *
b0 A
#503447804
r292 *
b1 A
#503447831
r293 *
0D
#503447864
r294 *
1D
#503448013
r295 *
1C
#503448042
r296 *
0C
#503448043
r297 *
b0 A
#503448048
r298 *
b10010000 A
#503448075
r299 *
0D
#503448108
r300 *
1D
#503448331
r301 *
1C
#503448388
r302 *
0C
#503448393
r303 *
b11011111 A
#503448420
r304 *
0D
#503448453
r305 *
1D
#503448576
r306 *
1C
#503448607
r307 *
0C
#503448614
r308 *
b1101100 A
#503448639
r309 *
0D
#503448674
r310 *
1D
#503448821
r311 *
1C
#503448852
r312 *
0C
#503448859
r313 *
b100001 A
#503448884
r314 *
0D
#503448919
r315 *
1D
#503449066
r316 *
1C
#503449097
r317 *
0C
#503449098
r318 *
b1010 A
0D
#503449103
r319 *
1D
#503449128
r320 *
0D
#503449163
r321 *
1D
#503449310
r322 *
1C
#503449365
r323 *
0C
#503449372
r324 *
b11111110 A
#503449399
r325 *
0D
#503449432
r326 *
1D
#503449555
r327 *
1C
#503449586
r328 *
0C
#503449587
r329 *
b101000 A
0D
#503449592
r330 *
1D
#503449617
r331 *
0D
#503449652
r332 *
1D
#503449873
r333 *
1C
#503449904
r334 *
0C
#503449905
r335 *
b10100001 A
0D
#503449910
r336 *
1D
#503449937
r337 *
0D
#503449970
r338 *
1D
#503450117
r339 *
1C
#503450148
r340 *
0C
#503450155
r341 *
b10101011 A
#503450182
r342 *
0D
#503450215
r343 *
1D
#503450362
r344 *
1C
#503450393
r345 *
0C
#503450400
r346 *
b10100001 A
#503450427
r347 *
0D
#503450460
r348 *
1D
#503450607
r349 *
1C
#503450638
r350 *
0C
#503450645
r351 *
b10111100 A
#503450672
r352 *
0D
#503450705
r353 *
1D
#503450852
r354 *
1C
#503450883
r355 *
0C
#503450884
r356 *
b11011111 A
0D
#503450889
r357 *
1D
#503450916
r358 *
0D
#503450949
r359 *
1D
#503451096
r360 *
1C
#503451127
r361 *
0C
#503451134
r362 *
b1101001 A
#503451159
r363 *
0D
#503451194
r364 *
1D
#503451417
r365 *
1C
#503451446
r366 *
0C
#503451447
r367 *
b1000 A
#503451448
r368 *
b1010 A
0D
#503451451
r369 *
1D
#503451478
r370 *
0D
#503451511
r371 *
1D
#503451660
r372 *
1C
#503451689
r373 *
0C
#503451696
r374 *
b1000 A
#503451723
r375 *
0D
#503451756
r376 *
1D
#503451905
r377 *
1C
#503451934
r378 *
0C
#503451941
r379 *
b1010 A
#503451968
r380 *
0D
#503452001
r381 *
1D
#503452150
r382 *
1C
#503452187
r383 *
0C
#503452214
r384 *
0D
#503452247
r385 *
1D
#503452396
r386 *
1C
#503452425
r387 *
0C
#503452432
r388 *
b11100110 A
#503452459
r389 *
0D
#503452492
r390 *
1D
#503452641
r391 *
1C
#503452670
r392 *
0C
#503452671
r393 *
b1010 A
0D
#503452676
r394 *
1D
#503452703
r395 *
0D
#503452736
r396 *
1D
#503452959
r397 *
1C
#503452998
r398 *
0C
#503453023
r399 *
0D
#503453058
r400 *
1D
#503453205
r401 *
1C
#503453236
r402 *
0C
#503453243
r403 *
b1000 A
#503453268
r404 *
0D
#503453303
r405 *
1D
#503453450
r406 *
1C
#503453481
r407 *
0C
#503453486
r408 *
b101111 A
#503453513
r409 *
0D
#503453548
r410 *
1D
#503453695
r411 *
1C
#503453732
r412 *
0C
#503453759
r413 *
0D
#503453794
r414 *
1D
#503453941
r415 *
1C
#503453970
r416 *
0C
#503453971
r417 *
b100110 A
#503453976
r418 *
b11100110 A
#503454003
r419 *
0D
#503454038
r420 *
1D
#503454259
r421 *
1C
#503454290
r422 *
0C
#503454293
r423 *
b11 A
0D
#503454296
r424 *
1D
#503454323
r425 *
0D
#503454356
r426 *
1D
#503454503
r427 *
1C
#503454534
r428 *
0C
#503454541
r429 *
b101110 A
#503454568
r430 *
0D
#503454601
r431 *
1D
#503454748
r432 *
1C
#503454779
r433 *
0C
#503454780
r434 *
b10001000 A
#503454785
r435 *
b11001000 A
#503454810
r436 *
0D
#503454845
r437 *
1D
#503454992
r438 *
1C
#503455023
r439 *
0C
#503455030
r440 *
b10101001 A
#503455055
r441 *
0D
#503455090
r442 *
1D
#503455237
r443 *
1C
#503455268
r444 *
0C
#503455269
r445 *
b11000000 A
0D
#503455274
r446 *
1D
#503455299
r447 *
0D
#503455334
r448 *
1D
#503455481
r449 *
1C
#503455512
r450 *
0C
#503455519
r451 *
b11101000 A
#503455544
r452 *
0D
#503455579
r453 *
1D
#503455802
r454 *
1C
#503455831
r455 *
0C
#503455832
r456 *
b11110110 A
0D
#503455837
r457 *
1D
#503455864
r458 *
0D
#503455897
r459 *
1D
#503456046
r460 *
1C
#503456075
r461 *
0C
#503456076
r462 *
b10000011 A
0D
#503456077
r463 *
b10001011 A
#503456080
r464 *
1D
#503456107
r465 *
0D
#503456140
r466 *
1D
#503456289
r467 *
1C
#503456318
r468 *
0C
#503456325
r469 *
b10111100 A
#503456352
r470 *
0D
#503456385
r471 *
1D
#503456534
r472 *
1C
#503456563
r473 *
0C
#503456564
r474 *
b11100110 A
0D
#503456569
r475 *
1D
#503456596
r476 *
0D
#503456629
r477 *
1D
#503456778
r478 *
1C
#503456807
r479 *
0C
#503456814
r480 *
b11110100 A
#503456841
r481 *
0D
#503456874
r482 *
1D
#503457023
r483 *
1C
#503457052
r484 *
0C
#503457059
r485 *
b11011111 A
#503457086
r486 *
0D
#503457119
r487 *
1D
#503457342
r488 *
1C
#503457371
r489 *
0C
#503457372
r490 *
b10000011 A
#503457373
r491 *
0D
#503457376
r492 *
1D
#503457403
r493 *
0D
#503457438
r494 *
1D
#503457585
r495 *
1C
#503457614
r496 *
0C
#503457615
r497 *
b10000000 A
#503457620
r498 *
b11101000 A
#503457647
r499 *
0D
#503457682
r500 *
1D
#503457829
r501 *
1C
#503457858
r502 *
0C
#503457859
r503 *
b11100000 A
#503457864
r504 *
b11110001 A
#503457891
r505 *
0D
#503457926
r506 *
1D
#503458073
r507 *
1C
#503458102
r508 *
0C
#503458103
r509 *
b11010001 A
#503458108
r510 *
b11011111 A
#503458135
r511 *
0D
#503458170
r512 *
1D
#503458317
r513 *
1C
#503458346
r514 *
0C
#503458347
r515 *
b10000101 A
#503458348
r516 *
0D
#503458351
r517 *
1D
#503458378
r518 *
0D
#503458413
r519 *
1D
#503458636
r520 *
1C
#503458665
r521 *
0C
#503458672
r522 *
b1100 A
#503458697
r523 *
0D
#503458732
r524 *
1D
#503458881
r525 *
1C
#503458910
r526 *
0C
#503458917
r527 *
b10111000 A
#503458942
r528 *
0D
#503458977
r529 *
1D
#503459124
r530 *
1C
#503459155
r531 *
0C
#503459162
r532 *
b10111101 A
#503459187
r533 *
0D
#503459222
r534 *
1D
#503459369
r535 *
1C
#503459400
r536 *
0C
#503459401
r537 *
b10110010 A
0D
#503459406
r538 *
1D
#503459431
r539 *
0D
#503459466
r540 *
1D
#503459613
r541 *
1C
#503459644
r542 *
0C
#503459651
r543 *
b11011111 A
#503459676
r544 *
0D
#503459711
r545 *
1D
#503459858
r546 *
1C
#503459889
r547 *
0C
#503459890
r548 *
b11000001 A
0D
#503459895
r549 *
1D
#503459920
r550 *
0D
#503459955
r551 *
1D
#503460178
r552 *
1C
#503460207
r553 *
0C
#503460214
r554 *
b11101110 A
#503460241
r555 *
0D
#503460274
r556 *
1D
#503460423
r557 *
1C
#503460452
r558 *
0C
#503460453
r559 *
b111011 A
0D
#503460458
r560 *
1D
#503460485
r561 *
0D
#503460518
r562 *
1D
#503460667
r563 *
1C
#503460696
r564 *
0C
#503460697
r565 *
b1100 A
#503460698
r566 *
0D
#503460701
r567 *
1D
#503460728
r568 *
0D
#503460761
r569 *
1D
#503460910
r570 *
1C
#503460939
r571 *
0C
#503460946
r572 *
b10100100 A
#503460973
r573 *
0D
#503461006
r574 *
1D
#503461155
r575 *
1C
#503461184
r576 *
0C
#503461191
r577 *
b11100110 A
#503461218
r578 *
0D
#503461251
r579 *
1D
#503461400
r580 *
1C
#503461429
r581 *
0C
#503461430
r582 *
b10011 A
0D
#503461435
r583 *
1D
#503461462
r584 *
0D
#503461495
r585 *
1D
#503461718
r586 *
1C
#503461747
r587 *
0C
#503461748
r588 *
b1 A
#503461753
r589 *
b10001101 A
#503461780
r590 *
0D
#503461815
r591 *
1D
#503461962
r592 *
1C
#503461991
r593 *
0C
#503461992
r594 *
b10000100 A
#503461997
r595 *
b11010100 A
#503462024
r596 *
0D
#503462059
r597 *
1D
#503462206
r598 *
1C
#503462235
r599 *
0C
#503462242
r600 *
b11100110 A
#503462269
r601 *
0D
#503462304
r602 *
1D
#503462451
r603 *
1C
#503462480
r604 *
0C
#503462481
r605 *
b110010 A
0D
#503462486
r606 *
1D
#503462513
r607 *
0D
#503462548
r608 *
1D
#503462695
r609 *
1C
#503462724
r610 *
0C
#503462731
r611 *
b11011111 A
#503462758
r612 *
0D
#503462793
r613 *
1D
#503463016
r614 *
1C
#503463069
r615 *
0C
#503463070
r616 *
b10010110 A
0D
#503463075
r617 *
1D
#503463102
r618 *
0D
#503463137
r619 *
1D
#503463260
r620 *
1C
#503463289
r621 *
0C
#503463296
r622 *
b11101110 A
#503463321
r623 *
0D
#503463356
r624 *
1D
#503463505
r625 *
1C
#503463534
r626 *
0C
#503463541
r627 *
b110101 A
#503463566
r628 *
0D
#503463601
r629 *
1D
#503463748
r630 *
1C
#503463777
r631 *
0C
#503463778
r632 *
b10101 A
#503463783
r633 *
b10010111 A
#503463810
r634 *
0D
#503463845
r635 *
1D
#503463992
r636 *
1C
#503464047
r637 *
0C
#503464054
r638 *
b10011011 A
#503464081
r639 *
0D
#503464116
r640 *
1D
#503464237
r641 *
1C
#503464266
r642 *
0C
#503464267
r643 *
b10001001 A
#503464272
r644 *
b10001101 A
#503464299
r645 *
0D
#503464334
r646 *
1D
#503464557
r647 *
1C
#503464586
r648 *
0C
#503464593
r649 *
b10110100 A
#503464620
r650 *
0D
#503464653
r651 *
1D
#503464802
r652 *
1C
#503464831
r653 *
0C
#503464838
r654 *
b11100110 A
#503464865
r655 *
0D
#503464898
r656 *
1D
#503465047
r657 *
1C
#503465076
r658 *
0C
#503465077
r659 *
b111 A
0D
#503465082
r660 *
1D
#503465109
r661 *
0D
#503465142
r662 *
1D
#503465291
r663 *
1C
#503465320
r664 *
0C
#503465327
r665 *
b10111101 A
#503465352
r666 *
0D
#503465387
r667 *
1D
#503465536
r668 *
1C
#503465565
r669 *
0C
#503465566
r670 *
b1100 A
0D
#503465571
r671 *
b1110 A
1D
#503465596
r672 *
0D
#503465631
r673 *
1D
#503465780
r674 *
1C
#503465809
r675 *
0C
#503465816
r676 *
b10100001 A
#503465841
r677 *
0D
#503465876
r678 *
1D
#503466099
r679 *
1C
#503466128
r680 *
0C
#503466135
r681 *
b10010001 A
#503466162
r682 *
0D
#503466197
r683 *
1D
#503466344
r684 *
1C
#503466373
r685 *
0C
#503466380
r686 *
b10100001 A
#503466407
r687 *
0D
#503466442
r688 *
1D
#503466589
r689 *
1C
#503466618
r690 *
0C
#503466625
r691 *
b10100010 A
#503466652
r692 *
0D
#503466687
r693 *
1D
#503466834
r694 *
1C
#503466863
r695 *
0C
#503466870
r696 *
b10111010 A
#503466897
r697 *
0D
#503466932
r698 *
1D
#503467079
r699 *
1C
#503467108
r700 *
0C
#503467115
r701 *
b10110 A
#503467142
r702 *
0D
#503467177
r703 *
1D
#503467324
r704 *
1C
#503467353
r705 *
0C
#503467356
r706 *
b0 A
0D
#503467359
r707 *
1D
#503467386
r708 *
0D
#503467421
r709 *
1D
#503467644
r710 *
1C
#503467673
r711 *
0C
#503467678
r712 *
b10101110 A
#503467705
r713 *
0D
#503467740
r714 *
1D
#503467889
r715 *
1C
#503467918
r716 *
0C
#503467923
r717 *
b11101110 A
#503467950
r718 *
0D
#503467985
r719 *
1D
#503468134
r720 *
1C
#503468163
r721 *
0C
#503468168
r722 *
b11101111 A
#503468195
r723 *
0D
#503468230
r724 *
1D
#503468379
r725 *
1C
#503468406
r726 *
0C
#503468407
r727 *
b10100001 A
0D
#503468412
r728 *
1D
#503468439
r729 *
0D
#503468474
r730 *
1D
#503468621
r731 *
1C
#503468650
r732 *
0C
#503468651
r733 *
b100000 A
#503468656
r734 *
b101010 A
#503468683
r735 *
0D
#503468718
r736 *
1D
#503468941
r737 *
1C
#503468970
r738 *
0C
#503468977
r739 *
b10101001 A
#503469002
r740 *
0D
#503469039
r741 *
1D
#503469186
r742 *
1C
#503469215
r743 *
0C
#503469222
r744 *
b10011101 A
#503469247
r745 *
0D
#503469282
r746 *
1D
#503469431
r747 *
1C
#503469460
r748 *
0C
#503469467
r749 *
b1011 A
#503469492
r750 *
0D
#503469527
r751 *
1D
#503469676
r752 *
1C
#503469705
r753 *
0C
#503469712
r754 *
b1001 A
#503469737
r755 *
0D
#503469772
r756 *
1D
#503469921
r757 *
1C
#503469950
r758 *
0C
#503469957
r759 *
b11111100 A
#503469982
r760 *
0D
#503470017
r761 *
1D
#503470166
r762 *
1C
#503470195
r763 *
0C
#503470198
r764 *
b0 A
0D
#503470201
r765 *
1D
#503470216
r766 *
0D
#503470225
r767 *
1C
#503470484
r768 *
1D
#503470513
r769 *
0C
#503470520
r770 *
b11101001 A
#503470547
r771 *
0D
#503470582
r772 *
1D
#503470729
r773 *
1C
#503470758
r774 *
0C
#503470765
r775 *
b11101110 A
#503470792
r776 *
0D
#503470827
r777 *
1D
#503470974
r778 *
1C
#503471003
r779 *
0C
#503471010
r780 *
b11101000 A
#503471037
r781 *
0D
#503471072
r782 *
1D
#503471219
r783 *
1C
#503471248
r784 *
0C
#503471255
r785 *
b11110001 A
#503471282
r786 *
0D
#503471317
r787 *
1D
#503471464
r788 *
1C
#503471493
r789 *
0C
#503471500
r790 *
b10001101 A
#503471527
r791 *
0D
#503471562
r792 *
1D
#503471709
r793 *
1C
#503471738
r794 *
0C
#503471745
r795 *
b11010100 A
#503471772
r796 *
0D
#503471807
r797 *
1D
#503472030
r798 *
1C
#503472057
r799 *
0C
#503472058
r800 *
b11000100 A
#503472063
r801 *
b11100110 A
#503472090
r802 *
0D
#503472125
r803 *
1D
#503472274
r804 *
1C
#503472301
r805 *
0C
#503472302
r806 *
b110 A
0D
#503472307
r807 *
b11111 A
1D
#503472334
r808 *
0D
#503472369
r809 *
1D
#503472518
r810 *
1C
#503472545
r811 *
0C
#503472552
r812 *
b11011111 A
#503472579
r813 *
0D
#503472614
r814 *
1D
#503472763
r815 *
1C
#503472790
r816 *
0C
#503472791
r817 *
b10001001 A
0D
#503472792
r818 *
1D
#503472795
r819 *
b10101001 A
#503472822
r820 *
0D
#503472857
r821 *
1D
#503473006
r822 *
1C
#503473033
r823 *
0C
#503473040
r824 *
b11101110 A
#503473067
r825 *
0D
#503473102
r826 *
1D
#503473325
r827 *
1C
#503473354
r828 *
0C
#503473355
r829 *
b100010 A
0D
#503473360
r830 *
1D
#503473385
r831 *
0D
#503473422
r832 *
1D
#503473569
r833 *
1C
#503473598
r834 *
0C
#503473605
r835 *
b1101 A
#503473630
r836 *
0D
#503473667
r837 *
1D
#503473814
r838 *
1C
#503473843
r839 *
0C
#503473850
r840 *
b10010001 A
#503473875
r841 *
0D
#503473910
r842 *
1D
#503474059
r843 *
1C
#503474088
r844 *
0C
#503474093
r845 *
b11100111 A
#503474120
r846 *
0D
#503474155
r847 *
1D
#503474304
r848 *
1C
#503474331
r849 *
0C
#503474332
r850 *
b10000111 A
#503474333
r851 *
b111 A
0D
#503474336
r852 *
1D
#503474363
r853 *
0D
#503474398
r854 *
1D
#503474547
r855 *
1C
#503474574
r856 *
0C
#503474575
r857 *
b110 A
#503474580
r858 *
b11101110 A
#503474607
r859 *
0D
#503474642
r860 *
1D
#503474865
r861 *
1C
#503474894
r862 *
0C
#503474897
r863 *
b11010 A
0D
#503474900
r864 *
1D
#503474927
r865 *
0D
#503474962
r866 *
1D
#503475109
r867 *
1C
#503475138
r868 *
0C
#503475145
r869 *
b1100001 A
#503475170
r870 *
0D
#503475207
r871 *
1D
#503475354
r872 *
1C
#503475383
r873 *
0C
#503475390
r874 *
b10011011 A
#503475415
r875 *
0D
#503475452
r876 *
1D
#503475599
r877 *
1C
#503475628
r878 *
0C
#503475631
r879 *
b0 A
0D
#503475634
r880 *
1D
#503475659
r881 *
0D
#503475696
r882 *
1D
#503475843
r883 *
1C
#503475872
r884 *
0C
#503475879
r885 *
b10000 A
#503475904
r886 *
0D
#503475941
r887 *
1D
#503476088
r888 *
1C
#503476117
r889 *
0C
#503476124
r890 *
b100001 A
#503476149
r891 *
0D
#503476186
r892 *
1D
#503476409
r893 *
1C
#503476436
r894 *
0C
#503476443
r895 *
b0 A
#503476470
r896 *
0D
#503476505
r897 *
1D
#503476654
r898 *
1C
#503476689
r899 *
0C
#503476716
r900 *
0D
#503476751
r901 *
1D
#503476900
r902 *
1C
#503476927
r903 *
0C
#503476934
r904 *
b11000 A
#503476961
r905 *
0D
#503476996
r906 *
1D
#503477145
r907 *
1C
#503477172
r908 *
0C
#503477173
r909 *
b1000001 A
0D
#503477178
r910 *
1D
#503477205
r911 *
0D
#503477240
r912 *
1D
#503477389
r913 *
1C
#503477416
r914 *
0C
#503477423
r915 *
b10010000 A
#503477450
r916 *
0D
#503477485
r917 *
1D
#503477708
r918 *
1C
#503477761
r919 *
0C
#503477768
r920 *
b0 A
#503477795
r921 *
0D
#503477830
r922 *
1D
#503477953
r923 *
1C
#503477982
r924 *
0C
#503477987
r925 *
b1010 A
#503478014
r926 *
0D
#503478051
r927 *
1D
#503478198
r928 *
1C
#503478225
r929 *
0C
#503478226
r930 *
b0 A
#503478231
r931 *
b10000001 A
#503478258
r932 *
0D
#503478295
r933 *
1D
#503478442
r934 *
1C
#503478469
r935 *
0C
#503478470
r936 *
b1 A
#503478475
r937 *
b1001 A
#503478502
r938 *
0D
#503478539
r939 *
1D
#503478686
r940 *
1C
#503478739
r941 *
0C
#503478746
r942 *
b100001 A
#503478771
r943 *
0D
#503478808
r944 *
1D
#503478931
r945 *
1C
#503478958
r946 *
0C
#503478959
r947 *
b0 A
#503478964
r948 *
b1010 A
#503478991
r949 *
0D
#503479026
r950 *
1D
#503479249
r951 *
1C
#503479278
r952 *
0C
#503479285
r953 *
b10000000 A
#503479310
r954 *
0D
#503479347
r955 *
1D
#503479494
r956 *
1C
#503479523
r957 *
0C
#503479530
r958 *
b0 A
#503479555
r959 *
0D
#503479592
r960 *
1D
#503479739
r961 *
1C
#503479768
r962 *
0C
#503479775
r963 *
b10001101 A
#503479800
r964 *
0D
#503479837
r965 *
1D
#503479984
r966 *
1C
#503480013
r967 *
0C
#503480014
r968 *
b0 A
0D
#503480019
r969 *
b10 A
1D
#503480044
r970 *
0D
#503480081
r971 *
1D
#503480228
r972 *
1C
#503480257
r973 *
0C
#503480264
r974 *
b1 A
#503480289
r975 *
0D
#503480326
r976 *
1D
#503480473
r977 *
1C
#503480502
r978 *
0C
#503480509
r979 *
b0 A
#503480534
r980 *
0D
#503480571
r981 *
1D
#503480794
r982 *
1C
#503480821
r983 *
0C
#503480828
r984 *
b10 A
#503480855
r985 *
0D
#503480890
r986 *
1D
#503481039
r987 *
1C
#503481066
r988 *
0C
#503481073
r989 *
b0 A
#503481100
r990 *
0D
#503481135
r991 *
1D
#503481284
r992 *
1C
#503481311
r993 *
0C
#503481318
r994 *
b10111010 A
#503481345
r995 *
0D
#503481380
r996 *
1D
#503481529
r997 *
1C
#503481556
r998 *
0C
#503481557
r999 *
b10010001 A
0D
#503481562
r1000 *
1D
#503481589
r1001 *
0D
#503481624
r1002 *
1D
#503481773
r1003 *
1C
#503481800
r1004 *
0C
#503481801
r1005 *
b0 A
0D
#503481806
r1006 *
1D
#503481833
r1007 *
0D
#503481868
r1008 *
1D
#503482017
r1009 *
1C
#503482044
r1010 *
0C
#503482051
r1011 *
b10100000 A
#503482076
r1012 *
0D
#503482113
r1013 *
1D
#503482336
r1014 *
1C
#503482363
r1015 *
0C
#503482364
r1016 *
b10000000 A
#503482369
r1017 *
b10001101 A
#503482396
r1018 *
0D
#503482433
r1019 *
1D
#503482580
r1020 *
1C
#503482607
r1021 *
0C
#503482608
r1022 *
b11000100 A
0D
#503482613
r1023 *
b11010100 A
1D
#503482640
r1024 *
0D
#503482677
r1025 *
1D
#503482824
r1026 *
1C
#503482851
r1027 *
0C
#503482852
r1028 *
b11000110 A
#503482857
r1029 *
b11100110 A
#503482884
r1030 *
0D
#503482921
r1031 *
1D
#503483068
r1032 *
1C
#503483095
r1033 *
0C
#503483096
r1034 *
b100 A
#503483097
r1035 *
b101 A
0D
#503483100
r1036 *
1D
#503483127
r1037 *
0D
#503483164
r1038 *
1D
#503483311
r1039 *
1C
#503483338
r1040 *
0C
#503483345
r1041 *
b11011111 A
#503483372
r1042 *
0D
#503483407
r1043 *
1D
#503483630
r1044 *
1C
#503483659
r1045 *
0C
#503483666
r1046 *
b10111110 A
#503483691
r1047 *
0D
#503483728
r1048 *
1D
#503483875
r1049 *
1C
#503483904
r1050 *
0C
#503483911
r1051 *
b11101110 A
#503483936
r1052 *
0D
#503483973
r1053 *
1D
#503484120
r1054 *
1C
#503484149
r1055 *
0C
#503484150
r1056 *
b1101 A
0D
#503484155
r1057 *
1D
#503484180
r1058 *
0D
