SignalCaptures/P8000_WDC_Firmware_Selftest.vcd
$comment Created in LWLA Logic Analyzer $end
$date 02.01.2016 00:37:37 $end
$timescale 1 ns $end
$scope module LWLA  $end
$var real 1 * sample $end
$var reg 8 A Data[7:0] $end
$var reg 3 B Status[2:0] $end
$var reg 1 C /RDY $end
$var reg 1 D /ASTB $end
$var reg 1 E /TR $end
$var reg 1 F /RST $end
$var reg 1 G /TE $end
$upscope $end
$enddefinitions $end
#0
r0 *
b0 A
b1 B
1C
1D
1E
1F
1G
#1
r1 *
#2
r2 *
#3
r3 *
#4
r4 *
#5
r5 *
#6
r6 *
#1895338359
r7 *
#1895338528
r8 *
0F
#1895338529
r9 *
b0 B
0E
#1895374074
r10 *
1E
#1895374075
r11 *
b1010001 A
#1895397132
r12 *
b1010101 A
#1895397149
r13 *
b1010111 A
#1895397278
r14 *
b1010101 A
#1895397423
r15 *
b1010111 A
#1895397448
r16 *
b1010101 A
#1895397721
r17 *
b1010111 A
#1895397730
r18 *
b1011111 A
#1895397747
r19 *
b1010111 A
#1895397780
r20 *
b1011111 A
#1895397789
r21 *
b1111111 A
#1895397806
r22 *
b1010111 A
#1895397807
r23 *
b1011111 A
#1895397856
r24 *
b1111111 A
#1895397873
r25 *
b1011111 A
#1895398146
r26 *
b1111111 A
#1895399899
r27 *
b11111111 A
#1895400044
r28 *
b1111111 A
#1895408685
r29 *
b11111111 A
#1895408694
r30 *
b1010101 A
#1895408695
r31 *
0D
#1895415664
r32 *
1D
#1895415721
r33 *
b11111111 A
#1895415722
r34 *
b11111010 A
#1895440019
r35 *
b10101010 A
#1895440028
r36 *
b10111010 A
#1895440053
r37 *
b10101010 A
#1895440062
r38 *
b10111010 A
#1895440071
r39 *
b10111011 A
#1895440080
r40 *
b10101011 A
#1895440089
r41 *
b10101010 A
#1895440090
r42 *
b10111010 A
#1895440107
r43 *
b10111011 A
#1895440196
r44 *
b10111111 A
#1895440205
r45 *
b10111011 A
#1895440222
r46 *
b10111010 A
#1895440279
r47 *
b10111011 A
#1895440400
r48 *
b10111111 A
#1895440529
r49 *
b11111111 A
#1895440554
r50 *
b10111111 A
#1895440595
r51 *
b11111111 A
#1895440612
r52 *
b10111111 A
#1895462021
r53 *
b11111111 A
#1895462118
r54 *
0G
#1895462135
r55 *
1G
#1895462168
r56 *
0G
#1895462169
r57 *
1G
#1895463970
r58 *
0G
#1895470955
r59 *
1G
#1895480692
r60 *
0G
#1895480693
r61 *
b10111111 A
#1895480790
r62 *
b11111111 A
#1895480791
r63 *
b10111111 A
#1895480800
r64 *
b11111111 A
#1895480801
r65 *
b10111111 A
#1895480842
r66 *
b11111111 A
#1895480843
r67 *
b10111111 A
#1895480852
r68 *
b11111111 A
#1895480853
r69 *
b10111111 A
#1895480854
r70 *
b11111111 A
#1895480855
r71 *
b10111111 A
#1895480872
r72 *
b10101111 A
#1895480905
r73 *
b10111111 A
#1895480906
r74 *
b10101111 A
#1895480907
r75 *
b10111111 A
#1895480916
r76 *
b10101111 A
#1895480941
r77 *
b10111111 A
#1895480958
r78 *
b10101111 A
#1895480967
r79 *
b10111111 A
#1895480968
r80 *
b10101111 A
#1895480985
r81 *
b10111111 A
#1895481002
r82 *
b10101111 A
#1895481003
r83 *
b10111111 A
#1895481012
r84 *
b10101111 A
#1895481013
r85 *
b10111111 A
#1895481014
r86 *
b101111 A
#1895481039
r87 *
b10101111 A
#1895481040
r88 *
b10111111 A
#1895481049
r89 *
b10101111 A
#1895481050
r90 *
b10111111 A
#1895481107
r91 *
b10101111 A
#1895481108
r92 *
b10111111 A
#1895481421
r93 *
b10101111 A
#1895481422
r94 *
b101111 A
#1895481423
r95 *
b10101111 A
#1895481432
r96 *
b101111 A
#1895481433
r97 *
b10101111 A
#1895481442
r98 *
b101111 A
#1895481443
r99 *
b10101111 A
#1895481460
r100 *
b101111 A
#1895481461
r101 *
b10101111 A
#1895481542
r102 *
b101111 A
#1895481543
r103 *
b10101111 A
#1895481568
r104 *
b101111 A
#1895481569
r105 *
b10101111 A
#1895481602
r106 *
b101111 A
#1895481603
r107 *
b101101 A
#1895481668
r108 *
b101111 A
#1895481677
r109 *
b101101 A
#1895481710
r110 *
b101111 A
#1895481711
r111 *
b101101 A
#1895481720
r112 *
b101111 A
#1895481721
r113 *
b101101 A
#1895481722
r114 *
b101111 A
#1895481723
r115 *
b101101 A
#1895481724
r116 *
b101111 A
#1895481725
r117 *
b101101 A
#1895481726
r118 *
b101111 A
#1895481751
r119 *
b101101 A
#1895481752
r120 *
b101111 A
#1895481777
r121 *
b101101 A
#1895481778
r122 *
b101111 A
#1895481779
r123 *
b101101 A
#1895481780
r124 *
b101111 A
#1895481805
r125 *
b101101 A
#1895481806
r126 *
b101111 A
#1895481823
r127 *
b101101 A
#1895481832
r128 *
b101111 A
#1895481969
r129 *
b101101 A
#1895481970
r130 *
b101111 A
#1895482211
r131 *
b101101 A
#1895482212
r132 *
b100101 A
#1895482221
r133 *
b101101 A
#1895482222
r134 *
b100101 A
#1895482231
r135 *
b101101 A
#1895482240
r136 *
b100101 A
#1895482265
r137 *
b101101 A
#1895482266
r138 *
b100101 A
#1895482299
r139 *
b101101 A
#1895482300
r140 *
b100001 A
#1895482301
r141 *
b101101 A
#1895482302
r142 *
b100101 A
#1895482303
r143 *
b101101 A
#1895482304
r144 *
b100001 A
#1895482305
r145 *
b100101 A
#1895482322
r146 *
b101101 A
#1895482323
r147 *
b100101 A
#1895482324
r148 *
b100001 A
#1895482325
r149 *
b101101 A
#1895482326
r150 *
b100001 A
#1895482335
r151 *
b100101 A
#1895482336
r152 *
b101101 A
#1895482353
r153 *
b100101 A
#1895482362
r154 *
b100001 A
#1895482379
r155 *
b100101 A
#1895482380
r156 *
b101101 A
#1895482397
r157 *
b100101 A
#1895482398
r158 *
b100001 A
#1895482423
r159 *
b100101 A
#1895482424
r160 *
b100001 A
#1895482425
r161 *
b100101 A
#1895482426
r162 *
b100001 A
#1895482427
r163 *
b100101 A
#1895482444
r164 *
b100001 A
#1895482453
r165 *
b100101 A
#1895482454
r166 *
b100000 A
#1895482471
r167 *
b100001 A
#1895482480
r168 *
b100101 A
#1895482521
r169 *
b100001 A
#1895482522
r170 *
b101101 A
#1895482659
r171 *
b100001 A
#1895482660
r172 *
b100000 A
#1895482885
r173 *
b100001 A
#1895482902
r174 *
b100000 A
#1895482951
r175 *
b100001 A
#1895482952
r176 *
b100000 A
#1895482985
r177 *
b100001 A
#1895483002
r178 *
b100000 A
#1895483003
r179 *
b100001 A
#1895483004
r180 *
b100000 A
#1895483005
r181 *
b100001 A
#1895483006
r182 *
b100000 A
#1895483007
r183 *
b100001 A
#1895483008
r184 *
b100000 A
#1895483009
r185 *
b100001 A
#1895483010
r186 *
b100000 A
#1895483019
r187 *
b100001 A
#1895483020
r188 *
b0 A
#1895483021
r189 *
b100001 A
#1895483046
r190 *
b100000 A
#1895483047
r191 *
b100001 A
#1895483048
r192 *
b100000 A
#1895483049
r193 *
b100001 A
#1895483058
r194 *
b100000 A
#1895483059
r195 *
b100001 A
#1895483060
r196 *
b100000 A
#1895483061
r197 *
b0 A
#1895483078
r198 *
b100000 A
#1895483079
r199 *
b100001 A
#1895483120
r200 *
b100000 A
#1895483121
r201 *
b0 A
#1895483146
r202 *
b100000 A
#1895483147
r203 *
b0 A
#1895483172
r204 *
b100000 A
#1895483181
r205 *
b0 A
#1895483182
r206 *
b1 A
#1895483191
r207 *
b0 A
#1895483192
r208 *
b100000 A
#1895483201
r209 *
b0 A
#1895483202
r210 *
b100000 A
#1895483211
r211 *
b0 A
#1895483220
r212 *
b100000 A
#1895483221
r213 *
b0 A
#1895483222
r214 *
b100000 A
#1895483271
r215 *
b0 A
#1895483272
r216 *
b100000 A
#1895512417
r217 *
b0 A
#1895516890
r218 *
1G
#1895516907
r219 *
b10 A
#1895516916
r220 *
b0 A
#1895516941
r221 *
b10 A
#1895517046
r222 *
b0 A
#1895517199
r223 *
b10 A
#1895517216
r224 *
b0 A
#1895517401
r225 *
b10 A
#1895517402
r226 *
b110 A
#1895517435
r227 *
b10 A
#1895517444
r228 *
b10010 A
#1895517453
r229 *
b10 A
#1895517462
r230 *
b10010 A
#1895517471
r231 *
b10 A
#1895517480
r232 *
b10010 A
#1895517481
r233 *
b11010 A
#1895517482
r234 *
b1010 A
#1895517483
r235 *
b10 A
#1895517484
r236 *
0D
#1895517493
r237 *
b11110 A
1D
#1895517510
r238 *
b111111 A
#1895517567
r239 *
b1111111 A
#1895517568
r240 *
b11111111 A
#1895517569
r241 *
b11111011 A
#1895517570
r242 *
b10000010 A
#1895517571
r243 *
b10 A
0D
#1895517572
r244 *
0E
#1895517581
r245 *
b1111011 A
1D
1E
#1895517582
r246 *
b11111111 A
b100 B
#1895517615
r247 *
b0 B
#1895517624
r248 *
b1111111 A
#1895517625
r249 *
b111110 A
#1895517626
r250 *
b111010 A
#1895517627
r251 *
b111110 A
#1895517628
r252 *
b111111 A
#1895517637
r253 *
b1111111 A
#1895517670
r254 *
b11111111 A
#1895517687
r255 *
b1111111 A
#1895518264
r256 *
b11111111 A
#1895518673
r257 *
b1111111 A
#1895518810
r258 *
b11111111 A
#1895518835
r259 *
b1111111 A
#1895533140
r260 *
b11111111 A
#1895533149
r261 *
0G
#1895533182
r262 *
1G
#1895542079
r263 *
0G
#1895542080
r264 *
b10111111 A
#1895542113
r265 *
b11111111 A
#1895542122
r266 *
b10111111 A
#1895542131
r267 *
b11111111 A
#1895542132
r268 *
b10111111 A
#1895542141
r269 *
b11111111 A
#1895542142
r270 *
b10111111 A
#1895542151
r271 *
b11111111 A
#1895542152
r272 *
b10111111 A
#1895542161
r273 *
b11111111 A
#1895542186
r274 *
b10111111 A
#1895542187
r275 *
b10101111 A
#1895542220
r276 *
b10111111 A
#1895542221
r277 *
b10101111 A
#1895542222
r278 *
b10111111 A
#1895542223
r279 *
b10101111 A
#1895542232
r280 *
b10111111 A
#1895542233
r281 *
b10101111 A
#1895542234
r282 *
b11111111 A
#1895542235
r283 *
b10111111 A
#1895542236
r284 *
b10101111 A
#1895542237
r285 *
b10111111 A
#1895542246
r286 *
b10101111 A
#1895542247
r287 *
b10111111 A
#1895542256
r288 *
b10101111 A
#1895542257
r289 *
b10111111 A
#1895542266
r290 *
b10101111 A
#1895542267
r291 *
b10111111 A
#1895542276
r292 *
b10101111 A
#1895542277
r293 *
b10111111 A
#1895542310
r294 *
b10101111 A
#1895542311
r295 *
b10111111 A
#1895542368
r296 *
b10101111 A
#1895542369
r297 *
b10111111 A
#1895542450
r298 *
b10101111 A
#1895542451
r299 *
b10111111 A
#1895542500
r300 *
b10101111 A
#1895542501
r301 *
b101111 A
#1895542510
r302 *
b10101111 A
#1895542511
r303 *
b101111 A
#1895542520
r304 *
b10101111 A
#1895542521
r305 *
b101111 A
#1895542530
r306 *
b10101111 A
#1895542531
r307 *
b101111 A
#1895542564
r308 *
b10101111 A
#1895542573
r309 *
b101111 A
#1895542622
r310 *
b10101111 A
#1895542623
r311 *
b101111 A
#1895542624
r312 *
b10101111 A
#1895542625
r313 *
b101111 A
#1895542626
r314 *
b10101111 A
#1895542627
r315 *
b101111 A
#1895542628
r316 *
b101101 A
#1895542645
r317 *
b101111 A
#1895542646
r318 *
b10101111 A
#1895542847
r319 *
b101111 A
#1895542864
r320 *
b101101 A
#1895542881
r321 *
b101111 A
#1895542882
r322 *
b101101 A
#1895542891
r323 *
b101111 A
#1895542908
r324 *
b101101 A
#1895542909
r325 *
b101111 A
#1895542910
r326 *
b101101 A
#1895542919
r327 *
b101111 A
#1895542936
r328 *
b101101 A
#1895542953
r329 *
b101111 A
#1895542962
r330 *
b101101 A
#1895542963
r331 *
b101111 A
#1895542972
r332 *
b101101 A
#1895542973
r333 *
b101111 A
#1895543022
r334 *
b101101 A
#1895543023
r335 *
b101111 A
#1895543032
r336 *
b101101 A
#1895543041
r337 *
b101111 A
#1895543122
r338 *
b101101 A
#1895543123
r339 *
b101111 A
#1895543476
r340 *
b101101 A
#1895543477
r341 *
b100101 A
#1895543526
r342 *
b101101 A
#1895543543
r343 *
b100101 A
#1895543560
r344 *
b101101 A
#1895543569
r345 *
b100101 A
#1895543578
r346 *
b101101 A
#1895543579
r347 *
b100101 A
#1895543588
r348 *
b101101 A
#1895543597
r349 *
b100101 A
#1895543598
r350 *
b101101 A
#1895543607
r351 *
b100101 A
#1895543608
r352 *
b101101 A
#1895543633
r353 *
b100101 A
#1895543634
r354 *
b100001 A
#1895543635
r355 *
b101101 A
#1895543636
r356 *
b100001 A
#1895543661
r357 *
b100101 A
#1895543662
r358 *
b101101 A
#1895543671
r359 *
b100001 A
#1895543680
r360 *
b100101 A
#1895543681
r361 *
b101101 A
#1895543682
r362 *
b100101 A
#1895543683
r363 *
b100001 A
#1895543684
r364 *
b100101 A
#1895543685
r365 *
b100001 A
#1895543686
r366 *
b100101 A
#1895543687
r367 *
b100001 A
#1895543688
r368 *
b100101 A
#1895543689
r369 *
b100001 A
#1895543690
r370 *
b100101 A
#1895543691
r371 *
b100001 A
#1895543700
r372 *
b100101 A
#1895543701
r373 *
b100001 A
#1895543702
r374 *
b100101 A
#1895543703
r375 *
b100001 A
#1895543704
r376 *
b100101 A
#1895543705
r377 *
b100001 A
#1895543706
r378 *
b100101 A
#1895543707
r379 *
b100001 A
#1895543708
r380 *
b100101 A
#1895543709
r381 *
b100001 A
#1895543710
r382 *
b100101 A
#1895543711
r383 *
b100001 A
#1895543712
r384 *
b100101 A
#1895543737
r385 *
b100001 A
#1895543738
r386 *
b100101 A
#1895543755
r387 *
b100001 A
#1895543756
r388 *
b100101 A
#1895543765
r389 *
b100001 A
#1895543766
r390 *
b100101 A
#1895543823
r391 *
b100001 A
#1895543824
r392 *
b100101 A
#1895543841
r393 *
b100001 A
#1895543842
r394 *
b100000 A
#1895543907
r395 *
b100001 A
#1895543908
r396 *
b100000 A
#1895543989
r397 *
b100001 A
#1895543990
r398 *
b100000 A
#1895543991
r399 *
b100001 A
#1895543992
r400 *
b100000 A
#1895544025
r401 *
b100001 A
#1895544042
r402 *
b100000 A
#1895544043
r403 *
b100001 A
#1895544044
r404 *
b100000 A
#1895544069
r405 *
b100001 A
#1895544086
r406 *
b100000 A
#1895544087
r407 *
b100001 A
#1895544088
r408 *
b100000 A
#1895544097
r409 *
b100001 A
#1895544098
r410 *
b0 A
#1895544115
r411 *
b100000 A
#1895544124
r412 *
b100001 A
#1895544125
r413 *
b0 A
#1895544126
r414 *
b100001 A
#1895544151
r415 *
b100000 A
#1895544160
r416 *
b100001 A
#1895544185
r417 *
b100000 A
#1895544194
r418 *
b100001 A
#1895544211
r419 *
b100000 A
#1895544212
r420 *
b100001 A
#1895544221
r421 *
b100000 A
#1895544230
r422 *
b0 A
#1895544239
r423 *
b100001 A
#1895544256
r424 *
b100000 A
#1895544257
r425 *
b0 A
#1895544258
r426 *
b100000 A
#1895544259
r427 *
b100001 A
#1895544260
r428 *
b0 A
#1895544261
r429 *
b100000 A
#1895544262
r430 *
b0 A
#1895544263
r431 *
b100000 A
#1895544264
r432 *
b0 A
#1895544265
r433 *
b100001 A
#1895544274
r434 *
b0 A
#1895544275
r435 *
b100000 A
#1895544276
r436 *
b0 A
#1895544277
r437 *
b100000 A
#1895544310
r438 *
b0 A
#1895544319
r439 *
b100000 A
#1895544352
r440 *
b0 A
#1895544353
r441 *
b100000 A
#1899999850
r442 *
b0 A
#1899999891
r443 *
1G
#1900004372
r444 *
1F
#1900004389
r445 *
b10 A
#1900004398
r446 *
b0 A
#1900004439
r447 *
b10 A
#1900004536
r448 *
b0 A
#1900004705
r449 *
b10 A
#1900004722
r450 *
b0 A
#1900004883
r451 *
b10 A
#1900004892
r452 *
b110 A
#1900004909
r453 *
b10 A
#1900004918
r454 *
b10010 A
#1900004935
r455 *
b10 A
#1900004936
r456 *
b10010 A
#1900004953
r457 *
b10 A
#1900004962
r458 *
b11010 A
#1900004971
r459 *
b10 A
#1900004972
r460 *
b1010 A
0D
#1900004981
r461 *
b11110 A
1D
#1900004982
r462 *
b111111 A
#1900004983
r463 *
b110111 A
#1900004992
r464 *
b111111 A
#1900005025
r465 *
b1111111 A
#1900005034
r466 *
b111111 A
#1900005035
r467 *
b111110 A
#1900005036
r468 *
b1111110 A
#1900005037
r469 *
b1111010 A
#1900005038
r470 *
b1111011 A
#1900005039
r471 *
b1010011 A
#1900005040
r472 *
b10 A
#1900005041
r473 *
0D
#1900005042
r474 *
b101010 A
0E
#1900005051
r475 *
b1111011 A
1D
1E
#1900005052
r476 *
b1111111 A
b100 B
#1900005093
r477 *
b0 B
#1900005118
r478 *
b111111 A
#1900005143
r479 *
b1111111 A
#1900005160
r480 *
b111111 A
#1900006001
r481 *
b1111111 A
#1900020930
r482 *
b11111111 A
#1900020931
r483 *
b10101000 A
#1900020932
r484 *
b1000 A
0D
#1900020933
r485 *
b1010 A
#1900020934
r486 *
b10101010 A
1D
0E
#4564050511
r487 *
1E
#4564074872
r488 *
b1 B
#4564074929
r489 *
b10111010 A
#4564074930
r490 *
b111000 A
#4564074939
r491 *
b11000 A
#4564074940
r492 *
0D
#4564075517
r493 *
1D
#4564075750
r494 *
0C
#4564076015
r495 *
0D
#4564076256
r496 *
1D
#4564077625
r497 *
1C
#4564078226
r498 *
b0 A
#4564078459
r499 *
0C
#4564078732
r500 *
0D
#4564078973
r501 *
1D
#4564080270
r502 *
1C
#4564080271
r503 *
b101010 A
#4564080936
r504 *
b101110 A
#4564081169
r505 *
0C
#4564081434
r506 *
0D
#4564081675
r507 *
1D
#4564082980
r508 *
1C
#4564083037
r509 *
b10101110 A
#4564083646
r510 *
b10101010 A
#4564084127
r511 *
0C
#4564084392
r512 *
0D
#4564084633
r513 *
1D
#4564087114
r514 *
1C
#4564087347
r515 *
0C
#4564087612
r516 *
0D
#4564087861
r517 *
1D
#4564089158
r518 *
1C
#4564089159
r519 *
b11111011 A
#4564089216
r520 *
b11111111 A
#4564089225
r521 *
b1010101 A
#4564089226
r522 *
0D
#4564089803
r523 *
1D
#4564090036
r524 *
0C
#4564090301
r525 *
0D
#4564090542
r526 *
1D
#4564092839
r527 *
1C
#4564092904
r528 *
b1010111 A
#4564093513
r529 *
b10 A
#4564093738
r530 *
0C
#4564094011
r531 *
0D
#4564094252
r532 *
1D
#4564095613
r533 *
1C
#4564096222
r534 *
b0 A
#4564096455
r535 *
0C
#4564096720
r536 *
0D
#4564096969
r537 *
1D
#4564098266
r538 *
1C
#4564098267
r539 *
b10001011 A
0E
#4564098932
r540 *
b11111111 A
1E
#4564099165
r541 *
0C
#4564099430
r542 *
0D
#4564099671
r543 *
1D
#4564123584
r544 *
1C
#4564123585
r545 *
0E
#4564695666
r546 *
b0 B
1E
#4564746883
r547 *
b10 B
#4564746884
r548 *
b11111010 A
#4564747485
r549 *
b10101010 A
#4564747670
r550 *
0C
#4564747935
r551 *
0D
#4564748224
r552 *
1D
#4564750209
r553 *
1C
#4564750386
r554 *
0C
#4564750651
r555 *
0D
#4564750948
r556 *
1D
#4564774813
r557 *
1C
#4564774814
r558 *
b0 B
#4564774831
r559 *
0E
#4564977984
r560 *
1E
#4568389289
r561 *
b1 B
#4568389306
r562 *
b1000 A
#4568389307
r563 *
0D
#4568389876
r564 *
1D
#4568390029
r565 *
0C
#4568390302
r566 *
0D
#4568390623
r567 *
1D
#4568391984
r568 *
1C
#4568392593
r569 *
b0 A
#4568392746
r570 *
0C
#4568393011
r571 *
0D
#4568393332
r572 *
1D
#4568394637
r573 *
1C
#4568395310
r574 *
b101110 A
#4568395463
r575 *
0C
#4568395728
r576 *
0D
#4568396049
r577 *
1D
#4568397346
r578 *
1C
#4568397403
r579 *
b10101110 A
#4568398020
r580 *
b10101010 A
#4568398173
r581 *
0C
#4568398438
r582 *
0D
#4568398759
r583 *
1D
#4568400056
r584 *
1C
#4568400113
r585 *
b10101011 A
#4568400114
r586 *
b10100011 A
#4568400715
r587 *
b10100001 A
#4568400868
r588 *
0C
#4568401133
r589 *
0D
#4568401454
r590 *
1D
#4568402759
r591 *
1C
#4568403432
r592 *
b11111111 A
#4568403585
r593 *
0C
#4568403850
r594 *
0D
#4568404171
r595 *
1D
#4568407284
r596 *
1C
#4568407285
r597 *
b11111010 A
#4568407286
r598 *
b10 A
#4568407295
r599 *
0D
#4568407872
r600 *
1D
#4568408025
r601 *
0C
#4568408290
r602 *
0D
#4568408619
r603 *
1D
#4568409980
r604 *
1C
#4568410589
r605 *
b0 A
#4568410742
r606 *
0C
#4568411007
r607 *
0D
#4568411328
r608 *
1D
#4568412625
r609 *
1C
#4568413306
r610 *
b11000000 A
#4568413451
r611 *
0C
#4568413716
r612 *
0D
#4568414045
r613 *
1D
#4568436374
r614 *
1C
#4568436375
r615 *
0E
#4568436376
r616 *
b0 B
#4568995449
r617 *
1E
#4568995450
r618 *
b1 B
#4569054171
r619 *
b11 B
0E
#4569054204
r620 *
0G
#4569057597
r621 *
b101101 A
#4569058046
r622 *
0C
#4569058047
r623 *
b10101000 A
0D
#4569058112
r624 *
b10101010 A
1D
#4569058377
r625 *
0D
#4569058570
r626 *
1D
#4569070299
r627 *
1C
#4569070828
r628 *
0C
#4569071093
r629 *
0D
#4569071294
r630 *
1D
#4569073023
r631 *
1C
#4569073472
r632 *
0C
#4569073473
r633 *
b10100001 A
0D
#4569073474
r634 *
1D
#4569073475
r635 *
b10000001 A
#4569073476
r636 *
0D
#4569073517
r637 *
1D
#4569073782
r638 *
0D
#4569073975
r639 *
1D
#4569098512
r640 *
1C
#4569098537
r641 *
b0 B
#4569116482
r642 *
1E
#4569116483
r643 *
b10000000 A
#4569116900
r644 *
b10000001 A
#4569116901
r645 *
b10000000 A
#4569116910
r646 *
b10000001 A
#4569116911
r647 *
b10000000 A
#4569116936
r648 *
b10000001 A
#4569116945
r649 *
b10000000 A
#4569117002
r650 *
b10000001 A
#4569117003
r651 *
b10000000 A
#4569117044
r652 *
b10000001 A
#4569117053
r653 *
b10000000 A
#4569117054
r654 *
b10000001 A
#4569117063
r655 *
b10000000 A
#4569117072
r656 *
b10000001 A
#4569117081
r657 *
b10000000 A
#4569117082
r658 *
b10000001 A
#4569117091
r659 *
b10000000 A
#4569117100
r660 *
b10000001 A
#4569117109
r661 *
b10000000 A
#4569117110
r662 *
b10000001 A
#4569117111
r663 *
b10000000 A
#4569117112
r664 *
b10000001 A
#4569117113
r665 *
b10000000 A
#4569117122
r666 *
b10000001 A
#4569117123
r667 *
b10000000 A
#4569117124
r668 *
b10000001 A
#4569117125
r669 *
b10000000 A
#4569117126
r670 *
b10000001 A
#4569117127
r671 *
b10000000 A
#4569117144
r672 *
b10000001 A
#4569117145
r673 *
b10000000 A
#4569117146
r674 *
b10000001 A
#4569117163
r675 *
b10000000 A
#4569117172
r676 *
b10000001 A
#4569117205
r677 *
b10000000 A
#4569117206
r678 *
b10000001 A
#4569117231
r679 *
b10000000 A
#4569117240
r680 *
b10000001 A
#4569117273
r681 *
b10000000 A
#4569117274
r682 *
b10000001 A
#4569117291
r683 *
b10000000 A
#4569117308
r684 *
b10000001 A
#4569117365
r685 *
b10000000 A
#4569117366
r686 *
b10000001 A
#4569117647
r687 *
b10000000 A
#4569117648
r688 *
b10000001 A
#4569117665
r689 *
b10000000 A
#4569117666
r690 *
b10000001 A
#4569119179
r691 *
b10000000 A
#4569119180
r692 *
b0 A
#4569119381
r693 *
b10000000 A
#4569119382
r694 *
b0 A
#4569119503
r695 *
b10000000 A
#4569119504
r696 *
b0 A
#4569119561
r697 *
b10000000 A
#4569119562
r698 *
b0 A
#4569119571
r699 *
b10000000 A
#4569119572
r700 *
b0 A
#4569119613
r701 *
b10000000 A
#4569119614
r702 *
b0 A
#4569119639
r703 *
b10000000 A
#4569119640
r704 *
b0 A
#4569119697
r705 *
b10000000 A
#4569119706
r706 *
b0 A
#4569119707
r707 *
b10000000 A
#4569119708
r708 *
b0 A
#4569119709
r709 *
b10000000 A
#4569119710
r710 *
b0 A
#4569119719
r711 *
b10000000 A
#4569119720
r712 *
b0 A
#4569119729
r713 *
b10000000 A
#4569119738
r714 *
b0 A
#4569119747
r715 *
b10000000 A
#4569119756
r716 *
b0 A
#4569119757
r717 *
b10000000 A
#4569119758
r718 *
b0 A
#4569119767
r719 *
b10000000 A
#4569119792
r720 *
b0 A
#4569119801
r721 *
b10000000 A
#4569119802
r722 *
b0 A
#4569119803
r723 *
b10000000 A
#4569119812
r724 *
b0 A
#4569119813
r725 *
b10000000 A
#4569119838
r726 *
b0 A
#4569119839
r727 *
b10000000 A
#4569119848
r728 *
b0 A
#4569119857
r729 *
b10000000 A
#4569119882
r730 *
b0 A
#4569119883
r731 *
b10000000 A
#4569119908
r732 *
b0 A
#4569119909
r733 *
b10000000 A
#4569119990
r734 *
b0 A
#4569119991
r735 *
b10000000 A
#4569120000
r736 *
b0 A
#4569120001
r737 *
b10000000 A
#4569120210
r738 *
b0 A
#4569120211
r739 *
b10000000 A
#4569307004
r740 *
b0 A
#4573011325
r741 *
b1 B
#4573014870
r742 *
1G
#4573045239
r743 *
b11000000 A
#4573045296
r744 *
b11011000 A
#4573045297
r745 *
b1011000 A
#4573045898
r746 *
b11000 A
#4573046195
r747 *
0C
#4573046460
r748 *
0D
#4573046885
r749 *
1D
#4573048006
r750 *
1C
#4573048607
r751 *
b0 A
#4573048904
r752 *
0C
#4573049169
r753 *
0D
#4573049378
r754 *
1D
#4573050651
r755 *
1C
#4573050652
r756 *
b101010 A
#4573051317
r757 *
b101110 A
#4573051614
r758 *
0C
#4573051879
r759 *
0D
#4573052064
r760 *
1D
#4573054105
r761 *
1C
#4573054106
r762 *
b101111 A
#4573054163
r763 *
b1111111 A
#4573054164
r764 *
b1110101 A
#4573054165
r765 *
b1010101 A
#4573054174
r766 *
0D
#4573054751
r767 *
1D
#4573055040
r768 *
0C
#4573055305
r769 *
0D
#4573055498
r770 *
1D
#4573056787
r771 *
1C
#4573056788
r772 *
b11011111 A
#4573056845
r773 *
b11111111 A
#4573056846
r774 *
b11101010 A
#4573057439
r775 *
b10101010 A
#4573057736
r776 *
0C
#4573058001
r777 *
0D
#4573058186
r778 *
1D
#4573060163
r779 *
1C
#4573060460
r780 *
0C
#4573060725
r781 *
0D
#4573060918
r782 *
1D
#4573063271
r783 *
1C
#4573063280
r784 *
b10 A
#4573063289
r785 *
0D
#4573063866
r786 *
1D
#4573064155
r787 *
0C
#4573064420
r788 *
0D
#4573064613
r789 *
1D
#4573066718
r790 *
1C
#4573067327
r791 *
b0 A
#4573067624
r792 *
0C
#4573067889
r793 *
0D
#4573068082
r794 *
1D
#4573069363
r795 *
1C
#4573069364
r796 *
b10000000 A
#4573070037
r797 *
b11000000 A
#4573070326
r798 *
0C
#4573070591
r799 *
0D
#4573070784
r800 *
1D
#4573093249
r801 *
1C
#4573093250
r802 *
0E
#4573661835
r803 *
b0 B
1E
#4573717172
r804 *
b10 B
#4573717237
r805 *
b11010101 A
#4573717838
r806 *
b1010101 A
#4573718079
r807 *
0C
#4573718352
r808 *
0D
#4573718577
r809 *
1D
#4573720562
r810 *
1C
#4573720803
r811 *
0C
#4573721068
r812 *
0D
#4573721301
r813 *
1D
#4573744982
r814 *
1C
#4573744983
r815 *
b0 B
#4573744992
r816 *
0E
#4573954145
r817 *
1E
#4577694506
r818 *
b1 B
#4577694563
r819 *
b1011101 A
#4577694564
r820 *
b1011000 A
#4577695165
r821 *
b1000 A
#4577695350
r822 *
0C
#4577695623
r823 *
0D
#4577695904
r824 *
1D
#4577697273
r825 *
1C
#4577697882
r826 *
b0 A
#4577698067
r827 *
0C
#4577698332
r828 *
0D
#4577698621
r829 *
1D
#4577700670
r830 *
1C
#4577701343
r831 *
b101110 A
#4577701536
r832 *
0C
#4577701801
r833 *
0D
#4577702082
r834 *
1D
#4577703379
r835 *
1C
#4577703380
r836 *
b101111 A
#4577703437
r837 *
b1111111 A
#4577703438
r838 *
b1110101 A
#4577703439
r839 *
b1010101 A
#4577703448
r840 *
0D
#4577704025
r841 *
1D
#4577704210
r842 *
0C
#4577704475
r843 *
0D
#4577704764
r844 *
1D
#4577706061
r845 *
1C
#4577706118
r846 *
b11110101 A
#4577706119
r847 *
b11110001 A
#4577706720
r848 *
b10100001 A
#4577706913
r849 *
0C
#4577707178
r850 *
0D
#4577707467
r851 *
1D
#4577708764
r852 *
1C
#4577708765
r853 *
b11111011 A
#4577709430
r854 *
b11111111 A
#4577709615
r855 *
0C
#4577709888
r856 *
0D
#4577710169
r857 *
1D
#4577712538
r858 *
1C
#4577712539
r859 *
b10000010 A
#4577712556
r860 *
b10 A
0D
#4577713133
r861 *
1D
#4577713318
r862 *
0C
#4577713583
r863 *
0D
#4577713872
r864 *
1D
#4577715985
r865 *
1C
#4577716594
r866 *
b0 A
#4577716787
r867 *
0C
#4577717052
r868 *
0D
#4577717333
r869 *
1D
#4577718630
r870 *
1C
#4577718631
r871 *
b10000000 A
#4577719304
r872 *
b11000000 A
#4577719489
r873 *
0C
#4577719754
r874 *
0D
#4577720043
r875 *
1D
#4577743660
r876 *
1C
#4577743661
r877 *
0E
#4578299494
r878 *
b0 B
1E
#4578299495
r879 *
b11 B
#4578360176
r880 *
0E
#4578360209
r881 *
0G
#4578363602
r882 *
b10000001 A
#4578363835
r883 *
0C
#4578363836
r884 *
b1 A
#4578363901
r885 *
b1010101 A
#4578364174
r886 *
0D
#4578364575
r887 *
1D
#4578375552
r888 *
1C
#4578375873
r889 *
0C
#4578376138
r890 *
0D
#4578376547
r891 *
1D
#4578379028
r892 *
1C
#4578379261
r893 *
0C
#4578379262
r894 *
b1010001 A
#4578379263
r895 *
0D
#4578379264
r896 *
b1000001 A
1D
