SignalCaptures/P8000_WDC_CMD_22_OK.vcd
$comment Created in LWLA Logic Analyzer $end
$date 02.01.2016 00:28:15 $end
$timescale 1 ns $end
$scope module LWLA  $end
$var real 1 * sample $end
$var reg 8 A Data[7:0] $end
$var reg 3 B Status[2:0] $end
$var reg 1 C /RDY $end
$var reg 1 D /ASTB $end
$var reg 1 E /TR $end
$var reg 1 F /RST $end
$var reg 1 G /TE $end
$upscope $end
$enddefinitions $end
#0
r0 *
b0 A
b1 B
1C
1D
1E
1F
0G
#1
r1 *
#2
r2 *
#3
r3 *
#4
r4 *
#5
r5 *
#6
r6 *
#717572879
r7 *
#717606792
r8 *
1G
#717606793
r9 *
b10 A
#717607466
r10 *
b100010 A
#717607747
r11 *
0C
#717608012
r12 *
0D
#717608205
r13 *
1D
#717609566
r14 *
1C
#717609567
r15 *
b100000 A
#717610168
r16 *
b0 A
#717610457
r17 *
0C
#717610722
r18 *
0D
#717610915
r19 *
1D
#717612892
r20 *
1C
#717613173
r21 *
0C
#717613438
r22 *
0D
#717613631
r23 *
1D
#717616360
r24 *
1C
#717616649
r25 *
0C
#717616914
r26 *
0D
#717617107
r27 *
1D
#717619084
r28 *
1C
#717619365
r29 *
0C
#717619630
r30 *
0D
#717619831
r31 *
1D
#717621808
r32 *
1C
#717622089
r33 *
0C
#717622354
r34 *
0D
#717622547
r35 *
1D
#717625524
r36 *
1C
#717625805
r37 *
0C
#717626078
r38 *
0D
#717626271
r39 *
1D
#717628320
r40 *
1C
#717628993
r41 *
b10 A
#717629274
r42 *
0C
#717629539
r43 *
0D
#717629732
r44 *
1D
#717631101
r45 *
1C
#717631702
r46 *
b0 A
#717631991
r47 *
0C
#717632256
r48 *
0D
#717632449
r49 *
1D
#717655162
r50 *
1C
#717655163
r51 *
b0 B
0E
#717910076
r52 *
1E
#717962909
r53 *
b10 B
#717963582
r54 *
b100001 A
#717963839
r55 *
0C
#717964104
r56 *
0D
#717964321
r57 *
1D
#717965370
r58 *
1C
#717965427
r59 *
b100011 A
#717965428
r60 *
b100010 A
#717966029
r61 *
b10 A
#717966286
r62 *
0C
#717966551
r63 *
0D
#717966776
r64 *
1D
#717967825
r65 *
1C
#717967882
r66 *
b1011010 A
#717968491
r67 *
b1011000 A
#717968748
r68 *
0C
#717969013
r69 *
0D
#717969230
r70 *
1D
#717970343
r71 *
1C
#717970344
r72 *
b1010000 A
#717970945
r73 *
b0 A
#717971202
r74 *
0C
#717971467
r75 *
0D
#717971692
r76 *
1D
#717973485
r77 *
1C
#717973486
r78 *
b1001 A
#717974151
r79 *
b1111101 A
#717974408
r80 *
0C
#717974673
r81 *
0D
#717974898
r82 *
1D
#717975947
r83 *
1C
#717976004
r84 *
b1111111 A
#717976005
r85 *
b1111010 A
#717976606
r86 *
b101010 A
#717976863
r87 *
0C
#717977128
r88 *
0D
#717977345
r89 *
1D
#717978394
r90 *
1C
#717978459
r91 *
b11101010 A
#717979060
r92 *
b11000010 A
#717979317
r93 *
0C
#717979582
r94 *
0D
#717979807
r95 *
1D
#717980856
r96 *
1C
#717980913
r97 *
b11111010 A
#717981522
r98 *
b11111000 A
#717981771
r99 *
0C
#717982044
r100 *
0D
#717982261
r101 *
1D
#717983310
r102 *
1C
#717983375
r103 *
b11111100 A
#717983976
r104 *
b110100 A
#717984233
r105 *
0C
#717984498
r106 *
0D
#717984715
r107 *
1D
#717985764
r108 *
1C
#717985829
r109 *
b110101 A
#717985830
r110 *
b1 A
#717985831
r111 *
0D
#717986424
r112 *
1D
#717986673
r113 *
0C
#717986946
r114 *
0D
#717987163
r115 *
1D
#717989028
r116 *
1C
#717989637
r117 *
b0 A
#717989886
r118 *
0C
#717990159
r119 *
0D
#717990376
r120 *
1D
#717991425
r121 *
1C
#717992098
r122 *
b1100 A
#717992355
r123 *
0C
#717992620
r124 *
0D
#717992845
r125 *
1D
#717993886
r126 *
1C
#717993887
r127 *
b1101 A
#717993944
r128 *
b10101101 A
#717994553
r129 *
b10100001 A
#717994802
r130 *
0C
#717995067
r131 *
0D
#717995292
r132 *
1D
#717996341
r133 *
1C
#717996406
r134 *
b10101111 A
#717997007
r135 *
b101111 A
#717997264
r136 *
0C
#717997529
r137 *
0D
#717997746
r138 *
1D
#717998859
r139 *
1C
#717998860
r140 *
b101011 A
#717998861
r141 *
b100001 A
#717998862
r142 *
0D
#717999447
r143 *
1D
#717999704
r144 *
0C
#717999969
r145 *
0D
#718000194
r146 *
1D
#718001995
r147 *
1C
#718002052
r148 *
b101111 A
#718002661
r149 *
b1110 A
#718002910
r150 *
0C
#718003175
r151 *
0D
#718003400
r152 *
1D
#718004513
r153 *
1C
#718004522
r154 *
b10 A
#718004523
r155 *
0D
#718005108
r156 *
1D
#718005365
r157 *
0C
#718005630
r158 *
0D
#718005847
r159 *
1D
#718006968
r160 *
1C
#718007577
r161 *
b0 A
#718007826
r162 *
0C
#718008091
r163 *
0D
#718008316
r164 *
1D
#718009365
r165 *
1C
#718010038
r166 *
b10111010 A
#718010287
r167 *
0C
#718010560
r168 *
0D
#718010777
r169 *
1D
#718011826
r170 *
1C
#718011891
r171 *
b10111011 A
#718011900
r172 *
b10001 A
#718011901
r173 *
0D
#718012478
r174 *
1D
#718012735
r175 *
0C
#718013000
r176 *
0D
#718013225
r177 *
1D
#718014274
r178 *
1C
#718014331
r179 *
b11111 A
#718014332
r180 *
b11110 A
#718014933
r181 *
b1110 A
#718015182
r182 *
0C
#718015447
r183 *
0D
#718015672
r184 *
1D
#718017473
r185 *
1C
#718017530
r186 *
b101110 A
#718018139
r187 *
b100000 A
#718018396
r188 *
0C
#718018653
r189 *
0D
#718018878
r190 *
1D
#718019927
r191 *
1C
#718019928
r192 *
b101010 A
#718019985
r193 *
b111110 A
#718020586
r194 *
b11110 A
#718020843
r195 *
0C
#718021108
r196 *
0D
#718021333
r197 *
1D
#718022382
r198 *
1C
#718022439
r199 *
b11111110 A
#718023048
r200 *
b11111000 A
#718023297
r201 *
0C
#718023562
r202 *
0D
#718023787
r203 *
1D
#718024836
r204 *
1C
#718024901
r205 *
b11111001 A
#718025502
r206 *
b10010001 A
#718025759
r207 *
0C
#718026024
r208 *
0D
#718026249
r209 *
1D
#718027298
r210 *
1C
#718027355
r211 *
b11110111 A
#718027964
r212 *
b11110110 A
#718028213
r213 *
0C
#718028478
r214 *
0D
#718028703
r215 *
1D
#718029752
r216 *
1C
#718029809
r217 *
b11110111 A
#718029810
r218 *
b11110011 A
#718029811
r219 *
b10010001 A
#718029812
r220 *
0D
#718030397
r221 *
1D
#718030654
r222 *
0C
#718030919
r223 *
0D
#718031144
r224 *
1D
#718032937
r225 *
1C
#718032938
r226 *
b11110001 A
#718032987
r227 *
b11110101 A
#718033596
r228 *
b11110100 A
#718033853
r229 *
0C
#718034118
r230 *
0D
#718034343
r231 *
1D
#718035392
r232 *
1C
#718035457
r233 *
b11111101 A
#718035466
r234 *
b10001101 A
#718035467
r235 *
0D
#718036044
r236 *
1D
#718036293
r237 *
0C
#718036558
r238 *
0D
#718036783
r239 *
1D
#718037832
r240 *
1C
#718037889
r241 *
b11001101 A
#718037890
r242 *
b11001100 A
#718038491
r243 *
b1000100 A
#718038740
r244 *
0C
#718039013
r245 *
0D
#718039238
r246 *
1D
#718040287
r247 *
1C
#718040960
r248 *
b11101110 A
#718041209
r249 *
0C
#718041474
r250 *
0D
#718041699
r251 *
1D
#718042812
r252 *
1C
#718042813
r253 *
b11100010 A
#718042814
r254 *
b10 A
#718042823
r255 *
0D
#718043400
r256 *
1D
#718043649
r257 *
0C
#718043922
r258 *
0D
#718044147
r259 *
1D
#718045940
r260 *
1C
#718045941
r261 *
b110010 A
#718045998
r262 *
b110110 A
#718046599
r263 *
b110100 A
#718046848
r264 *
0C
#718047121
r265 *
0D
#718047346
r266 *
1D
#718048395
r267 *
1C
#718048452
r268 *
b111110 A
#718048469
r269 *
b1110 A
#718048470
r270 *
0D
#718049047
r271 *
1D
#718049296
r272 *
0C
#718049561
r273 *
0D
#718049786
r274 *
1D
#718050835
r275 *
1C
#718050892
r276 *
b1111 A
#718050893
r277 *
b11 A
#718050894
r278 *
b1 A
#718050895
r279 *
0D
#718051480
r280 *
1D
#718051729
r281 *
0C
#718051994
r282 *
0D
#718052219
r283 *
1D
#718053268
r284 *
1C
#718053269
r285 *
b10000011 A
#718053942
r286 *
b10010111 A
#718054191
r287 *
0C
#718054456
r288 *
0D
#718054681
r289 *
1D
#718055730
r290 *
1C
#718055787
r291 *
b10110111 A
#718055788
r292 *
b10110100 A
#718056389
r293 *
b110100 A
#718056638
r294 *
0C
#718056903
r295 *
0D
#718057128
r296 *
1D
#718058177
r297 *
1C
#718058242
r298 *
b111100 A
#718058243
r299 *
b1000 A
#718058252
r300 *
0D
#718058829
r301 *
1D
#718059078
r302 *
0C
#718059351
r303 *
0D
#718059576
r304 *
1D
#718061369
r305 *
1C
#718061434
r306 *
b1001 A
#718062043
r307 *
b1 A
#718062284
r308 *
0C
#718062557
r309 *
0D
#718062782
r310 *
1D
#718063831
r311 *
1C
#718063888
r312 *
b10010001 A
#718064497
r313 *
b10010000 A
#718064746
r314 *
0C
#718065011
r315 *
0D
#718065236
r316 *
1D
#718066285
r317 *
1C
#718066286
r318 *
b10010011 A
#718066959
r319 *
b11011111 A
#718067200
r320 *
0C
#718067465
r321 *
0D
#718067698
r322 *
1D
#718068747
r323 *
1C
#718068804
r324 *
b11111111 A
#718068805
r325 *
b11111100 A
#718069406
r326 *
b1101100 A
#718069655
r327 *
0C
#718069920
r328 *
0D
#718070145
r329 *
1D
#718071194
r330 *
1C
#718071251
r331 *
b1101101 A
#718071252
r332 *
b1101001 A
#718071253
r333 *
b100001 A
#718071254
r334 *
0D
#718071839
r335 *
1D
#718072088
r336 *
0C
#718072353
r337 *
0D
#718072586
r338 *
1D
#718073635
r339 *
1C
#718073692
r340 *
b101011 A
#718073693
r341 *
b101010 A
#718074294
r342 *
b1010 A
#718074543
r343 *
0C
#718074808
r344 *
0D
#718075033
r345 *
1D
#718076834
r346 *
1C
#718076835
r347 *
b11111010 A
#718077500
r348 *
b11111110 A
#718077749
r349 *
0C
#718078014
r350 *
0D
#718078239
r351 *
1D
#718079352
r352 *
1C
#718079353
r353 *
b11111010 A
#718079954
r354 *
b101000 A
#718080203
r355 *
0C
#718080468
r356 *
0D
#718080701
r357 *
1D
#718081742
r358 *
1C
#718081743
r359 *
b101001 A
#718081800
r360 *
b10101001 A
#718082409
r361 *
b10100001 A
#718082658
r362 *
0C
#718082923
r363 *
0D
#718083148
r364 *
1D
#718084197
r365 *
1C
#718084870
r366 *
b10101011 A
#718085119
r367 *
0C
#718085384
r368 *
0D
#718085617
r369 *
1D
#718086730
r370 *
1C
#718087339
r371 *
b10100001 A
#718087580
r372 *
0C
#718087845
r373 *
0D
#718088078
r374 *
1D
#718089127
r375 *
1C
#718089128
r376 *
b10111001 A
#718089177
r377 *
b10111101 A
#718089786
r378 *
b10111100 A
#718090035
r379 *
0C
#718090300
r380 *
0D
#718090533
r381 *
1D
#718092326
r382 *
1C
#718092327
r383 *
b10111111 A
#718092384
r384 *
b11111111 A
#718092985
r385 *
b11011111 A
#718093234
r386 *
0C
#718093499
r387 *
0D
#718093732
r388 *
1D
#718094781
r389 *
1C
#718094838
r390 *
b11111111 A
#718094839
r391 *
b11111001 A
#718095440
r392 *
b1101001 A
#718095937
r393 *
0C
#718096202
r394 *
0D
#718096427
r395 *
1D
#718097228
r396 *
1C
#718097285
r397 *
b1101011 A
#718097286
r398 *
b1101010 A
#718097887
r399 *
b1010 A
#718098136
r400 *
0C
#718098401
r401 *
0D
#718098626
r402 *
1D
#718099747
r403 *
1C
#718100356
r404 *
b1000 A
#718100597
r405 *
0C
#718100862
r406 *
0D
#718101095
r407 *
1D
#718102144
r408 *
1C
#718102817
r409 *
b1010 A
#718103066
r410 *
0C
#718103331
r411 *
0D
#718103556
r412 *
1D
#718106037
r413 *
1C
#718106286
r414 *
0C
#718106551
r415 *
0D
#718106784
r416 *
1D
#718107833
r417 *
1C
#718107890
r418 *
b11101110 A
#718108499
r419 *
b11100110 A
#718108740
r420 *
0C
#718109005
r421 *
0D
#718109238
r422 *
1D
#718110287
r423 *
1C
#718110344
r424 *
b11101110 A
#718110345
r425 *
b11101010 A
#718110346
r426 *
b1010 A
#718110355
r427 *
0D
#718110932
r428 *
1D
#718111181
r429 *
0C
#718111446
r430 *
0D
#718111671
r431 *
1D
#718113408
r432 *
1C
#718113649
r433 *
0C
#718113914
r434 *
0D
#718114147
r435 *
1D
#718115260
r436 *
1C
#718115869
r437 *
b1000 A
#718116110
r438 *
0C
#718116383
r439 *
0D
#718116608
r440 *
1D
#718117657
r441 *
1C
#718117658
r442 *
b1011 A
#718118323
r443 *
b101111 A
#718118572
r444 *
0C
#718118837
r445 *
0D
#718119070
r446 *
1D
#718121551
r447 *
1C
#718121792
r448 *
0C
#718122057
r449 *
0D
#718122290
r450 *
1D
#718123339
r451 *
1C
#718123396
r452 *
b11101111 A
#718123397
r453 *
b11101110 A
#718123998
r454 *
b11100110 A
#718124239
r455 *
0C
#718124512
r456 *
0D
#718124737
r457 *
1D
#718125786
r458 *
1C
#718125843
r459 *
b11100111 A
#718125844
r460 *
b11100011 A
#718125845
r461 *
b11 A
#718125846
r462 *
0D
#718125847
r463 *
1D
#718125848
r464 *
0D
#718126417
r465 *
1D
#718126666
r466 *
0C
#718126931
r467 *
0D
#718127164
r468 *
1D
#718128213
r469 *
1C
#718128270
r470 *
b101111 A
#718128879
r471 *
b101110 A
#718129120
r472 *
0C
#718129385
r473 *
0D
#718129618
r474 *
1D
#718130667
r475 *
1C
#718130724
r476 *
b11101110 A
#718130725
r477 *
b11101010 A
#718130726
r478 *
b11001000 A
#718130727
r479 *
0D
#718131312
r480 *
1D
#718131561
r481 *
0C
#718131826
r482 *
0D
#718132059
r483 *
1D
#718133100
r484 *
1C
#718133101
r485 *
b11001001 A
#718133166
r486 *
b11101001 A
#718133767
r487 *
b10101001 A
#718134008
r488 *
0C
#718134273
r489 *
0D
#718134506
r490 *
1D
#718136307
r491 *
1C
#718136364
r492 *
b11101001 A
#718136365
r493 *
b11100000 A
#718136366
r494 *
b11000000 A
#718136375
r495 *
0D
#718136952
r496 *
1D
#718137193
r497 *
0C
#718137458
r498 *
0D
#718137691
r499 *
1D
#718138740
r500 *
1C
#718139413
r501 *
b11101000 A
#718139654
r502 *
0C
#718139927
r503 *
0D
#718140160
r504 *
1D
#718141209
r505 *
1C
#718141266
r506 *
b11111110 A
#718141875
r507 *
b11110110 A
#718142116
r508 *
0C
#718142381
r509 *
0D
#718142614
r510 *
1D
#718143663
r511 *
1C
#718143728
r512 *
b11111111 A
#718143729
r513 *
b10001011 A
#718143730
r514 *
0D
#718144315
r515 *
1D
#718144556
r516 *
0C
#718144821
r517 *
0D
#718145062
r518 *
1D
#718146111
r519 *
1C
#718146168
r520 *
b10111111 A
#718146777
r521 *
b10111100 A
#718147018
r522 *
0C
#718147283
r523 *
0D
#718147516
r524 *
1D
#718149317
r525 *
1C
#718149374
r526 *
b11111110 A
#718149375
r527 *
b11110110 A
#718149976
r528 *
b11100110 A
#718150217
r529 *
0C
#718150482
r530 *
0D
#718150715
r531 *
1D
#718151764
r532 *
1C
#718151821
r533 *
b11110110 A
#718152430
r534 *
b11110100 A
#718152671
r535 *
0C
#718152936
r536 *
0D
#718153177
r537 *
1D
#718154218
r538 *
1C
#718154219
r539 *
b11110101 A
#718154284
r540 *
b11111111 A
#718154885
r541 *
b11011111 A
#718155126
r542 *
0C
#718155391
r543 *
0D
#718155624
r544 *
1D
#718156737
r545 *
1C
#718156738
r546 *
b11010011 A
#718156739
r547 *
b10000011 A
#718156740
r548 *
0D
#718157325
r549 *
1D
#718157566
r550 *
0C
#718157831
r551 *
0D
#718158064
r552 *
1D
#718159113
r553 *
1C
#718159114
r554 *
b10001011 A
#718159171
r555 *
b11101011 A
#718159780
r556 *
b11101000 A
#718160021
r557 *
0C
#718160286
r558 *
0D
#718160519
r559 *
1D
#718161568
r560 *
1C
#718161625
r561 *
b11111001 A
#718162234
r562 *
b11110001 A
#718162475
r563 *
0C
#718162740
r564 *
0D
#718162973
r565 *
1D
#718164774
r566 *
1C
#718164775
r567 *
b11111011 A
#718164832
r568 *
b11111111 A
#718165433
r569 *
b11011111 A
#718165674
r570 *
0C
#718165939
r571 *
0D
#718166180
r572 *
1D
#718167293
r573 *
1C
#718167902
r574 *
b10000101 A
#718168143
r575 *
0C
#718168408
r576 *
0D
#718168641
r577 *
1D
#718169690
r578 *
1C
#718169747
r579 *
b10001101 A
#718169748
r580 *
b10001100 A
#718170349
r581 *
b1100 A
#718170590
r582 *
0C
#718170855
r583 *
0D
#718171088
r584 *
1D
#718172137
r585 *
1C
#718172138
r586 *
b10011100 A
#718172195
r587 *
b10111100 A
#718172796
r588 *
b10111000 A
#718173037
r589 *
0C
#718173302
r590 *
0D
#718173543
r591 *
1D
#718174584
r592 *
1C
#718174585
r593 *
b10111001 A
#718175258
r594 *
b10111101 A
#718175499
r595 *
0C
#718175764
r596 *
0D
#718175997
r597 *
1D
#718177046
r598 *
1C
#718177103
r599 *
b10111111 A
#718177104
r600 *
b10111011 A
#718177105
r601 *
b10110010 A
#718177106
r602 *
0D
#718177691
r603 *
1D
#718177932
r604 *
0C
#718178197
r605 *
0D
#718178438
r606 *
1D
#718180231
r607 *
1C
#718180232
r608 *
b10111011 A
#718180297
r609 *
b11111111 A
#718180898
r610 *
b11011111 A
#718181131
r611 *
0C
#718181396
r612 *
0D
#718181637
r613 *
1D
#718182750
r614 *
1C
#718182751
r615 *
b11010011 A
#718183352
r616 *
b11000001 A
#718183593
r617 *
0C
#718183858
r618 *
0D
#718184091
r619 *
1D
#718185140
r620 *
1C
#718185141
r621 *
b11001011 A
#718185198
r622 *
b11101111 A
#718185799
r623 *
b11101110 A
#718186040
r624 *
0C
#718186305
r625 *
0D
#718186546
r626 *
1D
#718187595
r627 *
1C
#718187652
r628 *
b11111111 A
#718187653
r629 *
b11111011 A
#718188254
r630 *
b111011 A
#718188495
r631 *
0C
#718188760
r632 *
0D
#718188993
r633 *
1D
#718190050
r634 *
1C
#718190099
r635 *
b111111 A
#718190100
r636 *
b111110 A
#718190109
r637 *
b1100 A
#718190110
r638 *
0D
#718190687
r639 *
1D
#718190928
r640 *
0C
#718191193
r641 *
0D
#718191434
r642 *
1D
#718193227
r643 *
1C
#718193292
r644 *
b10101100 A
#718193893
r645 *
b10100100 A
#718194134
r646 *
0C
#718194399
r647 *
0D
#718194640
r648 *
1D
#718195689
r649 *
1C
#718196362
r650 *
b11100110 A
#718196603
r651 *
0C
#718196868
r652 *
0D
#718197101
r653 *
1D
#718198150
r654 *
1C
#718198215
r655 *
b11110111 A
#718198216
r656 *
b10011 A
#718198233
r657 *
0D
#718198802
r658 *
1D
#718199043
r659 *
0C
#718199308
r660 *
0D
#718199549
r661 *
1D
#718200598
r662 *
1C
#718200655
r663 *
b10011111 A
#718200656
r664 *
b10011101 A
#718201257
r665 *
b10001101 A
#718201490
r666 *
0C
#718201755
r667 *
0D
#718201996
r668 *
1D
#718203045
r669 *
1C
#718203102
r670 *
b11011101 A
#718203103
r671 *
b11011100 A
#718203704
r672 *
b11010100 A
#718203945
r673 *
0C
#718204210
r674 *
0D
#718204443
r675 *
1D
#718205492
r676 *
1C
#718205493
r677 *
b11010110 A
#718205550
r678 *
b11110110 A
#718206159
r679 *
b11100110 A
#718206392
r680 *
0C
#718206657
r681 *
0D
#718206898
r682 *
1D
#718208699
r683 *
1C
#718208756
r684 *
b11110110 A
#718209365
r685 *
b110010 A
#718209598
r686 *
0C
#718209863
r687 *
0D
#718210104
r688 *
1D
#718211153
r689 *
1C
#718211154
r690 *
b11111011 A
#718211211
r691 *
b11111111 A
#718211812
r692 *
b11011111 A
#718212053
r693 *
0C
#718212318
r694 *
0D
#718212559
r695 *
1D
#718213672
r696 *
1C
#718214281
r697 *
b10010110 A
#718214514
r698 *
0C
#718214779
r699 *
0D
#718215020
r700 *
1D
#718216069
r701 *
1C
#718216134
r702 *
b11111110 A
#718216735
r703 *
b11101110 A
#718216968
r704 *
0C
#718217241
r705 *
0D
#718217474
r706 *
1D
#718218523
r707 *
1C
#718218524
r708 *
b11101111 A
#718218581
r709 *
b11111111 A
#718219190
r710 *
b110101 A
#718219423
r711 *
0C
#718219688
r712 *
0D
#718219929
r713 *
1D
#718220978
r714 *
1C
#718221043
r715 *
b10110111 A
#718221644
r716 *
b10010111 A
#718221877
r717 *
0C
#718222142
r718 *
0D
#718222383
r719 *
1D
#718224184
r720 *
1C
#718224241
r721 *
b10011111 A
#718224850
r722 *
b10011011 A
#718225091
r723 *
0C
#718225348
r724 *
0D
#718225589
r725 *
1D
#718226646
r726 *
1C
#718226703
r727 *
b10011111 A
#718227312
r728 *
b10001101 A
#718227545
r729 *
0C
#718227810
r730 *
0D
#718228051
r731 *
1D
#718229100
r732 *
1C
#718229157
r733 *
b10111101 A
#718229766
r734 *
b10110100 A
#718229999
r735 *
0C
#718230264
r736 *
0D
#718230505
r737 *
1D
#718231554
r738 *
1C
#718231619
r739 *
b11110110 A
#718232220
r740 *
b11100110 A
#718232461
r741 *
0C
#718232726
r742 *
0D
#718232967
r743 *
1D
#718234008
r744 *
1C
#718234073
r745 *
b11100111 A
#718234074
r746 *
b10000111 A
#718234083
r747 *
b111 A
#718234084
r748 *
0D
#718234661
r749 *
1D
#718234894
r750 *
0C
#718235159
r751 *
0D
#718235400
r752 *
1D
#718236449
r753 *
1C
#718236514
r754 *
b10111111 A
#718237115
r755 *
b10111101 A
#718237348
r756 *
0C
#718237621
r757 *
0D
#718237862
r758 *
1D
#718239655
r759 *
1C
#718239720
r760 *
b10111111 A
#718239729
r761 *
b1110 A
#718239738
r762 *
0D
#718240307
r763 *
1D
#718240548
r764 *
0C
#718240813
r765 *
0D
#718241054
r766 *
1D
#718242103
r767 *
1C
#718242160
r768 *
b10101111 A
#718242161
r769 *
b10100011 A
#718242762
r770 *
b10100001 A
#718242995
r771 *
0C
#718243260
r772 *
0D
#718243501
r773 *
1D
#718244550
r774 *
1C
#718244615
r775 *
b10110001 A
#718245216
r776 *
b10010001 A
#718245449
r777 *
0C
#718245722
r778 *
0D
#718245963
r779 *
1D
#718247012
r780 *
1C
#718247069
r781 *
b10110001 A
#718247678
r782 *
b10100001 A
#718247911
r783 *
0C
#718248176
r784 *
0D
#718248417
r785 *
1D
#718249466
r786 *
1C
#718249523
r787 *
b10100011 A
#718250132
r788 *
b10100010 A
#718250365
r789 *
0C
#718250630
r790 *
0D
#718250879
r791 *
1D
#718252672
r792 *
1C
#718253345
r793 *
b10111010 A
#718253578
r794 *
0C
#718253851
r795 *
0D
#718254092
r796 *
1D
#718255141
r797 *
1C
#718255198
r798 *
b10111110 A
#718255199
r799 *
b10110110 A
#718255200
r800 *
b10110 A
#718255209
r801 *
0D
#718255786
r802 *
1D
#718256019
r803 *
0C
#718256284
r804 *
0D
#718256525
r805 *
1D
#718257638
r806 *
1C
#718257639
r807 *
b10010 A
#718258240
r808 *
b0 A
#718258473
r809 *
0C
#718258738
r810 *
0D
#718258987
r811 *
1D
#718260036
r812 *
1C
#718260709
r813 *
b10101110 A
#718260942
r814 *
0C
#718261207
r815 *
0D
#718261448
r816 *
1D
#718262497
r817 *
1C
#718263170
r818 *
b11101110 A
#718263403
r819 *
0C
#718263668
r820 *
0D
#718263909
r821 *
1D
#718264958
r822 *
1C
#718265639
r823 *
b11101111 A
#718265864
r824 *
0C
#718266129
r825 *
0D
#718266378
r826 *
1D
#718268235
r827 *
1C
#718268236
r828 *
b11101011 A
#718268845
r829 *
b10100001 A
#718269078
r830 *
0C
#718269343
r831 *
0D
#718269584
r832 *
1D
#718270633
r833 *
1C
#718270690
r834 *
b10101011 A
#718270691
r835 *
b10101010 A
#718271292
r836 *
b101010 A
#718271525
r837 *
0C
#718271790
r838 *
0D
#718272031
r839 *
1D
#718273080
r840 *
1C
#718273145
r841 *
b10101011 A
#718273754
r842 *
b10101001 A
#718273979
r843 *
0C
#718274244
r844 *
0D
#718274493
r845 *
1D
#718275542
r846 *
1C
#718275607
r847 *
b10111101 A
#718276208
r848 *
b10011101 A
#718276441
r849 *
0C
#718276706
r850 *
0D
#718276947
r851 *
1D
#718277996
r852 *
1C
#718278061
r853 *
b10011111 A
#718278662
r854 *
b1011 A
#718278895
r855 *
0C
#718279160
r856 *
0D
#718279409
r857 *
1D
#718280522
r858 *
1C
#718281131
r859 *
b1001 A
#718281364
r860 *
0C
#718281629
r861 *
0D
#718281870
r862 *
1D
#718283671
r863 *
1C
#718283672
r864 *
b11111001 A
#718283721
r865 *
b11111101 A
#718284330
r866 *
b11111100 A
#718284563
r867 *
0C
#718284828
r868 *
0D
#718285069
r869 *
1D
#718286182
r870 *
1C
#718286183
r871 *
b11111000 A
#718286184
r872 *
b0 A
#718286193
r873 *
0D
#718286770
r874 *
1D
#718287003
r875 *
0C
#718287268
r876 *
0D
#718287517
r877 *
1D
#718288566
r878 *
1C
#718289239
r879 *
b11101001 A
#718289472
r880 *
0C
#718289737
r881 *
0D
#718289978
r882 *
1D
#718291027
r883 *
1C
#718291028
r884 *
b11101011 A
#718291077
r885 *
b11101111 A
#718291686
r886 *
b11101110 A
#718291919
r887 *
0C
#718292184
r888 *
0D
#718292433
r889 *
1D
#718293546
r890 *
1C
#718294155
r891 *
b11101000 A
#718294380
r892 *
0C
#718294653
r893 *
0D
#718294894
r894 *
1D
#718296695
r895 *
1C
#718296752
r896 *
b11111001 A
#718297361
r897 *
b11110001 A
#718297594
r898 *
0C
#718297859
r899 *
0D
#718298100
r900 *
1D
#718299149
r901 *
1C
#718299150
r902 *
b11111001 A
#718299207
r903 *
b11111101 A
#718299808
r904 *
b10001101 A
#718300041
r905 *
0C
#718300306
r906 *
0D
#718300555
r907 *
1D
#718301604
r908 *
1C
#718301661
r909 *
b11011101 A
#718302270
r910 *
b11010100 A
#718302503
r911 *
0C
#718302760
r912 *
0D
#718303009
r913 *
1D
#718304058
r914 *
1C
#718304123
r915 *
b11110110 A
#718304724
r916 *
b11100110 A
#718304957
r917 *
0C
#718305222
r918 *
0D
#718305471
r919 *
1D
#718306512
r920 *
1C
#718306513
r921 *
b11100111 A
#718306578
r922 *
b11111111 A
#718306587
r923 *
b11111 A
#718306588
r924 *
0D
#718307165
r925 *
1D
#718307390
r926 *
0C
#718307655
r927 *
0D
#718307904
r928 *
1D
#718308953
r929 *
1C
#718309626
r930 *
b11011111 A
#718309859
r931 *
0C
#718310124
r932 *
0D
#718310373
r933 *
1D
#718312166
r934 *
1C
#718312223
r935 *
b11111111 A
#718312224
r936 *
b11111011 A
#718312825
r937 *
b10101001 A
#718313058
r938 *
0C
#718313323
r939 *
0D
#718313572
r940 *
1D
#718314621
r941 *
1C
#718314678
r942 *
b11101111 A
#718315287
r943 *
b11101110 A
#718315512
r944 *
0C
#718315777
r945 *
0D
#718316026
r946 *
1D
#718317139
r947 *
1C
#718317140
r948 *
b11100010 A
#718317141
r949 *
b100010 A
#718317142
r950 *
0D
#718317727
r951 *
1D
#718317960
r952 *
0C
#718318225
r953 *
0D
#718318466
r954 *
1D
#718319515
r955 *
1C
#718319516
r956 *
b100011 A
#718319573
r957 *
b101111 A
#718319574
r958 *
b101101 A
#718320175
r959 *
b1101 A
#718320400
r960 *
0C
#718320665
r961 *
0D
#718320914
r962 *
1D
#718321963
r963 *
1C
#718322020
r964 *
b10011101 A
#718322629
r965 *
b10010001 A
#718322854
r966 *
0C
#718323127
r967 *
0D
#718323368
r968 *
1D
#718324417
r969 *
1C
#718324418
r970 *
b10010011 A
#718324475
r971 *
b11110111 A
#718325076
r972 *
b11100111 A
#718325309
r973 *
0C
#718325574
r974 *
0D
#718325823
r975 *
1D
#718327688
r976 *
1C
#718327705
r977 *
b111 A
#718327706
r978 *
0D
#718328283
r979 *
1D
#718328508
r980 *
0C
#718328773
r981 *
0D
#718329022
r982 *
1D
#718330071
r983 *
1C
#718330128
r984 *
b11101111 A
#718330737
r985 *
b11101110 A
#718330962
r986 *
0C
#718331227
r987 *
0D
#718331476
r988 *
1D
#718332525
r989 *
1C
#718332590
r990 *
b11111110 A
#718332591
r991 *
b11010 A
#718332592
r992 *
0D
#718332593
r993 *
1D
#718332594
r994 *
0D
#718333171
r995 *
1D
#718333396
r996 *
0C
#718333661
r997 *
0D
#718333910
r998 *
1D
#718334959
r999 *
1C
#718335016
r1000 *
b1111011 A
#718335017
r1001 *
b1110011 A
#718335618
r1002 *
b1100001 A
#718335843
r1003 *
0C
#718336108
r1004 *
0D
#718336357
r1005 *
1D
#718337406
r1006 *
1C
#718337407
r1007 *
b11101011 A
#718337464
r1008 *
b11111011 A
#718338065
r1009 *
b10011011 A
#718338298
r1010 *
0C
#718338563
r1011 *
0D
#718338812
r1012 *
1D
#718340677
r1013 *
1C
#718340686
r1014 *
b0 A
#718340687
r1015 *
0D
#718341272
r1016 *
1D
#718341497
r1017 *
0C
#718341762
r1018 *
0D
#718342011
r1019 *
1D
#718343060
r1020 *
1C
#718343733
r1021 *
b10000 A
#718343958
r1022 *
0C
#718344223
r1023 *
0D
#718344472
r1024 *
1D
#718345521
r1025 *
1C
#718345586
r1026 *
b110001 A
#718346187
r1027 *
b100001 A
#718346420
r1028 *
0C
#718346685
r1029 *
0D
#718346934
r1030 *
1D
#718348047
r1031 *
1C
#718348656
r1032 *
b0 A
#718348881
r1033 *
0C
#718349146
r1034 *
0D
#718349395
r1035 *
1D
#718351124
r1036 *
1C
#718351349
r1037 *
0C
#718351622
r1038 *
0D
#718351871
r1039 *
1D
#718352912
r1040 *
1C
