SignalCaptures/P8000_Emulator_CMD_22_OK.vcd
$comment Created in LWLA Logic Analyzer $end
$date 02.01.2016 02:19:24 $end
$timescale 1 ns $end
$scope module LWLA  $end
$var real 1 * sample $end
$var reg 8 A Data[7:0] $end
$var reg 3 B Status[2:0] $end
$var reg 1 C /RDY $end
$var reg 1 D /ASTB $end
$var reg 1 E /TR $end
$var reg 1 F /RST $end
$var reg 1 G /TE $end
$upscope $end
$enddefinitions $end
#0
r0 *
b0 A
b1 B
1C
1D
1E
1F
0G
#1
r1 *
#2
r2 *
#3
r3 *
#4
r4 *
#5
r5 *
#6
r6 *
#1330690359
r7 *
#1330724280
r8 *
1G
#1330724953
r9 *
b100010 A
#1330725274
r10 *
0C
#1330725539
r11 *
0D
#1330725948
r12 *
1D
#1330727805
r13 *
1C
#1330727806
r14 *
b100000 A
#1330728407
r15 *
b0 A
#1330728816
r16 *
0C
#1330729073
r17 *
0D
#1330729402
r18 *
1D
#1330731131
r19 *
1C
#1330731556
r20 *
0C
#1330731813
r21 *
0D
#1330732126
r22 *
1D
#1330733855
r23 *
1C
#1330734128
r24 *
0C
#1330734393
r25 *
0D
#1330734594
r26 *
1D
#1330736571
r27 *
1C
#1330736868
r28 *
0C
#1330737133
r29 *
0D
#1330737318
r30 *
1D
#1330739295
r31 *
1C
#1330739608
r32 *
0C
#1330739865
r33 *
0D
#1330740290
r34 *
1D
#1330743763
r35 *
1C
#1330744132
r36 *
0C
#1330744397
r37 *
0D
#1330744758
r38 *
1D
#1330745807
r39 *
1C
#1330746480
r40 *
b10 A
#1330746865
r41 *
0C
#1330747130
r42 *
0D
#1330747475
r43 *
1D
#1330748588
r44 *
1C
#1330749197
r45 *
b0 A
#1330749598
r46 *
0C
#1330749863
r47 *
0D
#1330750184
r48 *
1D
#1330750785
r49 *
1C
#1330764714
r50 *
b0 B
#1330815707
r51 *
b10 B
#1330816388
r52 *
b100001 A
#1330816717
r53 *
0C
#1330816982
r54 *
0D
#1330817375
r55 *
1D
#1330818168
r56 *
1C
#1330818233
r57 *
b100011 A
#1330818842
r58 *
b10 A
#1330819115
r59 *
0C
#1330819380
r60 *
0D
#1330819581
r61 *
1D
#1330820630
r62 *
1C
#1330820687
r63 *
b1011010 A
#1330821296
r64 *
b1011000 A
#1330821681
r65 *
0C
#1330821946
r66 *
0D
#1330822291
r67 *
1D
#1330823156
r68 *
1C
#1330823765
r69 *
b0 A
#1330824086
r70 *
0C
#1330824351
r71 *
0D
#1330824752
r72 *
1D
#1330825553
r73 *
1C
#1330825554
r74 *
b1111001 A
#1330826219
r75 *
b1111101 A
#1330826652
r76 *
0C
#1330826909
r77 *
0D
#1330827214
r78 *
1D
#1330828007
r79 *
1C
#1330828072
r80 *
b1111111 A
#1330828681
r81 *
b101010 A
#1330829050
r82 *
0C
#1330829315
r83 *
0D
#1330829668
r84 *
1D
#1330831213
r85 *
1C
#1330831214
r86 *
b10101010 A
#1330831271
r87 *
b11101010 A
#1330831880
r88 *
b11000010 A
#1330832257
r89 *
0C
#1330832514
r90 *
0D
#1330832867
r91 *
1D
#1330833668
r92 *
1C
#1330833725
r93 *
b11111010 A
#1330834334
r94 *
b11111000 A
#1330834655
r95 *
0C
#1330834920
r96 *
0D
#1330835329
r97 *
1D
#1330836130
r98 *
1C
#1330836187
r99 *
b11111100 A
#1330836796
r100 *
b110100 A
#1330837213
r101 *
0C
#1330837478
r102 *
0D
#1330837783
r103 *
1D
#1330838584
r104 *
1C
#1330838641
r105 *
b110101 A
#1330838642
r106 *
b100001 A
#1330839243
r107 *
b1 A
#1330839612
r108 *
0C
#1330839869
r109 *
0D
#1330840238
r110 *
1D
#1330841095
r111 *
1C
#1330841704
r112 *
b0 A
#1330842017
r113 *
0C
#1330842282
r114 *
0D
#1330842699
r115 *
1D
#1330844244
r116 *
1C
#1330844245
r117 *
b1000 A
#1330844918
r118 *
b1100 A
#1330845231
r119 *
0C
#1330845488
r120 *
0D
#1330845905
r121 *
1D
#1330846706
r122 *
1C
#1330846763
r123 *
b10101101 A
#1330847372
r124 *
b10100001 A
#1330847789
r125 *
0C
#1330848054
r126 *
0D
#1330848367
r127 *
1D
#1330849160
r128 *
1C
#1330849161
r129 *
b10101011 A
#1330849218
r130 *
b10101111 A
#1330849827
r131 *
b101111 A
#1330850180
r132 *
0C
#1330850445
r133 *
0D
#1330850814
r134 *
1D
#1330851679
r135 *
1C
#1330852288
r136 *
b100001 A
#1330852593
r137 *
0C
#1330852850
r138 *
0D
#1330853035
r139 *
1D
#1330854076
r140 *
1C
#1330854077
r141 *
b101011 A
#1330854126
r142 *
b101111 A
#1330854127
r143 *
b101110 A
#1330854728
r144 *
b1110 A
#1330855137
r145 *
0C
#1330855402
r146 *
0D
#1330855723
r147 *
1D
#1330856580
r148 *
1C
#1330856581
r149 *
b1010 A
#1330857190
r150 *
b10 A
#1330857535
r151 *
0C
#1330857800
r152 *
0D
#1330858177
r153 *
1D
#1330859794
r154 *
1C
#1330860403
r155 *
b0 A
#1330860756
r156 *
0C
#1330861021
r157 *
0D
#1330861398
r158 *
1D
#1330862191
r159 *
1C
#1330862192
r160 *
b10011010 A
#1330862865
r161 *
b10111010 A
#1330863154
r162 *
0C
#1330863419
r163 *
0D
#1330863604
r164 *
1D
#1330864645
r165 *
1C
#1330864710
r166 *
b10111011 A
#1330865319
r167 *
b10001 A
#1330865720
r168 *
0C
#1330865985
r169 *
0D
#1330866306
r170 *
1D
#1330867107
r171 *
1C
#1330867164
r172 *
b11111 A
#1330867165
r173 *
b11110 A
#1330867766
r174 *
b1110 A
#1330868111
r175 *
0C
#1330868376
r176 *
0D
#1330868761
r177 *
1D
#1330869562
r178 *
1C
#1330869611
r179 *
b101110 A
#1330869612
r180 *
b101010 A
#1330870221
r181 *
b100000 A
#1330870502
r182 *
0C
#1330870767
r183 *
0D
#1330870960
r184 *
1D
#1330872009
r185 *
1C
#1330872074
r186 *
b111110 A
#1330872675
r187 *
b11110 A
#1330873068
r188 *
0C
#1330873325
r189 *
0D
#1330873670
r190 *
1D
#1330875215
r191 *
1C
#1330875272
r192 *
b11111110 A
#1330875273
r193 *
b11111010 A
#1330875874
r194 *
b11111000 A
#1330876275
r195 *
0C
#1330876532
r196 *
0D
#1330876869
r197 *
1D
#1330877662
r198 *
1C
#1330877727
r199 *
b11111001 A
#1330878336
r200 *
b10010001 A
#1330878673
r201 *
0C
#1330878938
r202 *
0D
#1330879323
r203 *
1D
#1330880124
r204 *
1C
#1330880125
r205 *
b11110011 A
#1330880174
r206 *
b11110111 A
#1330880783
r207 *
b11110110 A
#1330881064
r208 *
0C
#1330881329
r209 *
0D
#1330881530
r210 *
1D
#1330882571
r211 *
1C
#1330882628
r212 *
b11110111 A
#1330882629
r213 *
b11110011 A
#1330883238
r214 *
b10010001 A
#1330883623
r215 *
0C
#1330883880
r216 *
0D
#1330884225
r217 *
1D
#1330885026
r218 *
1C
#1330885083
r219 *
b11110101 A
#1330885692
r220 *
b11110100 A
#1330886021
r221 *
0C
#1330886286
r222 *
0D
#1330886687
r223 *
1D
#1330888232
r224 *
1C
#1330888297
r225 *
b11111101 A
#1330888898
r226 *
b10001101 A
#1330889235
r227 *
0C
#1330889492
r228 *
0D
#1330889893
r229 *
1D
#1330890686
r230 *
1C
#1330890743
r231 *
b11001101 A
#1330890744
r232 *
b11001100 A
#1330891353
r233 *
b1000100 A
#1330891786
r234 *
0C
#1330892051
r235 *
0D
#1330892340
r236 *
1D
#1330893141
r237 *
1C
#1330893814
r238 *
b11101110 A
#1330894191
r239 *
0C
#1330894456
r240 *
0D
#1330894809
r241 *
1D
#1330895666
r242 *
1C
#1330895667
r243 *
b11101010 A
#1330896276
r244 *
b10 A
#1330896597
r245 *
0C
#1330896854
r246 *
0D
#1330897263
r247 *
1D
#1330898064
r248 *
1C
#1330898121
r249 *
b110110 A
#1330898730
r250 *
b110100 A
#1330899155
r251 *
0C
#1330899420
r252 *
0D
#1330899725
r253 *
1D
#1330900518
r254 *
1C
#1330900583
r255 *
b111110 A
#1330901192
r256 *
b1110 A
#1330901553
r257 *
0C
#1330901818
r258 *
0D
#1330902179
r259 *
1D
#1330903724
r260 *
1C
#1330903781
r261 *
b1111 A
#1330903782
r262 *
b11 A
#1330904391
r263 *
b1 A
#1330904760
r264 *
0C
#1330905025
r265 *
0D
#1330905378
r266 *
1D
#1330906179
r267 *
1C
#1330906852
r268 *
b10010111 A
#1330907165
r269 *
0C
#1330907430
r270 *
0D
#1330907847
r271 *
1D
#1330908640
r272 *
1C
#1330908697
r273 *
b10110111 A
#1330908698
r274 *
b10110100 A
#1330909307
r275 *
b110100 A
#1330909724
r276 *
0C
#1330909989
r277 *
0D
#1330910294
r278 *
1D
#1330911095
r279 *
1C
#1330911152
r280 *
b111100 A
#1330911761
r281 *
b1000 A
#1330912122
r282 *
0C
#1330912387
r283 *
0D
#1330912748
r284 *
1D
#1330913549
r285 *
1C
#1330913606
r286 *
b1001 A
#1330914215
r287 *
b1 A
#1330914520
r288 *
0C
#1330914785
r289 *
0D
#1330915210
r290 *
1D
#1330916003
r291 *
1C
#1330916004
r292 *
b10000001 A
#1330916061
r293 *
b10010001 A
#1330916670
r294 *
b10010000 A
#1330917079
r295 *
0C
#1330917344
r296 *
0D
#1330917657
r297 *
1D
#1330919210
r298 *
1C
#1330919883
r299 *
b11011111 A
#1330920300
r300 *
0C
#1330920557
r301 *
0D
#1330920870
r302 *
1D
#1330921671
r303 *
1C
#1330921728
r304 *
b11111111 A
#1330921729
r305 *
b11111100 A
#1330922330
r306 *
b1101100 A
#1330922691
r307 *
0C
#1330922956
r308 *
0D
#1330923325
r309 *
1D
#1330924118
r310 *
1C
#1330924175
r311 *
b1101101 A
#1330924176
r312 *
b1101001 A
#1330924785
r313 *
b100001 A
#1330925082
r314 *
0C
#1330925347
r315 *
0D
#1330925532
r316 *
1D
#1330926573
r317 *
1C
#1330926630
r318 *
b101011 A
#1330926631
r319 *
b101010 A
#1330927232
r320 *
b1010 A
#1330927641
r321 *
0C
#1330927898
r322 *
0D
#1330928227
r323 *
1D
#1330929020
r324 *
1C
#1330929021
r325 *
b10001010 A
#1330929694
r326 *
b11111110 A
#1330930039
r327 *
0C
#1330930296
r328 *
0D
#1330930681
r329 *
1D
#1330931546
r330 *
1C
#1330931547
r331 *
b1111000 A
#1330932148
r332 *
b101000 A
#1330932437
r333 *
0C
#1330932702
r334 *
0D
#1330932895
r335 *
1D
#1330934688
r336 *
1C
#1330934745
r337 *
b10101001 A
#1330935354
r338 *
b10100001 A
#1330935651
r339 *
0C
#1330935916
r340 *
0D
#1330936101
r341 *
1D
#1330937142
r342 *
1C
#1330937823
r343 *
b10101011 A
#1330938216
r344 *
0C
#1330938481
r345 *
0D
#1330938810
r346 *
1D
#1330939675
r347 *
1C
#1330940284
r348 *
b10100001 A
#1330940629
r349 *
0C
#1330940886
r350 *
0D
#1330941279
r351 *
1D
#1330942072
r352 *
1C
#1330942073
r353 *
b10111001 A
#1330942122
r354 *
b10111101 A
#1330942739
r355 *
b10111100 A
#1330943020
r356 *
0C
#1330943285
r357 *
0D
#1330943478
r358 *
1D
#1330944527
r359 *
1C
#1330944592
r360 *
b11111111 A
#1330945193
r361 *
b11011111 A
#1330945578
r362 *
0C
#1330945843
r363 *
0D
#1330946188
r364 *
1D
#1330947733
r365 *
1C
#1330947790
r366 *
b11111111 A
#1330947791
r367 *
b11111001 A
#1330948392
r368 *
b1101001 A
#1330948785
r369 *
0C
#1330949050
r370 *
0D
#1330949387
r371 *
1D
#1330950180
r372 *
1C
#1330950245
r373 *
b1101011 A
#1330950854
r374 *
b1010 A
#1330951191
r375 *
0C
#1330951448
r376 *
0D
#1330951841
r377 *
1D
#1330952706
r378 *
1C
#1330953315
r379 *
b1000 A
#1330953596
r380 *
0C
#1330953853
r381 *
0D
#1330954054
r382 *
1D
#1330955103
r383 *
1C
#1330955784
r384 *
b1010 A
#1330956161
r385 *
0C
#1330956426
r386 *
0D
#1330956771
r387 *
1D
#1330958252
r388 *
1C
#1330958573
r389 *
0C
#1330958838
r390 *
0D
#1330959239
r391 *
1D
#1330960040
r392 *
1C
#1330960041
r393 *
b11101010 A
#1330960098
r394 *
b11101110 A
#1330960699
r395 *
b11100110 A
#1330961132
r396 *
0C
#1330961397
r397 *
0D
#1330961694
r398 *
1D
#1330963239
r399 *
1C
#1330963304
r400 *
b11101110 A
#1330963913
r401 *
b1010 A
#1330964346
r402 *
0C
#1330964603
r403 *
0D
#1330964900
r404 *
1D
#1330966381
r405 *
1C
#1330966758
r406 *
0C
#1330967023
r407 *
0D
#1330967376
r408 *
1D
#1330968233
r409 *
1C
#1330968842
r410 *
b1000 A
#1330969163
r411 *
0C
#1330969428
r412 *
0D
#1330969837
r413 *
1D
#1330970630
r414 *
1C
#1330970631
r415 *
b1001 A
#1330971304
r416 *
b101111 A
#1330971729
r417 *
0C
#1330971986
r418 *
0D
#1330972291
r419 *
1D
#1330973772
r420 *
1C
#1330974141
r421 *
0C
#1330974406
r422 *
0D
#1330974767
r423 *
1D
#1330975560
r424 *
1C
#1330975561
r425 *
b10101111 A
#1330975618
r426 *
b11101111 A
#1330976227
r427 *
b11100110 A
#1330976532
r428 *
0C
#1330976797
r429 *
0D
#1330977214
r430 *
1D
#1330978759
r431 *
1C
#1330978824
r432 *
b11100111 A
#1330979433
r433 *
b11 A
#1330979746
r434 *
0C
#1330980011
r435 *
0D
#1330980420
r436 *
1D
#1330981221
r437 *
1C
#1330981222
r438 *
b101011 A
#1330981271
r439 *
b101111 A
#1330981880
r440 *
b101110 A
#1330982305
r441 *
0C
#1330982562
r442 *
0D
#1330982875
r443 *
1D
#1330983668
r444 *
1C
#1330983669
r445 *
b10101110 A
#1330983718
r446 *
b11101110 A
#1330983719
r447 *
b11101010 A
#1330983720
r448 *
b11101000 A
#1330984321
r449 *
b11001000 A
#1330984682
r450 *
0C
#1330984939
r451 *
0D
#1330985308
r452 *
1D
#1330986109
r453 *
1C
#1330986174
r454 *
b11101001 A
#1330986775
r455 *
b10101001 A
#1330987080
r456 *
0C
#1330987337
r457 *
0D
#1330987522
r458 *
1D
#1330988563
r459 *
1C
#1330988620
r460 *
b11101001 A
#1330988621
r461 *
b11101000 A
#1330989230
r462 *
b11000000 A
#1330989631
r463 *
0C
#1330989896
r464 *
0D
#1330990217
r465 *
1D
#1330991762
r466 *
1C
#1330991763
r467 *
b11001000 A
#1330992436
r468 *
b11101000 A
#1330992845
r469 *
0C
#1330993110
r470 *
0D
#1330993423
r471 *
1D
#1330994224
r472 *
1C
#1330994225
r473 *
b11111010 A
#1330994282
r474 *
b11111110 A
#1330994883
r475 *
b11110110 A
#1330995236
r476 *
0C
#1330995501
r477 *
0D
#1330995878
r478 *
1D
#1330996671
r479 *
1C
#1330996736
r480 *
b11111111 A
#1330997345
r481 *
b10001011 A
#1330997642
r482 *
0C
#1330997899
r483 *
0D
#1330998084
r484 *
1D
#1330999133
r485 *
1C
#1330999190
r486 *
b10111111 A
#1330999799
r487 *
b10111100 A
#1331000200
r488 *
0C
#1331000465
r489 *
0D
#1331000794
r490 *
1D
#1331001587
r491 *
1C
#1331001652
r492 *
b11111110 A
#1331002261
r493 *
b11100110 A
#1331002598
r494 *
0C
#1331002863
r495 *
0D
#1331003248
r496 *
1D
#1331004049
r497 *
1C
#1331004106
r498 *
b11110110 A
#1331004715
r499 *
b11110100 A
#1331005004
r500 *
0C
#1331005261
r501 *
0D
#1331005462
r502 *
1D
#1331007255
r503 *
1C
#1331007320
r504 *
b11111111 A
#1331007921
r505 *
b11011111 A
#1331008210
r506 *
0C
#1331008475
r507 *
0D
#1331008668
r508 *
1D
#1331009773
r509 *
1C
#1331009774
r510 *
b11010011 A
#1331010383
r511 *
b10000011 A
#1331010776
r512 *
0C
#1331011041
r513 *
0D
#1331011370
r514 *
1D
#1331012171
r515 *
1C
#1331012228
r516 *
b11101011 A
#1331012837
r517 *
b11101000 A
#1331013174
r518 *
0C
#1331013439
r519 *
0D
#1331013832
r520 *
1D
#1331014625
r521 *
1C
#1331014690
r522 *
b11111001 A
#1331015299
r523 *
b11110001 A
#1331015572
r524 *
0C
#1331015837
r525 *
0D
#1331016038
r526 *
1D
#1331017087
r527 *
1C
#1331017152
r528 *
b11111111 A
#1331017753
r529 *
b11011111 A
#1331018138
r530 *
0C
#1331018403
r531 *
0D
#1331018740
r532 *
1D
#1331019605
r533 *
1C
#1331019606
r534 *
b11010111 A
#1331020207
r535 *
b10000101 A
#1331020536
r536 *
0C
#1331020801
r537 *
0D
#1331021202
r538 *
1D
#1331022747
r539 *
1C
#1331022804
r540 *
b10001101 A
#1331022805
r541 *
b10001100 A
#1331023414
r542 *
b1100 A
#1331023743
r543 *
0C
#1331024008
r544 *
0D
#1331024401
r545 *
1D
#1331025202
r546 *
1C
#1331025259
r547 *
b10111100 A
#1331025868
r548 *
b10111000 A
#1331026301
r549 *
0C
#1331026566
r550 *
0D
#1331026855
r551 *
1D
#1331027656
r552 *
1C
#1331027657
r553 *
b10111001 A
#1331028330
r554 *
b10111101 A
#1331028707
r555 *
0C
#1331028964
r556 *
0D
#1331029317
r557 *
1D
#1331030110
r558 *
1C
#1331030175
r559 *
b10111111 A
#1331030784
r560 *
b10110010 A
#1331031105
r561 *
0C
#1331031370
r562 *
0D
#1331031771
r563 *
1D
#1331032572
r564 *
1C
#1331032573
r565 *
b11111011 A
#1331032630
r566 *
b11111111 A
#1331033231
r567 *
b11011111 A
#1331033656
r568 *
0C
#1331033921
r569 *
0D
#1331034226
r570 *
1D
#1331035835
r571 *
1C
#1331035836
r572 *
b11010011 A
#1331036437
r573 *
b11000001 A
#1331036870
r574 *
0C
#1331037135
r575 *
0D
#1331037432
r576 *
1D
#1331038233
r577 *
1C
#1331038290
r578 *
b11101111 A
#1331038899
r579 *
b11101110 A
#1331039276
r580 *
0C
#1331039533
r581 *
0D
#1331039886
r582 *
1D
#1331040687
r583 *
1C
#1331040744
r584 *
b11111111 A
#1331040745
r585 *
b11111011 A
#1331041346
r586 *
b111011 A
#1331041667
r587 *
0C
#1331041924
r588 *
0D
#1331042341
r589 *
1D
#1331043142
r590 *
1C
#1331043191
r591 *
b111111 A
#1331043192
r592 *
b111110 A
#1331043801
r593 *
b1100 A
#1331044218
r594 *
0C
#1331044483
r595 *
0D
#1331044788
r596 *
1D
#1331045589
r597 *
1C
#1331045646
r598 *
b10101100 A
#1331046255
r599 *
b10100100 A
#1331046616
r600 *
0C
#1331046881
r601 *
0D
#1331047250
r602 *
1D
#1331048043
r603 *
1C
#1331048724
r604 *
b11100110 A
#1331049029
r605 *
0C
#1331049286
r606 *
0D
#1331049711
r607 *
1D
#1331051256
r608 *
1C
#1331051257
r609 *
b11100111 A
#1331051314
r610 *
b11110111 A
#1331051315
r611 *
b110011 A
#1331051916
r612 *
b10011 A
#1331052221
r613 *
0C
#1331052486
r614 *
0D
#1331052903
r615 *
1D
#1331053704
r616 *
1C
#1331053769
r617 *
b10011111 A
#1331054370
r618 *
b10001101 A
#1331054787
r619 *
0C
#1331055052
r620 *
0D
#1331055365
r621 *
1D
#1331056158
r622 *
1C
#1331056159
r623 *
b10011101 A
#1331056208
r624 *
b11011101 A
#1331056209
r625 *
b11011100 A
#1331056818
r626 *
b11010100 A
#1331057171
r627 *
0C
#1331057436
r628 *
0D
#1331057805
r629 *
1D
#1331058606
r630 *
1C
#1331058671
r631 *
b11110110 A
#1331059272
r632 *
b11100110 A
#1331059569
r633 *
0C
#1331059834
r634 *
0D
#1331060019
r635 *
1D
#1331061060
r636 *
1C
#1331061125
r637 *
b11110110 A
#1331061734
r638 *
b110010 A
#1331062135
r639 *
0C
#1331062400
r640 *
0D
#1331062721
r641 *
1D
#1331063522
r642 *
1C
#1331063587
r643 *
b11111111 A
#1331064188
r644 *
b11011111 A
#1331064533
r645 *
0C
#1331064798
r646 *
0D
#1331065183
r647 *
1D
#1331066792
r648 *
1C
#1331066793
r649 *
b11010110 A
#1331067394
r650 *
b10010110 A
#1331067747
r651 *
0C
#1331068012
r652 *
0D
#1331068389
r653 *
1D
#1331069182
r654 *
1C
#1331069247
r655 *
b11111110 A
#1331069856
r656 *
b11101110 A
#1331070145
r657 *
0C
#1331070410
r658 *
0D
#1331070595
r659 *
1D
#1331071644
r660 *
1C
#1331071701
r661 *
b11111111 A
#1331071702
r662 *
b11110111 A
#1331072303
r663 *
b110101 A
#1331072704
r664 *
0C
#1331072961
r665 *
0D
#1331073298
r666 *
1D
#1331074091
r667 *
1C
#1331074156
r668 *
b10110111 A
#1331074765
r669 *
b10010111 A
#1331075102
r670 *
0C
#1331075367
r671 *
0D
#1331075752
r672 *
1D
#1331076545
r673 *
1C
#1331076610
r674 *
b10011111 A
#1331077219
r675 *
b10011011 A
#1331077500
r676 *
0C
#1331077765
r677 *
0D
#1331077958
r678 *
1D
#1331079007
r679 *
1C
#1331079064
r680 *
b10011111 A
#1331079065
r681 *
b10011101 A
#1331079666
r682 *
b10001101 A
#1331080059
r683 *
0C
#1331080316
r684 *
0D
#1331080661
r685 *
1D
#1331082206
r686 *
1C
#1331082263
r687 *
b10111101 A
#1331082264
r688 *
b10111100 A
#1331082865
r689 *
b10110100 A
#1331083266
r690 *
0C
#1331083523
r691 *
0D
#1331083860
r692 *
1D
#1331084661
r693 *
1C
#1331084718
r694 *
b11110110 A
#1331085327
r695 *
b11100110 A
#1331085664
r696 *
0C
#1331085921
r697 *
0D
#1331086314
r698 *
1D
#1331087115
r699 *
1C
#1331087180
r700 *
b11100111 A
#1331087781
r701 *
b111 A
#1331088062
r702 *
0C
#1331088327
r703 *
0D
#1331088528
r704 *
1D
#1331089577
r705 *
1C
#1331089634
r706 *
b10111111 A
#1331090243
r707 *
b10111101 A
#1331090620
r708 *
0C
#1331090885
r709 *
0D
#1331091230
r710 *
1D
#1331092031
r711 *
1C
#1331092088
r712 *
b10111111 A
#1331092089
r713 *
b10111110 A
#1331092690
r714 *
b1110 A
#1331093019
r715 *
0C
#1331093276
r716 *
0D
#1331093685
r717 *
1D
#1331095230
r718 *
1C
#1331095287
r719 *
b10101111 A
#1331095288
r720 *
b10100011 A
#1331095889
r721 *
b10100001 A
#1331096218
r722 *
0C
#1331096483
r723 *
0D
#1331096884
r724 *
1D
#1331097677
r725 *
1C
#1331097742
r726 *
b10110001 A
#1331098351
r727 *
b10010001 A
#1331098784
r728 *
0C
#1331099049
r729 *
0D
#1331099338
r730 *
1D
#1331100139
r731 *
1C
#1331100204
r732 *
b10110001 A
#1331100805
r733 *
b10100001 A
#1331101182
r734 *
0C
#1331101447
r735 *
0D
#1331101800
r736 *
1D
#1331102593
r737 *
1C
#1331102658
r738 *
b10100011 A
#1331103267
r739 *
b10100010 A
#1331103580
r740 *
0C
#1331103845
r741 *
0D
#1331104254
r742 *
1D
#1331105055
r743 *
1C
#1331105728
r744 *
b10111010 A
#1331106153
r745 *
0C
#1331106418
r746 *
0D
#1331106723
r747 *
1D
#1331107524
r748 *
1C
#1331107581
r749 *
b10111110 A
#1331108190
r750 *
b10110 A
#1331108551
r751 *
0C
#1331108816
r752 *
0D
#1331109177
r753 *
1D
#1331110786
r754 *
1C
#1331110787
r755 *
b10010 A
#1331111396
r756 *
b0 A
#1331111765
r757 *
0C
#1331112030
r758 *
0D
#1331112383
r759 *
1D
#1331113184
r760 *
1C
#1331113857
r761 *
b10101110 A
#1331114170
r762 *
0C
#1331114435
r763 *
0D
#1331114852
r764 *
1D
#1331115645
r765 *
1C
#1331116326
r766 *
b11101110 A
#1331116743
r767 *
0C
#1331117000
r768 *
0D
#1331117313
r769 *
1D
#1331118106
r770 *
1C
#1331118787
r771 *
b11101111 A
#1331119148
r772 *
0C
#1331119413
r773 *
0D
#1331119782
r774 *
1D
#1331120639
r775 *
1C
#1331120640
r776 *
b11100011 A
#1331121241
r777 *
b10100001 A
#1331121546
r778 *
0C
#1331121811
r779 *
0D
#1331121996
r780 *
1D
#1331123037
r781 *
1C
#1331123094
r782 *
b10101011 A
#1331123703
r783 *
b101010 A
#1331124112
r784 *
0C
#1331124369
r785 *
0D
#1331124690
r786 *
1D
#1331126243
r787 *
1C
#1331126300
r788 *
b10101011 A
#1331126909
r789 *
b10101001 A
#1331127326
r790 *
0C
#1331127583
r791 *
0D
#1331127904
r792 *
1D
#1331128697
r793 *
1C
#1331128698
r794 *
b10111001 A
#1331128755
r795 *
b10111101 A
#1331129356
r796 *
b10011101 A
#1331129717
r797 *
0C
#1331129974
r798 *
0D
#1331130351
r799 *
1D
#1331131152
r800 *
1C
#1331131209
r801 *
b10011111 A
#1331131818
r802 *
b1011 A
#1331132115
r803 *
0C
#1331132380
r804 *
0D
#1331132565
r805 *
1D
#1331133670
r806 *
1C
#1331134279
r807 *
b1001 A
#1331134680
r808 *
0C
#1331134945
r809 *
0D
#1331135274
r810 *
1D
#1331136075
r811 *
1C
#1331136132
r812 *
b11111101 A
#1331136741
r813 *
b11111100 A
#1331137086
r814 *
0C
#1331137343
r815 *
0D
#1331137728
r816 *
1D
#1331139345
r817 *
1C
#1331139954
r818 *
b0 A
#1331140307
r819 *
0C
#1331140564
r820 *
0D
#1331140941
r821 *
1D
#1331141742
r822 *
1C
#1331142423
r823 *
b11101001 A
#1331142712
r824 *
0C
#1331142969
r825 *
0D
#1331143162
r826 *
1D
#1331144203
r827 *
1C
#1331144204
r828 *
b11101011 A
#1331144261
r829 *
b11101111 A
#1331144870
r830 *
b11101110 A
#1331145263
r831 *
0C
#1331145528
r832 *
0D
#1331145857
r833 *
1D
#1331146722
r834 *
1C
#1331147331
r835 *
b11101000 A
#1331147668
r836 *
0C
#1331147933
r837 *
0D
#1331148326
r838 *
1D
#1331149119
r839 *
1C
#1331149120
r840 *
b11101001 A
#1331149177
r841 *
b11111001 A
#1331149786
r842 *
b11110001 A
#1331150067
r843 *
0C
#1331150324
r844 *
0D
#1331150525
r845 *
1D
#1331151574
r846 *
1C
#1331151639
r847 *
b11111101 A
#1331152240
r848 *
b10001101 A
#1331152625
r849 *
0C
#1331152890
r850 *
0D
#1331153235
r851 *
1D
#1331154780
r852 *
1C
#1331154837
r853 *
b11011101 A
#1331154838
r854 *
b11011100 A
#1331155439
r855 *
b11010100 A
#1331155832
r856 *
0C
#1331156097
r857 *
0D
#1331156434
r858 *
1D
#1331157227
r859 *
1C
#1331157228
r860 *
b11010110 A
#1331157285
r861 *
b11110110 A
#1331157894
r862 *
b11100110 A
#1331158223
r863 *
0C
#1331158488
r864 *
0D
#1331158881
r865 *
1D
#1331159682
r866 *
1C
#1331159747
r867 *
b11111111 A
#1331160348
r868 *
b11111 A
#1331160621
r869 *
0C
#1331160886
r870 *
0D
#1331161095
r871 *
1D
#1331162136
r872 *
1C
#1331162817
r873 *
b11011111 A
#1331163194
r874 *
0C
#1331163459
r875 *
0D
#1331163804
r876 *
1D
#1331164605
r877 *
1C
#1331164662
r878 *
b11111111 A
#1331164663
r879 *
b11111001 A
#1331165264
r880 *
b10101001 A
#1331165585
r881 *
0C
#1331165850
r882 *
0D
#1331166259
r883 *
1D
#1331167052
r884 *
1C
#1331167053
r885 *
b11101011 A
#1331167102
r886 *
b11101111 A
#1331167711
r887 *
b11101110 A
#1331168144
r888 *
0C
#1331168401
r889 *
0D
#1331168706
r890 *
1D
#1331170315
r891 *
1C
#1331170316
r892 *
b11101010 A
#1331170925
r893 *
b100010 A
#1331171358
r894 *
0C
#1331171615
r895 *
0D
#1331171912
r896 *
1D
#1331172713
r897 *
1C
#1331172778
r898 *
b101111 A
#1331173379
r899 *
b1101 A
#1331173756
r900 *
0C
#1331174013
r901 *
0D
#1331174374
r902 *
1D
#1331175167
r903 *
1C
#1331175224
r904 *
b10011101 A
#1331175225
r905 *
b10011001 A
#1331175834
r906 *
b10010001 A
#1331176147
r907 *
0C
#1331176412
r908 *
0D
#1331176821
r909 *
1D
#1331177622
r910 *
1C
#1331177687
r911 *
b11110111 A
#1331178288
r912 *
b11100111 A
#1331178705
r913 *
0C
#1331178970
r914 *
0D
#1331179275
r915 *
1D
#1331180148
r916 *
1C
#1331180749
r917 *
b111 A
#1331181118
r918 *
0C
#1331181375
r919 *
0D
#1331181744
r920 *
1D
#1331183289
r921 *
1C
#1331183290
r922 *
b11001111 A
#1331183347
r923 *
b11101111 A
#1331183956
r924 *
b11101110 A
#1331184325
r925 *
0C
#1331184582
r926 *
0D
#1331184943
r927 *
1D
#1331185744
r928 *
1C
#1331185801
r929 *
b11111110 A
#1331185802
r930 *
b111010 A
#1331186403
r931 *
b11010 A
#1331186716
r932 *
0C
#1331186973
r933 *
0D
#1331187398
r934 *
1D
#1331188191
r935 *
1C
#1331188256
r936 *
b1111011 A
#1331188857
r937 *
b1100001 A
#1331189274
r938 *
0C
#1331189539
r939 *
0D
#1331189852
r940 *
1D
#1331190653
r941 *
1C
#1331190718
r942 *
b11111011 A
#1331191319
r943 *
b10011011 A
#1331191680
r944 *
0C
#1331191937
r945 *
0D
#1331192306
r946 *
1D
#1331193171
r947 *
1C
#1331193172
r948 *
b10010000 A
#1331193773
r949 *
b0 A
#1331194078
r950 *
0C
#1331194335
r951 *
0D
#1331194520
r952 *
1D
#1331195561
r953 *
1C
#1331196242
r954 *
b10000 A
#1331196643
r955 *
0C
#1331196908
r956 *
0D
#1331197229
r957 *
1D
#1331198774
r958 *
1C
#1331198775
r959 *
b10001 A
#1331198832
r960 *
b110001 A
#1331199441
r961 *
b100001 A
#1331199850
r962 *
0C
#1331200115
r963 *
0D
#1331200428
r964 *
1D
#1331201293
r965 *
1C
#1331201294
r966 *
b100000 A
#1331201895
r967 *
b0 A
#1331202248
r968 *
0C
#1331202513
r969 *
0D
#1331202890
r970 *
1D
