SignalCaptures/P8000_WDC_CMD_21_InvalidDisk_Error_03.vcd
$comment Created in LWLA Logic Analyzer $end
$date 02.01.2016 00:24:31 $end
$timescale 1 ns $end
$scope module LWLA  $end
$var real 1 * sample $end
$var reg 8 A Data[7:0] $end
$var reg 3 B Status[2:0] $end
$var reg 1 C /RDY $end
$var reg 1 D /ASTB $end
$var reg 1 E /TR $end
$var reg 1 F /RST $end
$var reg 1 G /TE $end
$upscope $end
$enddefinitions $end
#0
r0 *
b0 A
b1 B
1C
1D
1E
1F
0G
#1
r1 *
#2
r2 *
#3
r3 *
#4
r4 *
#5
r5 *
#6
r6 *
#967832863
r7 *
#967866784
r8 *
1G
#967867457
r9 *
b100001 A
#967867754
r10 *
0C
#967868027
r11 *
0D
#967868444
r12 *
1D
#967869493
r13 *
1C
#967869558
r14 *
b100011 A
#967870167
r15 *
b10 A
#967870464
r16 *
0C
#967870729
r17 *
0D
#967871154
r18 *
1D
#967872267
r19 *
1C
#967872876
r20 *
b0 A
#967873181
r21 *
0C
#967873446
r22 *
0D
#967873871
r23 *
1D
#967876352
r24 *
1C
#967876649
r25 *
0C
#967876914
r26 *
0D
#967877339
r27 *
1D
#967879068
r28 *
1C
#967879373
r29 *
0C
#967879638
r30 *
0D
#967880063
r31 *
1D
#967881792
r32 *
1C
#967882089
r33 *
0C
#967882362
r34 *
0D
#967882787
r35 *
1D
#967885516
r36 *
1C
#967885813
r37 *
0C
#967886078
r38 *
0D
#967886503
r39 *
1D
#967887552
r40 *
1C
#967888225
r41 *
b10 A
#967888530
r42 *
0C
#967888795
r43 *
0D
#967889220
r44 *
1D
#967891085
r45 *
1C
#967891694
r46 *
b0 A
#967891991
r47 *
0C
#967892256
r48 *
0D
#967892681
r49 *
1D
#967914162
r50 *
1C
#967914163
r51 *
0E
#967914164
r52 *
b0 B
#968407005
r53 *
1E
#968407006
r54 *
b101 B
#968438335
r55 *
b111 B
0E
#968438360
r56 *
0G
#968441753
r57 *
b10000001 A
#968442106
r58 *
0C
#968442107
r59 *
b0 A
#968442116
r60 *
b1000100 A
#968442117
r61 *
0D
#968442118
r62 *
b1000011 A
1D
#968442159
r63 *
b11 A
#968442424
r64 *
0D
#968442705
r65 *
1D
#968449186
r66 *
1C
#968449547
r67 *
0C
#968449620
r68 *
b10000001 A
#968449885
r69 *
0D
#968450174
r70 *
1D
#968471359
r71 *
1C
#968471360
r72 *
b11 B
#968471369
r73 *
b0 B
#968471370
r74 *
0D
#968471371
r75 *
1D
#968489652
r76 *
1E
#968489661
r77 *
b10000000 A
#968489718
r78 *
b10000001 A
#968489719
r79 *
b10000000 A
#968489800
r80 *
b10000001 A
#968489801
r81 *
b10000000 A
#968489842
r82 *
b10000001 A
#968489843
r83 *
b10000000 A
#968489844
r84 *
b10000001 A
#968489853
r85 *
b10000000 A
#968489926
r86 *
b10000001 A
#968489927
r87 *
b10000000 A
#968489952
r88 *
b10000001 A
#968489953
r89 *
b10000000 A
#968489978
r90 *
b10000001 A
#968489979
r91 *
b10000000 A
#968489988
r92 *
b10000001 A
#968490021
r93 *
b10000000 A
#968490022
r94 *
b10000001 A
#968490039
r95 *
b10000000 A
#968490040
r96 *
b10000001 A
#968490041
r97 *
b10000000 A
#968490042
r98 *
b10000001 A
#968490043
r99 *
b10000000 A
#968490068
r100 *
b10000001 A
#968490085
r101 *
b10000000 A
#968490102
r102 *
b10000001 A
#968490143
r103 *
b10000000 A
#968490144
r104 *
b10000001 A
#968490265
r105 *
b10000000 A
#968490274
r106 *
b10000001 A
#968490291
r107 *
b10000000 A
#968490300
r108 *
b10000001 A
#968490437
r109 *
b10000000 A
#968490438
r110 *
b10000001 A
#968490511
r111 *
b10000000 A
#968490512
r112 *
b10000001 A
#968491905
r113 *
b10000000 A
#968491906
r114 *
b0 A
#968491947
r115 *
b10000000 A
#968491948
r116 *
b0 A
#968491957
r117 *
b10000000 A
#968491958
r118 *
b0 A
#968491991
r119 *
b10000000 A
#968491992
r120 *
b0 A
#968492001
r121 *
b10000000 A
#968492002
r122 *
b0 A
#968492027
r123 *
b10000000 A
#968492036
r124 *
b0 A
#968492061
r125 *
b10000000 A
#968492078
r126 *
b0 A
#968492079
r127 *
b10000000 A
#968492080
r128 *
b0 A
#968492081
r129 *
b10000000 A
#968492114
r130 *
b0 A
#968492123
r131 *
b10000000 A
#968492124
r132 *
b0 A
#968492125
r133 *
b10000000 A
#968492150
r134 *
b0 A
#968492159
r135 *
b10000000 A
#968492168
r136 *
b0 A
#968492169
r137 *
b10000000 A
#968492178
r138 *
b0 A
#968492179
r139 *
b10000000 A
#968492228
r140 *
b0 A
#968492229
r141 *
b10000000 A
#968492342
r142 *
b0 A
#968492343
r143 *
b10000000 A
#968674048
r144 *
b0 A
#2311436841
r145 *
b1 B
#2311436842
r146 *
#2311436843
r147 *
#2311436844
r148 *
#2311436845
r149 *
#2311436846
r150 *
