SignalCaptures/P8000_Emulator_CMD_28_OK.vcd
$comment Created in LWLA Logic Analyzer $end
$date 02.01.2016 20:28:17 $end
$timescale 1 ns $end
$scope module LWLA  $end
$var real 1 * sample $end
$var reg 8 A Data[7:0] $end
$var reg 3 B Status[2:0] $end
$var reg 1 C /RDY $end
$var reg 1 D /ASTB $end
$var reg 1 E /TR $end
$var reg 1 F /RST $end
$var reg 1 G /TE $end
$upscope $end
$enddefinitions $end
#0
r0 *
b0 A
b1 B
1C
1D
1E
0F
0G
#1
r1 *
#2
r2 *
#3
r3 *
#4
r4 *
#5
r5 *
#6
r6 *
#10652157967
r7 *
#10652157984
r8 *
1G
#10652162465
r9 *
1F
#10652162482
r10 *
b10 A
#10652162491
r11 *
b0 A
#10652162548
r12 *
b10 A
#10652162645
r13 *
b0 A
#10652162990
r14 *
b10 A
#10652162999
r15 *
b110 A
#10652163008
r16 *
b10 A
#10652163009
r17 *
b110 A
#10652163010
r18 *
b10110 A
#10652163011
r19 *
b10010 A
#10652163020
r20 *
b10 A
#10652163029
r21 *
b10010 A
#10652163030
r22 *
b11010 A
#10652163031
r23 *
b111010 A
#10652163040
r24 *
b10 A
#10652163041
r25 *
b10010 A
#10652163042
r26 *
b11010 A
#10652163043
r27 *
b10010 A
#10652163052
r28 *
b10 A
#10652163061
r29 *
b111110 A
#10652163102
r30 *
b111111 A
#10652163135
r31 *
b111110 A
#10652163144
r32 *
b111111 A
#10652163169
r33 *
b1111111 A
#10652163178
r34 *
b1111011 A
#10652163179
r35 *
b111010 A
#10652163180
r36 *
b10010 A
#10652163189
r37 *
b10 A
#10652163190
r38 *
b111011 A
#10652163191
r39 *
b1111011 A
#10652163192
r40 *
b1111111 A
#10652163193
r41 *
b101 B
#10652163250
r42 *
b1 B
#10652163267
r43 *
b111111 A
#10652163636
r44 *
b1111111 A
#10652164389
r45 *
b11111111 A
#10652164590
r46 *
b1111111 A
#10652164663
r47 *
b11111111 A
#10652164768
r48 *
b1111111 A
#10652170777
r49 *
b11111111 A
#10652170778
r50 *
b11010000 A
#10652190651
r51 *
b0 A
#10652191324
r52 *
b101000 A
#10652191621
r53 *
0C
#10652191886
r54 *
0D
#10652192071
r55 *
1D
#10652193680
r56 *
1C
#10652194289
r57 *
b0 A
#10652194682
r58 *
0C
#10652194947
r59 *
0D
#10652195276
r60 *
1D
#10652197261
r61 *
1C
#10652197582
r62 *
0C
#10652197847
r63 *
0D
#10652198248
r64 *
1D
#10652200985
r65 *
1C
#10652201298
r66 *
0C
#10652201563
r67 *
0D
#10652201972
r68 *
1D
#10652203957
r69 *
1C
#10652204366
r70 *
0C
#10652204623
r71 *
0D
#10652204944
r72 *
1D
#10652206241
r73 *
1C
#10652206922
r74 *
b1 A
#10652207259
r75 *
0C
#10652207524
r76 *
0D
#10652207909
r77 *
1D
#10652209206
r78 *
1C
#10652209263
r79 *
b10000001 A
#10652209872
r80 *
b10000000 A
#10652210313
r81 *
0C
#10652210570
r82 *
0D
#10652210867
r83 *
1D
#10652212228
r84 *
1C
#10652212837
r85 *
b0 A
#10652213206
r86 *
0C
#10652213463
r87 *
0D
#10652213832
r88 *
1D
#10652215873
r89 *
1C
#10652215874
r90 *
b1 A
#10652216547
r91 *
b100011 A
#10652216908
r92 *
0C
#10652217165
r93 *
0D
#10652217534
r94 *
1D
#10652218087
r95 *
1C
#10652280576
r96 *
b0 B
#10652280729
r97 *
0E
#10652332290
r98 *
b11 B
#10652332699
r99 *
0G
#10652332700
r100 *
b100001 A
#10652333109
r101 *
b0 A
#10652336694
r102 *
b1010111 A
#10652337055
r103 *
0C
#10652337320
r104 *
0D
#10652337689
r105 *
1D
#10652338290
r106 *
1C
#10652338291
r107 *
b1010101 A
#10652341900
r108 *
b1000100 A
#10652342221
r109 *
0C
#10652342486
r110 *
0D
#10652342895
r111 *
1D
#10652343448
r112 *
1C
#10652343457
r113 *
b1000111 A
#10652344362
r114 *
b1000011 A
#10652344787
r115 *
0C
#10652345052
r116 *
0D
#10652345349
r117 *
1D
#10652346014
r118 *
1C
#10652346823
r119 *
b1011111 A
#10652347192
r120 *
0C
#10652347457
r121 *
0D
#10652347818
r122 *
1D
#10652348419
r123 *
1C
#10652348420
r124 *
b1111111 A
#10652349285
r125 *
b110100 A
#10652349590
r126 *
0C
#10652349855
r127 *
0D
#10652350272
r128 *
1D
#10652350977
r129 *
1C
#10652350986
r130 *
b111110 A
#10652352491
r131 *
b101110 A
#10652352804
r132 *
0C
#10652353069
r133 *
0D
#10652353478
r134 *
1D
#10652354031
r135 *
1C
#10652354032
r136 *
b111110 A
#10652354945
r137 *
b110010 A
#10652355370
r138 *
0C
#10652355627
r139 *
0D
#10652355940
r140 *
1D
#10652356605
r141 *
1C
#10652357414
r142 *
b0 A
#10652357775
r143 *
0C
#10652358040
r144 *
0D
#10652358401
r145 *
1D
#10652359002
r146 *
1C
#10652359875
r147 *
b1010011 A
#10652360180
r148 *
0C
#10652360445
r149 *
0D
#10652360870
r150 *
1D
#10652361567
r151 *
1C
#10652361576
r152 *
b1010111 A
#10652362329
r153 *
b1010100 A
#10652362746
r154 *
0C
#10652363003
r155 *
0D
#10652363324
r156 *
1D
#10652363965
r157 *
1C
#10652363966
r158 *
b1010101 A
#10652363967
r159 *
b1110101 A
#10652365536
r160 *
b110001 A
#10652365945
r161 *
0C
#10652366210
r162 *
0D
#10652366523
r163 *
1D
#10652368004
r164 *
1C
#10652368365
r165 *
0C
#10652368622
r166 *
0D
#10652368999
r167 *
1D
#10652369600
r168 *
1C
#10652370465
r169 *
b110000 A
#10652370770
r170 *
0C
#10652371035
r171 *
0D
#10652371212
r172 *
1D
#10652372941
r173 *
1C
#10652373342
r174 *
0C
#10652373607
r175 *
0D
#10652373928
r176 *
1D
#10652374577
r177 *
1C
#10652375402
r178 *
b100000 A
#10652375755
r179 *
0C
#10652376012
r180 *
0D
#10652376397
r181 *
1D
#10652377878
r182 *
1C
#10652378167
r183 *
0C
#10652378424
r184 *
0D
#10652378617
r185 *
1D
#10652381098
r186 *
1C
#10652381395
r187 *
0C
#10652381652
r188 *
0D
#10652381845
r189 *
1D
#10652383566
r190 *
1C
#10652383967
r191 *
0C
#10652384232
r192 *
0D
#10652384561
r193 *
1D
#10652386042
r194 *
1C
#10652386379
r195 *
0C
#10652386644
r196 *
0D
#10652387029
r197 *
1D
#10652388510
r198 *
1C
#10652388791
r199 *
0C
#10652389056
r200 *
0D
#10652389257
r201 *
1D
#10652389874
r202 *
1C
#10652390979
r203 *
b0 A
#10652391364
r204 *
0C
#10652391629
r205 *
0D
#10652391966
r206 *
1D
#10652393447
r207 *
1C
#10652393776
r208 *
0C
#10652394041
r209 *
0D
#10652394442
r210 *
1D
#10652396667
r211 *
1C
#10652397004
r212 *
0C
#10652397269
r213 *
0D
#10652397662
r214 *
1D
#10652398231
r215 *
1C
#10652399136
r216 *
b110000 A
#10652399409
r217 *
0C
#10652399674
r218 *
0D
#10652399875
r219 *
1D
#10652400476
r220 *
1C
#10652400477
r221 *
b110100 A
#10652401590
r222 *
b100 A
#10652401975
r223 *
0C
#10652402240
r224 *
0D
#10652402585
r225 *
1D
#10652403202
r226 *
1C
#10652403203
r227 *
b1101 A
#10652404052
r228 *
b1001 A
#10652404373
r229 *
0C
#10652404638
r230 *
0D
#10652405039
r231 *
1D
#10652405600
r232 *
1C
#10652405601
r233 *
b11011 A
#10652406506
r234 *
b10010 A
#10652406939
r235 *
0C
#10652407196
r236 *
0D
#10652407501
r237 *
1D
#10652408158
r238 *
1C
#10652408167
r239 *
b110010 A
#10652409712
r240 *
b110000 A
#10652410145
r241 *
0C
#10652410410
r242 *
0D
#10652410707
r243 *
1D
#10652411372
r244 *
1C
#10652411381
r245 *
b110100 A
#10652412174
r246 *
b100 A
#10652412551
r247 *
0C
#10652412808
r248 *
0D
#10652413161
r249 *
1D
#10652413770
r250 *
1C
#10652413779
r251 *
b101 A
#10652414628
r252 *
b1 A
#10652414949
r253 *
0C
#10652415214
r254 *
0D
#10652415623
r255 *
1D
#10652416184
r256 *
1C
#10652417089
r257 *
b0 A
#10652417514
r258 *
0C
#10652417779
r259 *
0D
#10652418084
r260 *
1D
#10652419565
r261 *
1C
#10652419934
r262 *
0C
#10652420191
r263 *
0D
#10652420552
r264 *
1D
#10652422033
r265 *
1C
#10652422346
r266 *
0C
#10652422611
r267 *
0D
#10652423028
r268 *
1D
#10652425261
r269 *
1C
#10652425574
r270 *
0C
#10652425831
r271 *
0D
#10652426248
r272 *
1D
#10652427729
r273 *
1C
#10652428146
r274 *
0C
#10652428411
r275 *
0D
#10652428724
r276 *
1D
#10652430197
r277 *
1C
#10652430558
r278 *
0C
#10652430823
r279 *
0D
#10652431192
r280 *
1D
#10652432673
r281 *
1C
#10652432978
r282 *
0C
#10652433235
r283 *
0D
#10652433428
r284 *
1D
#10652435141
r285 *
1C
#10652435550
r286 *
0C
#10652435815
r287 *
0D
#10652436136
r288 *
1D
#10652437617
r289 *
1C
#10652437962
r290 *
0C
#10652438227
r291 *
0D
#10652438604
r292 *
1D
#10652440837
r293 *
1C
#10652441190
r294 *
0C
#10652441455
r295 *
0D
#10652441824
r296 *
1D
#10652443305
r297 *
1C
#10652443602
r298 *
0C
#10652443867
r299 *
0D
#10652444052
r300 *
1D
#10652445781
r301 *
1C
#10652446182
r302 *
0C
#10652446447
r303 *
0D
#10652446768
r304 *
1D
#10652447409
r305 *
1C
#10652448242
r306 *
b10111101 A
#10652448587
r307 *
0C
#10652448852
r308 *
0D
#10652449237
r309 *
1D
#10652449822
r310 *
1C
#10652450711
r311 *
b10100101 A
#10652450992
r312 *
0C
#10652451257
r313 *
0D
#10652451450
r314 *
1D
#10652452059
r315 *
1C
#10652452060
r316 *
b10100111 A
#10652453165
r317 *
b10 A
#10652453558
r318 *
0C
#10652453823
r319 *
0D
#10652454160
r320 *
1D
#10652454793
r321 *
1C
#10652456378
r322 *
b0 A
#10652456779
r323 *
0C
#10652457036
r324 *
0D
#10652457373
r325 *
1D
#10652457998
r326 *
1C
#10652458847
r327 *
b1 A
#10652459184
r328 *
0C
#10652459449
r329 *
0D
#10652459834
r330 *
1D
#10652460411
r331 *
1C
#10652461308
r332 *
b1001 A
#10652461589
r333 *
0C
#10652461854
r334 *
0D
#10652462055
r335 *
1D
#10652462664
r336 *
1C
#10652463777
r337 *
b0 A
#10652464162
r338 *
0C
#10652464419
r339 *
0D
#10652464764
r340 *
1D
#10652465381
r341 *
1C
#10652466238
r342 *
b1 A
#10652466567
r343 *
0C
#10652466824
r344 *
0D
#10652467233
r345 *
1D
#10652467802
r346 *
1C
#10652469451
r347 *
b0 A
#10652469788
r348 *
0C
#10652470045
r349 *
0D
#10652470446
r350 *
1D
#10652471927
r351 *
1C
#10652472200
r352 *
0C
#10652472465
r353 *
0D
#10652472666
r354 *
1D
#10652474395
r355 *
1C
#10652474772
r356 *
0C
#10652475037
r357 *
0D
#10652475390
r358 *
1D
#10652476863
r359 *
1C
#10652477192
r360 *
0C
#10652477449
r361 *
0D
#10652477858
r362 *
1D
#10652479339
r363 *
1C
#10652479764
r364 *
0C
#10652480029
r365 *
0D
#10652480326
r366 *
1D
#10652481807
r367 *
1C
#10652482176
r368 *
0C
#10652482441
r369 *
0D
#10652482802
r370 *
1D
#10652485027
r371 *
1C
#10652485404
r372 *
0C
#10652485669
r373 *
0D
#10652486022
r374 *
1D
#10652487503
r375 *
1C
#10652487816
r376 *
0C
#10652488081
r377 *
0D
#10652488490
r378 *
1D
#10652489971
r379 *
1C
#10652490396
r380 *
0C
#10652490661
r381 *
0D
#10652490966
r382 *
1D
#10652492447
r383 *
1C
#10652492808
r384 *
0C
#10652493073
r385 *
0D
#10652493434
r386 *
1D
#10652494915
r387 *
1C
#10652495220
r388 *
0C
#10652495485
r389 *
0D
#10652495910
r390 *
1D
#10652497391
r391 *
1C
#10652497800
r392 *
0C
#10652498065
r393 *
0D
#10652498378
r394 *
1D
#10652500611
r395 *
1C
#10652501028
r396 *
0C
#10652501285
r397 *
0D
#10652501598
r398 *
1D
#10652503079
r399 *
1C
#10652503440
r400 *
0C
#10652503705
r401 *
0D
#10652504074
r402 *
1D
#10652505555
r403 *
1C
#10652505852
r404 *
0C
#10652506117
r405 *
0D
#10652506302
r406 *
1D
#10652508023
r407 *
1C
#10652508432
r408 *
0C
#10652508689
r409 *
0D
#10652509018
r410 *
1D
#10652510499
r411 *
1C
#10652510844
r412 *
0C
#10652511109
r413 *
0D
#10652511486
r414 *
1D
#10652513719
r415 *
1C
#10652514072
r416 *
0C
#10652514329
r417 *
0D
#10652514706
r418 *
1D
#10652516187
r419 *
1C
#10652516484
r420 *
0C
#10652516749
r421 *
0D
#10652516934
r422 *
1D
#10652517543
r423 *
1C
#10652518656
r424 *
b10000011 A
#10652519049
r425 *
0C
#10652519314
r426 *
0D
#10652519643
r427 *
1D
#10652520276
r428 *
1C
#10652520285
r429 *
b11011011 A
#10652521110
r430 *
b1011001 A
#10652521455
r431 *
0C
#10652521712
r432 *
0D
#10652522105
r433 *
1D
#10652522690
r434 *
1C
#10652523571
r435 *
b1 A
#10652523860
r436 *
0C
#10652524125
r437 *
0D
#10652524318
r438 *
1D
#10652524935
r439 *
1C
#10652526040
r440 *
b0 A
#10652526425
r441 *
0C
#10652526690
r442 *
0D
#10652527027
r443 *
1D
#10652527652
r444 *
1C
#10652529253
r445 *
b1101100 A
#10652529646
r446 *
0C
#10652529911
r447 *
0D
#10652530248
r448 *
1D
#10652530889
r449 *
1C
#10652531722
r450 *
b0 A
#10652532051
r451 *
0C
#10652532316
r452 *
0D
#10652532709
r453 *
1D
#10652534190
r454 *
1C
#10652534471
r455 *
0C
#10652534728
r456 *
0D
#10652534929
r457 *
1D
#10652536658
r458 *
1C
#10652537043
r459 *
0C
#10652537308
r460 *
0D
#10652537653
r461 *
1D
#10652539134
r462 *
1C
#10652539455
r463 *
0C
#10652539720
r464 *
0D
#10652540121
r465 *
1D
#10652541602
r466 *
1C
#10652542035
r467 *
0C
#10652542300
r468 *
0D
#10652542597
r469 *
1D
#10652544822
r470 *
1C
#10652545263
r471 *
0C
#10652545520
r472 *
0D
#10652545817
r473 *
1D
#10652547298
r474 *
1C
#10652547675
r475 *
0C
#10652547940
r476 *
0D
#10652548285
r477 *
1D
#10652549766
r478 *
1C
#10652550087
r479 *
0C
#10652550352
r480 *
0D
#10652550761
r481 *
1D
#10652552242
r482 *
1C
#10652552667
r483 *
0C
#10652552924
r484 *
0D
#10652553229
r485 *
1D
#10652554710
r486 *
1C
#10652555079
r487 *
0C
#10652555344
r488 *
0D
#10652555705
r489 *
1D
#10652557930
r490 *
1C
#10652558307
r491 *
0C
#10652558564
r492 *
0D
#10652558925
r493 *
1D
#10652560406
r494 *
1C
#10652560719
r495 *
0C
#10652560984
r496 *
0D
#10652561393
r497 *
1D
#10652562874
r498 *
1C
#10652563291
r499 *
0C
#10652563556
r500 *
0D
#10652563869
r501 *
1D
#10652565350
r502 *
1C
#10652565711
r503 *
0C
#10652565968
r504 *
0D
#10652566337
r505 *
1D
#10652567818
r506 *
1C
#10652568123
r507 *
0C
#10652568388
r508 *
0D
#10652568573
r509 *
1D
#10652570294
r510 *
1C
#10652570695
r511 *
0C
#10652570960
r512 *
0D
#10652571281
r513 *
1D
#10652573514
r514 *
1C
#10652573923
r515 *
0C
#10652574188
r516 *
0D
#10652574501
r517 *
1D
#10652575150
r518 *
1C
#10652575975
r519 *
b110011 A
#10652576328
r520 *
0C
#10652576593
r521 *
0D
#10652576970
r522 *
1D
#10652577571
r523 *
1C
#10652577572
r524 *
b11000000 A
#10652578437
r525 *
b0 A
#10652578734
r526 *
0C
#10652578991
r527 *
0D
#10652579176
r528 *
1D
#10652580905
r529 *
1C
#10652581306
r530 *
0C
#10652581571
r531 *
0D
#10652581900
r532 *
1D
#10652583373
r533 *
1C
#10652583718
r534 *
0C
#10652583983
r535 *
0D
#10652584368
r536 *
1D
#10652585849
r537 *
1C
#10652586130
r538 *
0C
#10652586395
r539 *
0D
#10652586588
r540 *
1D
#10652589069
r541 *
1C
#10652589358
r542 *
0C
#10652589623
r543 *
0D
#10652589816
r544 *
1D
#10652591537
r545 *
1C
#10652591938
r546 *
0C
#10652592203
r547 *
0D
#10652592532
r548 *
1D
#10652594013
r549 *
1C
#10652594350
r550 *
0C
#10652594615
r551 *
0D
#10652595000
r552 *
1D
#10652596481
r553 *
1C
#10652596762
r554 *
0C
#10652597027
r555 *
0D
#10652597228
r556 *
1D
#10652598957
r557 *
1C
#10652599342
r558 *
0C
#10652599607
r559 *
0D
#10652599944
r560 *
1D
#10652601425
r561 *
1C
#10652601754
r562 *
0C
#10652602019
r563 *
0D
#10652602420
r564 *
1D
#10652604645
r565 *
1C
#10652604982
r566 *
0C
#10652605247
r567 *
0D
#10652605640
r568 *
1D
#10652607121
r569 *
1C
#10652607394
r570 *
0C
#10652607659
r571 *
0D
#10652607860
r572 *
1D
#10652609589
r573 *
1C
#10652609974
r574 *
0C
#10652610231
r575 *
0D
#10652610584
r576 *
1D
#10652612065
r577 *
1C
#10652612386
r578 *
0C
#10652612651
r579 *
0D
#10652613052
r580 *
1D
#10652614533
r581 *
1C
#10652614958
r582 *
0C
#10652615223
r583 *
0D
#10652615528
r584 *
1D
#10652617753
r585 *
1C
#10652618186
r586 *
0C
#10652618451
r587 *
0D
#10652618748
r588 *
1D
#10652620229
r589 *
1C
#10652620598
r590 *
0C
#10652620863
r591 *
0D
#10652621216
r592 *
1D
#10652622697
r593 *
1C
#10652623018
r594 *
0C
#10652623275
r595 *
0D
#10652623692
r596 *
1D
#10652625173
r597 *
1C
#10652625590
r598 *
0C
#10652625855
r599 *
0D
#10652626160
r600 *
1D
#10652627641
r601 *
1C
#10652628002
r602 *
0C
#10652628267
r603 *
0D
#10652628636
r604 *
1D
#10652630109
r605 *
1C
#10652630414
r606 *
0C
#10652630679
r607 *
0D
#10652631104
r608 *
1D
#10652633337
r609 *
1C
#10652633642
r610 *
0C
#10652633907
r611 *
0D
#10652634324
r612 *
1D
#10652635805
r613 *
1C
#10652636222
r614 *
0C
#10652636487
r615 *
0D
#10652636800
r616 *
1D
#10652638281
r617 *
1C
#10652638634
r618 *
0C
#10652638899
r619 *
0D
#10652639268
r620 *
1D
#10652640749
r621 *
1C
#10652641046
r622 *
0C
#10652641311
r623 *
0D
#10652641496
r624 *
1D
#10652643217
r625 *
1C
#10652643626
r626 *
0C
#10652643891
r627 *
0D
#10652644212
r628 *
1D
#10652645693
r629 *
1C
#10652646038
r630 *
0C
#10652646303
r631 *
0D
#10652646680
r632 *
1D
#10652648913
r633 *
1C
#10652649266
r634 *
0C
#10652649531
r635 *
0D
#10652649908
r636 *
1D
#10652651381
r637 *
1C
#10652651678
r638 *
0C
#10652651943
r639 *
0D
#10652652128
r640 *
1D
#10652653857
r641 *
1C
#10652654258
r642 *
0C
#10652654515
r643 *
0D
#10652654844
r644 *
1D
#10652656325
r645 *
1C
#10652656670
r646 *
0C
#10652656935
r647 *
0D
#10652657320
r648 *
1D
#10652658801
r649 *
1C
#10652659082
r650 *
0C
#10652659347
r651 *
0D
#10652659540
r652 *
1D
#10652662021
r653 *
1C
#10652662310
r654 *
0C
#10652662575
r655 *
0D
#10652662760
r656 *
1D
#10652664489
r657 *
1C
#10652664882
r658 *
0C
#10652665147
r659 *
0D
#10652665484
r660 *
1D
#10652666965
r661 *
1C
#10652667302
r662 *
0C
#10652667559
r663 *
0D
#10652667952
r664 *
1D
#10652669433
r665 *
1C
#10652669714
r666 *
0C
#10652669979
r667 *
0D
#10652670180
r668 *
1D
#10652671909
r669 *
1C
#10652672238
r670 *
0C
#10652672391
r671 *
0D
#10652672648
r672 *
1D
#10652673081
r673 *
1C
#10652673250
r674 *
1E
#10652775883
r675 *
b0 B
#12224461740
r676 *
b1 B
#12224461741
r677 *
#12224461742
r678 *
#12224461743
r679 *
#12224461744
r680 *
#12224461745
r681 *
